<?xml version="1.0" encoding="UTF-8" standalone="no"?>
<!-- Created with Inkscape (http://www.inkscape.org/) -->

<svg
   xmlns:dc="http://purl.org/dc/elements/1.1/"
   xmlns:cc="http://creativecommons.org/ns#"
   xmlns:rdf="http://www.w3.org/1999/02/22-rdf-syntax-ns#"
   xmlns:svg="http://www.w3.org/2000/svg"
   xmlns="http://www.w3.org/2000/svg"
   xmlns:sodipodi="http://sodipodi.sourceforge.net/DTD/sodipodi-0.dtd"
   xmlns:inkscape="http://www.inkscape.org/namespaces/inkscape"
   width="131.145"
   height="91.069504"
   id="svg8357"
   version="1.1"
   inkscape:version="0.48.4 r9939"
   sodipodi:docname="D6047.svg">
  <defs
     id="defs8359">
    <clipPath
       clipPathUnits="userSpaceOnUse"
       id="clipPath15530">
      <path
         inkscape:connector-curvature="0"
         d="m 54,455.8 201.6,0 0,201.2 -201.6,0 0,-201.2 z"
         id="path15532" />
    </clipPath>
    <clipPath
       clipPathUnits="userSpaceOnUse"
       id="clipPath14168">
      <path
         inkscape:connector-curvature="0"
         d="m 54,264.4 201.6,0 0,221.6 -201.6,0 0,-221.6 z"
         id="path14170" />
    </clipPath>
    <clipPath
       clipPathUnits="userSpaceOnUse"
       id="clipPath13416">
      <path
         inkscape:connector-curvature="0"
         d="m 54,80 201.6,0 0,202.7 L 54,282.7 54,80 z"
         id="path13418" />
    </clipPath>
    <clipPath
       clipPathUnits="userSpaceOnUse"
       id="clipPath13416-4">
      <path
         d="m 54,80 201.6,0 0,202.7 L 54,282.7 54,80 z"
         id="path13418-5"
         inkscape:connector-curvature="0" />
    </clipPath>
    <clipPath
       clipPathUnits="userSpaceOnUse"
       id="clipPath14168-8">
      <path
         d="m 54,264.4 201.6,0 0,221.6 -201.6,0 0,-221.6 z"
         id="path14170-2"
         inkscape:connector-curvature="0" />
    </clipPath>
    <clipPath
       clipPathUnits="userSpaceOnUse"
       id="clipPath15530-4">
      <path
         d="m 54,455.8 201.6,0 0,201.2 -201.6,0 0,-201.2 z"
         id="path15532-8"
         inkscape:connector-curvature="0" />
    </clipPath>
    <clipPath
       clipPathUnits="userSpaceOnUse"
       id="clipPath3129">
      <path
         d="m 58.5,774 28.95,0 C 93.8289,774 99,768.8289 99,762.45 l 0,-57.9 C 99,698.1711 93.8289,693 87.45,693 l -57.9,0 C 23.1711,693 18,698.1711 18,704.55 l 0,57.9 c 0,6.3789 5.1711,11.55 11.55,11.55"
         clip-rule="evenodd"
         id="path3131"
         inkscape:connector-curvature="0" />
    </clipPath>
    <clipPath
       clipPathUnits="userSpaceOnUse"
       id="clipPath3143">
      <path
         d="m 18,80 144,0 0,166.6 -144,0 L 18,80 z"
         id="path3145"
         inkscape:connector-curvature="0" />
    </clipPath>
    <clipPath
       clipPathUnits="userSpaceOnUse"
       id="clipPath4225">
      <path
         d="m 18,226.8 144,0 0,159.6 -144,0 0,-159.6 z"
         id="path4227"
         inkscape:connector-curvature="0" />
    </clipPath>
    <clipPath
       clipPathUnits="userSpaceOnUse"
       id="clipPath5141">
      <path
         d="m 18,360 144,0 0,160.7 -144,0 0,-160.7 z"
         id="path5143"
         inkscape:connector-curvature="0" />
    </clipPath>
    <clipPath
       clipPathUnits="userSpaceOnUse"
       id="clipPath5911">
      <path
         d="m 18,504 144,0 0,153 -144,0 0,-153 z"
         id="path5913"
         inkscape:connector-curvature="0" />
    </clipPath>
    <clipPath
       clipPathUnits="userSpaceOnUse"
       id="clipPath6873">
      <path
         d="m 58.5,773.5 28.7,0 c 6.2408,0 11.3,-5.0592 11.3,-11.3 l 0,-57.4 c 0,-6.2408 -5.0592,-11.3 -11.3,-11.3 l -57.4,0 c -6.2408,0 -11.3,5.0592 -11.3,11.3 l 0,57.4 c 0,6.2408 5.0592,11.3 11.3,11.3"
         clip-rule="evenodd"
         id="path6875"
         inkscape:connector-curvature="0" />
    </clipPath>
    <clipPath
       clipPathUnits="userSpaceOnUse"
       id="clipPath6897">
      <path
         d="m 58.5,774 28.7,0 c 6.517,0 11.8,-5.283 11.8,-11.8 l 0,-57.4 C 99,698.283 93.717,693 87.2,693 l -57.4,0 C 23.283,693 18,698.283 18,704.8 l 0,57.4 c 0,6.517 5.283,11.8 11.8,11.8"
         clip-rule="evenodd"
         id="path6899"
         inkscape:connector-curvature="0" />
    </clipPath>
    <clipPath
       clipPathUnits="userSpaceOnUse"
       id="clipPath15530-4-1">
      <path
         inkscape:connector-curvature="0"
         d="m 54,455.8 201.6,0 0,201.2 -201.6,0 0,-201.2 z"
         id="path15532-8-5" />
    </clipPath>
    <clipPath
       clipPathUnits="userSpaceOnUse"
       id="clipPath22509">
      <path
         inkscape:connector-curvature="0"
         d="m 18,571.104 144,0 0,85.896 -144,0 0,-85.896 z"
         id="path22511" />
    </clipPath>
    <clipPath
       clipPathUnits="userSpaceOnUse"
       id="clipPath22509-6">
      <path
         inkscape:connector-curvature="0"
         d="m 18,571.104 144,0 0,85.896 -144,0 0,-85.896 z"
         id="path22511-0" />
    </clipPath>
    <clipPath
       clipPathUnits="userSpaceOnUse"
       id="clipPath24435">
      <path
         d="m 196.992,401.6 84.024,0 0,41.2 -84.024,0 0,-41.2 z"
         id="path24437"
         inkscape:connector-curvature="0" />
    </clipPath>
    <clipPath
       clipPathUnits="userSpaceOnUse"
       id="clipPath24455">
      <path
         d="m 197,460.003 84.024,0 0,57.88 -84.024,0 0,-57.88 z"
         id="path24457"
         inkscape:connector-curvature="0" />
    </clipPath>
    <clipPath
       clipPathUnits="userSpaceOnUse"
       id="clipPath24475">
      <path
         d="m 197,527.6 84.024,0 0,36 -84.024,0 0,-36 z"
         id="path24477"
         inkscape:connector-curvature="0" />
    </clipPath>
    <clipPath
       clipPathUnits="userSpaceOnUse"
       id="clipPath24569">
      <path
         d="m 54,571.106 144,0 0,85.896 -144,0 0,-85.896 z"
         id="path24571"
         inkscape:connector-curvature="0" />
    </clipPath>
    <clipPath
       clipPathUnits="userSpaceOnUse"
       id="clipPath24787">
      <path
         d="m 196.992,341.68 84.024,0 0,43 -84.024,0 0,-43 z"
         id="path24789"
         inkscape:connector-curvature="0" />
    </clipPath>
    <clipPath
       clipPathUnits="userSpaceOnUse"
       id="clipPath24807">
      <path
         d="m 196.992,284.2 84.024,0 0,37.28 -84.024,0 0,-37.28 z"
         id="path24809"
         inkscape:connector-curvature="0" />
    </clipPath>
    <clipPath
       clipPathUnits="userSpaceOnUse"
       id="clipPath24827">
      <path
         d="m 196.992,216.48 84.024,0 0,48 -84.024,0 0,-48 z"
         id="path24829"
         inkscape:connector-curvature="0" />
    </clipPath>
    <clipPath
       clipPathUnits="userSpaceOnUse"
       id="clipPath24847">
      <path
         d="m 196.992,156.48 84.024,0 0,48 -84.024,0 0,-48 z"
         id="path24849"
         inkscape:connector-curvature="0" />
    </clipPath>
    <clipPath
       clipPathUnits="userSpaceOnUse"
       id="clipPath22337">
      <path
         d="m 58.5,773.625 28.95,0 c 6.1718,0 11.175,-5.0032 11.175,-11.175 l 0,-57.9 c 0,-6.1718 -5.0032,-11.175 -11.175,-11.175 l -57.9,0 c -6.1718,0 -11.175,5.0032 -11.175,11.175 l 0,57.9 c 0,6.1718 5.0032,11.175 11.175,11.175"
         clip-rule="evenodd"
         id="path22339"
         inkscape:connector-curvature="0" />
    </clipPath>
    <clipPath
       clipPathUnits="userSpaceOnUse"
       id="clipPath22361">
      <path
         d="m 58.5,774 28.95,0 C 93.8289,774 99,768.8289 99,762.45 l 0,-57.9 C 99,698.1711 93.8289,693 87.45,693 l -57.9,0 C 23.1711,693 18,698.1711 18,704.55 l 0,57.9 c 0,6.3789 5.1711,11.55 11.55,11.55"
         clip-rule="evenodd"
         id="path22363"
         inkscape:connector-curvature="0" />
    </clipPath>
    <clipPath
       clipPathUnits="userSpaceOnUse"
       id="clipPath22375">
      <path
         d="m 160.992,428.4 84.024,0 0,40.913 -84.024,0 0,-40.913 z"
         id="path22377"
         inkscape:connector-curvature="0" />
    </clipPath>
    <clipPath
       clipPathUnits="userSpaceOnUse"
       id="clipPath22395">
      <path
         d="m 161,474.21 84.024,0 0,53.686 -84.024,0 0,-53.686 z"
         id="path22397"
         inkscape:connector-curvature="0" />
    </clipPath>
    <clipPath
       clipPathUnits="userSpaceOnUse"
       id="clipPath22415">
      <path
         d="m 161,528.2 84.024,0 0,39.4 -84.024,0 0,-39.4 z"
         id="path22417"
         inkscape:connector-curvature="0" />
    </clipPath>
    <clipPath
       clipPathUnits="userSpaceOnUse"
       id="clipPath22509-1">
      <path
         d="m 18,571.104 144,0 0,85.896 -144,0 0,-85.896 z"
         id="path22511-6"
         inkscape:connector-curvature="0" />
    </clipPath>
    <clipPath
       clipPathUnits="userSpaceOnUse"
       id="clipPath22733">
      <path
         d="m 58.5,773.5 28.7,0 c 6.2408,0 11.3,-5.0592 11.3,-11.3 l 0,-57.4 c 0,-6.2408 -5.0592,-11.3 -11.3,-11.3 l -57.4,0 c -6.2408,0 -11.3,5.0592 -11.3,11.3 l 0,57.4 c 0,6.2408 5.0592,11.3 11.3,11.3"
         clip-rule="evenodd"
         id="path22735"
         inkscape:connector-curvature="0" />
    </clipPath>
    <clipPath
       clipPathUnits="userSpaceOnUse"
       id="clipPath22757">
      <path
         d="m 58.5,774 28.7,0 c 6.517,0 11.8,-5.283 11.8,-11.8 l 0,-57.4 C 99,698.283 93.717,693 87.2,693 l -57.4,0 C 23.283,693 18,698.283 18,704.8 l 0,57.4 c 0,6.517 5.283,11.8 11.8,11.8"
         clip-rule="evenodd"
         id="path22759"
         inkscape:connector-curvature="0" />
    </clipPath>
    <clipPath
       clipPathUnits="userSpaceOnUse"
       id="clipPath22771">
      <path
         d="m 160.992,347.8 84.024,0 0,44.88 -84.024,0 0,-44.88 z"
         id="path22773"
         inkscape:connector-curvature="0" />
    </clipPath>
    <clipPath
       clipPathUnits="userSpaceOnUse"
       id="clipPath22791">
      <path
         d="m 160.992,172.8 84.024,0 0,52.68 -84.024,0 0,-52.68 z"
         id="path22793"
         inkscape:connector-curvature="0" />
    </clipPath>
    <clipPath
       clipPathUnits="userSpaceOnUse"
       id="clipPath22811">
      <path
         d="m 160.992,118.8 84.024,0 0,46.81 -84.024,0 0,-46.81 z"
         id="path22813"
         inkscape:connector-curvature="0" />
    </clipPath>
    <clipPath
       clipPathUnits="userSpaceOnUse"
       id="clipPath22831">
      <path
         d="m 160.992,79.21 84.024,0 0,36.599 -84.024,0 0,-36.599 z"
         id="path22833"
         inkscape:connector-curvature="0" />
    </clipPath>
    <clipPath
       clipPathUnits="userSpaceOnUse"
       id="clipPath22847">
      <path
         d="m 160.992,390.832 84.024,0 0,37.568 -84.024,0 0,-37.568 z"
         id="path22849"
         inkscape:connector-curvature="0" />
    </clipPath>
    <clipPath
       clipPathUnits="userSpaceOnUse"
       id="clipPath22863">
      <path
         d="m 160.992,310.408 84.024,0 0,39.231 -84.024,0 0,-39.231 z"
         id="path22865"
         inkscape:connector-curvature="0" />
    </clipPath>
    <clipPath
       clipPathUnits="userSpaceOnUse"
       id="clipPath22879">
      <path
         d="m 160.992,268.6 84.024,0 0,37.68 -84.024,0 0,-37.68 z"
         id="path22881"
         inkscape:connector-curvature="0" />
    </clipPath>
    <clipPath
       clipPathUnits="userSpaceOnUse"
       id="clipPath22899">
      <path
         d="m 160.992,232.808 84.024,0 0,36.031 -84.024,0 0,-36.031 z"
         id="path22901"
         inkscape:connector-curvature="0" />
    </clipPath>
    <clipPath
       clipPathUnits="userSpaceOnUse"
       id="clipPath13416-2">
      <path
         d="m 54,80 201.6,0 0,202.7 L 54,282.7 54,80 z"
         id="path13418-0"
         inkscape:connector-curvature="0" />
    </clipPath>
    <clipPath
       clipPathUnits="userSpaceOnUse"
       id="clipPath14168-5">
      <path
         d="m 54,264.4 201.6,0 0,221.6 -201.6,0 0,-221.6 z"
         id="path14170-1"
         inkscape:connector-curvature="0" />
    </clipPath>
    <clipPath
       clipPathUnits="userSpaceOnUse"
       id="clipPath15530-8">
      <path
         d="m 54,455.8 201.6,0 0,201.2 -201.6,0 0,-201.2 z"
         id="path15532-3"
         inkscape:connector-curvature="0" />
    </clipPath>
    <clipPath
       clipPathUnits="userSpaceOnUse"
       id="clipPath3129-4">
      <path
         d="m 58.5,774 28.95,0 C 93.8289,774 99,768.8289 99,762.45 l 0,-57.9 C 99,698.1711 93.8289,693 87.45,693 l -57.9,0 C 23.1711,693 18,698.1711 18,704.55 l 0,57.9 c 0,6.3789 5.1711,11.55 11.55,11.55"
         clip-rule="evenodd"
         id="path3131-7"
         inkscape:connector-curvature="0" />
    </clipPath>
    <clipPath
       clipPathUnits="userSpaceOnUse"
       id="clipPath3143-0">
      <path
         d="m 18,80 144,0 0,166.6 -144,0 L 18,80 z"
         id="path3145-9"
         inkscape:connector-curvature="0" />
    </clipPath>
    <clipPath
       clipPathUnits="userSpaceOnUse"
       id="clipPath4225-2">
      <path
         d="m 18,226.8 144,0 0,159.6 -144,0 0,-159.6 z"
         id="path4227-5"
         inkscape:connector-curvature="0" />
    </clipPath>
    <clipPath
       clipPathUnits="userSpaceOnUse"
       id="clipPath5141-0">
      <path
         d="m 18,360 144,0 0,160.7 -144,0 0,-160.7 z"
         id="path5143-1"
         inkscape:connector-curvature="0" />
    </clipPath>
    <clipPath
       clipPathUnits="userSpaceOnUse"
       id="clipPath5911-3">
      <path
         d="m 18,504 144,0 0,153 -144,0 0,-153 z"
         id="path5913-8"
         inkscape:connector-curvature="0" />
    </clipPath>
    <clipPath
       clipPathUnits="userSpaceOnUse"
       id="clipPath6873-6">
      <path
         d="m 58.5,773.5 28.7,0 c 6.2408,0 11.3,-5.0592 11.3,-11.3 l 0,-57.4 c 0,-6.2408 -5.0592,-11.3 -11.3,-11.3 l -57.4,0 c -6.2408,0 -11.3,5.0592 -11.3,11.3 l 0,57.4 c 0,6.2408 5.0592,11.3 11.3,11.3"
         clip-rule="evenodd"
         id="path6875-0"
         inkscape:connector-curvature="0" />
    </clipPath>
    <clipPath
       clipPathUnits="userSpaceOnUse"
       id="clipPath6897-2">
      <path
         d="m 58.5,774 28.7,0 c 6.517,0 11.8,-5.283 11.8,-11.8 l 0,-57.4 C 99,698.283 93.717,693 87.2,693 l -57.4,0 C 23.283,693 18,698.283 18,704.8 l 0,57.4 c 0,6.517 5.283,11.8 11.8,11.8"
         clip-rule="evenodd"
         id="path6899-6"
         inkscape:connector-curvature="0" />
    </clipPath>
    <clipPath
       clipPathUnits="userSpaceOnUse"
       id="clipPath24569-8">
      <path
         inkscape:connector-curvature="0"
         d="m 54,571.106 144,0 0,85.896 -144,0 0,-85.896 z"
         id="path24571-9" />
    </clipPath>
    <clipPath
       clipPathUnits="userSpaceOnUse"
       id="clipPath26813">
      <path
         inkscape:connector-curvature="0"
         d="m 18,559.2 144,0 0,97.44 -144,0 0,-97.44 z"
         id="path26815" />
    </clipPath>
    <clipPath
       clipPathUnits="userSpaceOnUse"
       id="clipPath26991">
      <path
         inkscape:connector-curvature="0"
         d="m 18,469.2 144,0 0,97.44 -144,0 0,-97.44 z"
         id="path26993" />
    </clipPath>
    <clipPath
       clipPathUnits="userSpaceOnUse"
       id="clipPath26335">
      <path
         inkscape:connector-curvature="0"
         d="m 18,378.002 144,0 0,97.6 -144,0 0,-97.6 z"
         id="path26337" />
    </clipPath>
    <clipPath
       clipPathUnits="userSpaceOnUse"
       id="clipPath26531">
      <path
         inkscape:connector-curvature="0"
         d="m 18,288.002 144,0 0,97.6 -144,0 0,-97.6 z"
         id="path26533" />
    </clipPath>
    <clipPath
       clipPathUnits="userSpaceOnUse"
       id="clipPath26681">
      <path
         inkscape:connector-curvature="0"
         d="m 18,198.002 144,0 0,97.6 -144,0 0,-97.6 z"
         id="path26683" />
    </clipPath>
    <clipPath
       clipPathUnits="userSpaceOnUse"
       id="clipPath26201">
      <path
         inkscape:connector-curvature="0"
         d="m 18,80.008 144,0 0,128.792 -144,0 0,-128.792 z"
         id="path26203" />
    </clipPath>
    <clipPath
       clipPathUnits="userSpaceOnUse"
       id="clipPath30000">
      <path
         d="m 54,80 201.6,0 0,157.6 L 54,237.6 54,80 z"
         id="path30002"
         inkscape:connector-curvature="0" />
    </clipPath>
    <clipPath
       clipPathUnits="userSpaceOnUse"
       id="clipPath30330">
      <path
         d="m 54,228 201.6,0 0,150 -201.6,0 0,-150 z"
         id="path30332"
         inkscape:connector-curvature="0" />
    </clipPath>
    <clipPath
       clipPathUnits="userSpaceOnUse"
       id="clipPath31464">
      <path
         d="m 54,362.2 201.6,0 0,129.8 -201.6,0 0,-129.8 z"
         id="path31466"
         inkscape:connector-curvature="0" />
    </clipPath>
    <clipPath
       clipPathUnits="userSpaceOnUse"
       id="clipPath31760">
      <path
         d="m 54,466.804 201.6,0 0,188.998 -201.6,0 0,-188.998 z"
         id="path31762"
         inkscape:connector-curvature="0" />
    </clipPath>
    <clipPath
       clipPathUnits="userSpaceOnUse"
       id="clipPath26163">
      <path
         d="m 58.5,773.625 28.95,0 c 6.1718,0 11.175,-5.0032 11.175,-11.175 l 0,-57.9 c 0,-6.1718 -5.0032,-11.175 -11.175,-11.175 l -57.9,0 c -6.1718,0 -11.175,5.0032 -11.175,11.175 l 0,57.9 c 0,6.1718 5.0032,11.175 11.175,11.175"
         clip-rule="evenodd"
         id="path26165"
         inkscape:connector-curvature="0" />
    </clipPath>
    <clipPath
       clipPathUnits="userSpaceOnUse"
       id="clipPath26187">
      <path
         d="m 58.5,774 28.95,0 C 93.8289,774 99,768.8289 99,762.45 l 0,-57.9 C 99,698.1711 93.8289,693 87.45,693 l -57.9,0 C 23.1711,693 18,698.1711 18,704.55 l 0,57.9 c 0,6.3789 5.1711,11.55 11.55,11.55"
         clip-rule="evenodd"
         id="path26189"
         inkscape:connector-curvature="0" />
    </clipPath>
    <clipPath
       clipPathUnits="userSpaceOnUse"
       id="clipPath26201-7">
      <path
         d="m 18,80.008 144,0 0,128.792 -144,0 0,-128.792 z"
         id="path26203-2"
         inkscape:connector-curvature="0" />
    </clipPath>
    <clipPath
       clipPathUnits="userSpaceOnUse"
       id="clipPath26335-0">
      <path
         d="m 18,378.002 144,0 0,97.6 -144,0 0,-97.6 z"
         id="path26337-3"
         inkscape:connector-curvature="0" />
    </clipPath>
    <clipPath
       clipPathUnits="userSpaceOnUse"
       id="clipPath26531-5">
      <path
         d="m 18,288.002 144,0 0,97.6 -144,0 0,-97.6 z"
         id="path26533-2"
         inkscape:connector-curvature="0" />
    </clipPath>
    <clipPath
       clipPathUnits="userSpaceOnUse"
       id="clipPath26681-8">
      <path
         d="m 18,198.002 144,0 0,97.6 -144,0 0,-97.6 z"
         id="path26683-2"
         inkscape:connector-curvature="0" />
    </clipPath>
    <clipPath
       clipPathUnits="userSpaceOnUse"
       id="clipPath26813-0">
      <path
         d="m 18,559.2 144,0 0,97.44 -144,0 0,-97.44 z"
         id="path26815-3"
         inkscape:connector-curvature="0" />
    </clipPath>
    <clipPath
       clipPathUnits="userSpaceOnUse"
       id="clipPath26991-7">
      <path
         d="m 18,469.2 144,0 0,97.44 -144,0 0,-97.44 z"
         id="path26993-3"
         inkscape:connector-curvature="0" />
    </clipPath>
    <clipPath
       clipPathUnits="userSpaceOnUse"
       id="clipPath27211">
      <path
         d="m 58.5,773.5 28.7,0 c 6.2408,0 11.3,-5.0592 11.3,-11.3 l 0,-57.4 c 0,-6.2408 -5.0592,-11.3 -11.3,-11.3 l -57.4,0 c -6.2408,0 -11.3,5.0592 -11.3,11.3 l 0,57.4 c 0,6.2408 5.0592,11.3 11.3,11.3"
         clip-rule="evenodd"
         id="path27213"
         inkscape:connector-curvature="0" />
    </clipPath>
    <clipPath
       clipPathUnits="userSpaceOnUse"
       id="clipPath27235">
      <path
         d="m 58.5,774 28.7,0 c 6.517,0 11.8,-5.283 11.8,-11.8 l 0,-57.4 C 99,698.283 93.717,693 87.2,693 l -57.4,0 C 23.283,693 18,698.283 18,704.8 l 0,57.4 c 0,6.517 5.283,11.8 11.8,11.8"
         clip-rule="evenodd"
         id="path27237"
         inkscape:connector-curvature="0" />
    </clipPath>
    <clipPath
       clipPathUnits="userSpaceOnUse"
       id="clipPath24435-7">
      <path
         d="m 196.992,401.6 84.024,0 0,41.2 -84.024,0 0,-41.2 z"
         id="path24437-8"
         inkscape:connector-curvature="0" />
    </clipPath>
    <clipPath
       clipPathUnits="userSpaceOnUse"
       id="clipPath24455-0">
      <path
         d="m 197,460.003 84.024,0 0,57.88 -84.024,0 0,-57.88 z"
         id="path24457-7"
         inkscape:connector-curvature="0" />
    </clipPath>
    <clipPath
       clipPathUnits="userSpaceOnUse"
       id="clipPath24475-9">
      <path
         d="m 197,527.6 84.024,0 0,36 -84.024,0 0,-36 z"
         id="path24477-3"
         inkscape:connector-curvature="0" />
    </clipPath>
    <clipPath
       clipPathUnits="userSpaceOnUse"
       id="clipPath24569-4">
      <path
         d="m 54,571.106 144,0 0,85.896 -144,0 0,-85.896 z"
         id="path24571-2"
         inkscape:connector-curvature="0" />
    </clipPath>
    <clipPath
       clipPathUnits="userSpaceOnUse"
       id="clipPath24787-4">
      <path
         d="m 196.992,341.68 84.024,0 0,43 -84.024,0 0,-43 z"
         id="path24789-4"
         inkscape:connector-curvature="0" />
    </clipPath>
    <clipPath
       clipPathUnits="userSpaceOnUse"
       id="clipPath24807-4">
      <path
         d="m 196.992,284.2 84.024,0 0,37.28 -84.024,0 0,-37.28 z"
         id="path24809-4"
         inkscape:connector-curvature="0" />
    </clipPath>
    <clipPath
       clipPathUnits="userSpaceOnUse"
       id="clipPath24827-5">
      <path
         d="m 196.992,216.48 84.024,0 0,48 -84.024,0 0,-48 z"
         id="path24829-7"
         inkscape:connector-curvature="0" />
    </clipPath>
    <clipPath
       clipPathUnits="userSpaceOnUse"
       id="clipPath24847-1">
      <path
         d="m 196.992,156.48 84.024,0 0,48 -84.024,0 0,-48 z"
         id="path24849-2"
         inkscape:connector-curvature="0" />
    </clipPath>
    <clipPath
       clipPathUnits="userSpaceOnUse"
       id="clipPath22337-5">
      <path
         d="m 58.5,773.625 28.95,0 c 6.1718,0 11.175,-5.0032 11.175,-11.175 l 0,-57.9 c 0,-6.1718 -5.0032,-11.175 -11.175,-11.175 l -57.9,0 c -6.1718,0 -11.175,5.0032 -11.175,11.175 l 0,57.9 c 0,6.1718 5.0032,11.175 11.175,11.175"
         clip-rule="evenodd"
         id="path22339-8"
         inkscape:connector-curvature="0" />
    </clipPath>
    <clipPath
       clipPathUnits="userSpaceOnUse"
       id="clipPath22361-8">
      <path
         d="m 58.5,774 28.95,0 C 93.8289,774 99,768.8289 99,762.45 l 0,-57.9 C 99,698.1711 93.8289,693 87.45,693 l -57.9,0 C 23.1711,693 18,698.1711 18,704.55 l 0,57.9 c 0,6.3789 5.1711,11.55 11.55,11.55"
         clip-rule="evenodd"
         id="path22363-7"
         inkscape:connector-curvature="0" />
    </clipPath>
    <clipPath
       clipPathUnits="userSpaceOnUse"
       id="clipPath22375-2">
      <path
         d="m 160.992,428.4 84.024,0 0,40.913 -84.024,0 0,-40.913 z"
         id="path22377-8"
         inkscape:connector-curvature="0" />
    </clipPath>
    <clipPath
       clipPathUnits="userSpaceOnUse"
       id="clipPath22395-3">
      <path
         d="m 161,474.21 84.024,0 0,53.686 -84.024,0 0,-53.686 z"
         id="path22397-4"
         inkscape:connector-curvature="0" />
    </clipPath>
    <clipPath
       clipPathUnits="userSpaceOnUse"
       id="clipPath22415-9">
      <path
         d="m 161,528.2 84.024,0 0,39.4 -84.024,0 0,-39.4 z"
         id="path22417-6"
         inkscape:connector-curvature="0" />
    </clipPath>
    <clipPath
       clipPathUnits="userSpaceOnUse"
       id="clipPath22509-4">
      <path
         d="m 18,571.104 144,0 0,85.896 -144,0 0,-85.896 z"
         id="path22511-05"
         inkscape:connector-curvature="0" />
    </clipPath>
    <clipPath
       clipPathUnits="userSpaceOnUse"
       id="clipPath22733-3">
      <path
         d="m 58.5,773.5 28.7,0 c 6.2408,0 11.3,-5.0592 11.3,-11.3 l 0,-57.4 c 0,-6.2408 -5.0592,-11.3 -11.3,-11.3 l -57.4,0 c -6.2408,0 -11.3,5.0592 -11.3,11.3 l 0,57.4 c 0,6.2408 5.0592,11.3 11.3,11.3"
         clip-rule="evenodd"
         id="path22735-4"
         inkscape:connector-curvature="0" />
    </clipPath>
    <clipPath
       clipPathUnits="userSpaceOnUse"
       id="clipPath22757-2">
      <path
         d="m 58.5,774 28.7,0 c 6.517,0 11.8,-5.283 11.8,-11.8 l 0,-57.4 C 99,698.283 93.717,693 87.2,693 l -57.4,0 C 23.283,693 18,698.283 18,704.8 l 0,57.4 c 0,6.517 5.283,11.8 11.8,11.8"
         clip-rule="evenodd"
         id="path22759-9"
         inkscape:connector-curvature="0" />
    </clipPath>
    <clipPath
       clipPathUnits="userSpaceOnUse"
       id="clipPath22771-4">
      <path
         d="m 160.992,347.8 84.024,0 0,44.88 -84.024,0 0,-44.88 z"
         id="path22773-9"
         inkscape:connector-curvature="0" />
    </clipPath>
    <clipPath
       clipPathUnits="userSpaceOnUse"
       id="clipPath22791-3">
      <path
         d="m 160.992,172.8 84.024,0 0,52.68 -84.024,0 0,-52.68 z"
         id="path22793-6"
         inkscape:connector-curvature="0" />
    </clipPath>
    <clipPath
       clipPathUnits="userSpaceOnUse"
       id="clipPath22811-5">
      <path
         d="m 160.992,118.8 84.024,0 0,46.81 -84.024,0 0,-46.81 z"
         id="path22813-0"
         inkscape:connector-curvature="0" />
    </clipPath>
    <clipPath
       clipPathUnits="userSpaceOnUse"
       id="clipPath22831-9">
      <path
         d="m 160.992,79.21 84.024,0 0,36.599 -84.024,0 0,-36.599 z"
         id="path22833-1"
         inkscape:connector-curvature="0" />
    </clipPath>
    <clipPath
       clipPathUnits="userSpaceOnUse"
       id="clipPath22847-6">
      <path
         d="m 160.992,390.832 84.024,0 0,37.568 -84.024,0 0,-37.568 z"
         id="path22849-2"
         inkscape:connector-curvature="0" />
    </clipPath>
    <clipPath
       clipPathUnits="userSpaceOnUse"
       id="clipPath22863-1">
      <path
         d="m 160.992,310.408 84.024,0 0,39.231 -84.024,0 0,-39.231 z"
         id="path22865-4"
         inkscape:connector-curvature="0" />
    </clipPath>
    <clipPath
       clipPathUnits="userSpaceOnUse"
       id="clipPath22879-6">
      <path
         d="m 160.992,268.6 84.024,0 0,37.68 -84.024,0 0,-37.68 z"
         id="path22881-2"
         inkscape:connector-curvature="0" />
    </clipPath>
    <clipPath
       clipPathUnits="userSpaceOnUse"
       id="clipPath22899-1">
      <path
         d="m 160.992,232.808 84.024,0 0,36.031 -84.024,0 0,-36.031 z"
         id="path22901-8"
         inkscape:connector-curvature="0" />
    </clipPath>
    <clipPath
       clipPathUnits="userSpaceOnUse"
       id="clipPath13416-3">
      <path
         d="m 54,80 201.6,0 0,202.7 L 54,282.7 54,80 z"
         id="path13418-6"
         inkscape:connector-curvature="0" />
    </clipPath>
    <clipPath
       clipPathUnits="userSpaceOnUse"
       id="clipPath14168-82">
      <path
         d="m 54,264.4 201.6,0 0,221.6 -201.6,0 0,-221.6 z"
         id="path14170-5"
         inkscape:connector-curvature="0" />
    </clipPath>
    <clipPath
       clipPathUnits="userSpaceOnUse"
       id="clipPath15530-3">
      <path
         d="m 54,455.8 201.6,0 0,201.2 -201.6,0 0,-201.2 z"
         id="path15532-2"
         inkscape:connector-curvature="0" />
    </clipPath>
    <clipPath
       clipPathUnits="userSpaceOnUse"
       id="clipPath3129-5">
      <path
         d="m 58.5,774 28.95,0 C 93.8289,774 99,768.8289 99,762.45 l 0,-57.9 C 99,698.1711 93.8289,693 87.45,693 l -57.9,0 C 23.1711,693 18,698.1711 18,704.55 l 0,57.9 c 0,6.3789 5.1711,11.55 11.55,11.55"
         clip-rule="evenodd"
         id="path3131-5"
         inkscape:connector-curvature="0" />
    </clipPath>
    <clipPath
       clipPathUnits="userSpaceOnUse"
       id="clipPath3143-3">
      <path
         d="m 18,80 144,0 0,166.6 -144,0 L 18,80 z"
         id="path3145-3"
         inkscape:connector-curvature="0" />
    </clipPath>
    <clipPath
       clipPathUnits="userSpaceOnUse"
       id="clipPath4225-1">
      <path
         d="m 18,226.8 144,0 0,159.6 -144,0 0,-159.6 z"
         id="path4227-6"
         inkscape:connector-curvature="0" />
    </clipPath>
    <clipPath
       clipPathUnits="userSpaceOnUse"
       id="clipPath5141-1">
      <path
         d="m 18,360 144,0 0,160.7 -144,0 0,-160.7 z"
         id="path5143-6"
         inkscape:connector-curvature="0" />
    </clipPath>
    <clipPath
       clipPathUnits="userSpaceOnUse"
       id="clipPath5911-4">
      <path
         d="m 18,504 144,0 0,153 -144,0 0,-153 z"
         id="path5913-4"
         inkscape:connector-curvature="0" />
    </clipPath>
    <clipPath
       clipPathUnits="userSpaceOnUse"
       id="clipPath6873-2">
      <path
         d="m 58.5,773.5 28.7,0 c 6.2408,0 11.3,-5.0592 11.3,-11.3 l 0,-57.4 c 0,-6.2408 -5.0592,-11.3 -11.3,-11.3 l -57.4,0 c -6.2408,0 -11.3,5.0592 -11.3,11.3 l 0,57.4 c 0,6.2408 5.0592,11.3 11.3,11.3"
         clip-rule="evenodd"
         id="path6875-5"
         inkscape:connector-curvature="0" />
    </clipPath>
    <clipPath
       clipPathUnits="userSpaceOnUse"
       id="clipPath6897-5">
      <path
         d="m 58.5,774 28.7,0 c 6.517,0 11.8,-5.283 11.8,-11.8 l 0,-57.4 C 99,698.283 93.717,693 87.2,693 l -57.4,0 C 23.283,693 18,698.283 18,704.8 l 0,57.4 c 0,6.517 5.283,11.8 11.8,11.8"
         clip-rule="evenodd"
         id="path6899-8"
         inkscape:connector-curvature="0" />
    </clipPath>
    <clipPath
       clipPathUnits="userSpaceOnUse"
       id="clipPath31760-5">
      <path
         inkscape:connector-curvature="0"
         d="m 54,466.804 201.6,0 0,188.998 -201.6,0 0,-188.998 z"
         id="path31762-3" />
    </clipPath>
    <clipPath
       clipPathUnits="userSpaceOnUse"
       id="clipPath31464-4">
      <path
         inkscape:connector-curvature="0"
         d="m 54,362.2 201.6,0 0,129.8 -201.6,0 0,-129.8 z"
         id="path31466-3" />
    </clipPath>
    <clipPath
       clipPathUnits="userSpaceOnUse"
       id="clipPath30330-2">
      <path
         inkscape:connector-curvature="0"
         d="m 54,228 201.6,0 0,150 -201.6,0 0,-150 z"
         id="path30332-1" />
    </clipPath>
    <clipPath
       clipPathUnits="userSpaceOnUse"
       id="clipPath30000-1">
      <path
         inkscape:connector-curvature="0"
         d="m 54,80 201.6,0 0,157.6 L 54,237.6 54,80 z"
         id="path30002-3" />
    </clipPath>
    <clipPath
       clipPathUnits="userSpaceOnUse"
       id="clipPath37055">
      <path
         inkscape:connector-curvature="0"
         d="m 18,602.723 144,0 0,81.278 -144,0 0,-81.278 z"
         id="path37057" />
    </clipPath>
    <clipPath
       clipPathUnits="userSpaceOnUse"
       id="clipPath36681">
      <path
         inkscape:connector-curvature="0"
         d="m 18,303.49 144,0 0,69.56 -144,0 0,-69.56 z"
         id="path36683" />
    </clipPath>
    <clipPath
       clipPathUnits="userSpaceOnUse"
       id="clipPath39857">
      <path
         inkscape:connector-curvature="0"
         d="m 54,602.64 144,0 0,81.36 -144,0 0,-81.36 z"
         id="path39859" />
    </clipPath>
    <clipPath
       clipPathUnits="userSpaceOnUse"
       id="clipPath39749">
      <path
         inkscape:connector-curvature="0"
         d="m 54,196.792 144,0 0,116 -144,0 0,-116 z"
         id="path39751" />
    </clipPath>
    <clipPath
       clipPathUnits="userSpaceOnUse"
       id="clipPath39573">
      <path
         inkscape:connector-curvature="0"
         d="m 54,80 144,0 0,125.6 -144,0 L 54,80 z"
         id="path39575" />
    </clipPath>
    <clipPath
       clipPathUnits="userSpaceOnUse"
       id="clipPath42034">
      <path
         inkscape:connector-curvature="0"
         d="m 18,562.5 144,0 0,121.5 -144,0 0,-121.5 z"
         id="path42036" />
    </clipPath>
    <clipPath
       clipPathUnits="userSpaceOnUse"
       id="clipPath42734">
      <path
         inkscape:connector-curvature="0"
         d="m 18,489.6 144,0 0,77.601 -144,0 0,-77.601 z"
         id="path42736" />
    </clipPath>
    <clipPath
       clipPathUnits="userSpaceOnUse"
       id="clipPath42624">
      <path
         inkscape:connector-curvature="0"
         d="m 18,410.4 144,0 0,84.604 -144,0 0,-84.604 z"
         id="path42626" />
    </clipPath>
    <clipPath
       clipPathUnits="userSpaceOnUse"
       id="clipPath42556">
      <path
         inkscape:connector-curvature="0"
         d="m 18,327.6 144,0 0,91.6 -144,0 0,-91.6 z"
         id="path42558" />
    </clipPath>
    <clipPath
       clipPathUnits="userSpaceOnUse"
       id="clipPath42380">
      <path
         inkscape:connector-curvature="0"
         d="m 18,248.4 144,0 0,88.2 -144,0 0,-88.2 z"
         id="path42382" />
    </clipPath>
    <clipPath
       clipPathUnits="userSpaceOnUse"
       id="clipPath42282">
      <path
         inkscape:connector-curvature="0"
         d="m 18,167 144,0 0,89.6 -144,0 0,-89.6 z"
         id="path42284" />
    </clipPath>
    <clipPath
       clipPathUnits="userSpaceOnUse"
       id="clipPath42214">
      <path
         inkscape:connector-curvature="0"
         d="m 18,80 144,0 0,96.4 -144,0 0,-96.4 z"
         id="path42216" />
    </clipPath>
    <clipPath
       clipPathUnits="userSpaceOnUse"
       id="clipPath46191">
      <path
         inkscape:connector-curvature="0"
         d="m 54,549.5 144,0 0,107.5 -144,0 0,-107.5 z"
         id="path46193" />
    </clipPath>
    <clipPath
       clipPathUnits="userSpaceOnUse"
       id="clipPath46137">
      <path
         inkscape:connector-curvature="0"
         d="m 54,424.8 144,0 0,136.68 -144,0 0,-136.68 z"
         id="path46139" />
    </clipPath>
    <clipPath
       clipPathUnits="userSpaceOnUse"
       id="clipPath45357">
      <path
         inkscape:connector-curvature="0"
         d="m 54,298.8 144,0 0,140.4 -144,0 0,-140.4 z"
         id="path45359" />
    </clipPath>
    <clipPath
       clipPathUnits="userSpaceOnUse"
       id="clipPath45287">
      <path
         inkscape:connector-curvature="0"
         d="m 54,189 144,0 0,128.7 -144,0 0,-128.7 z"
         id="path45289" />
    </clipPath>
    <clipPath
       clipPathUnits="userSpaceOnUse"
       id="clipPath45219">
      <path
         inkscape:connector-curvature="0"
         d="m 54,81 144,0 0,115.2 -144,0 L 54,81 z"
         id="path45221" />
    </clipPath>
    <clipPath
       clipPathUnits="userSpaceOnUse"
       id="clipPath49915">
      <path
         inkscape:connector-curvature="0"
         d="m 18,590.4 144,0 0,66.6 -144,0 0,-66.6 z"
         id="path49917" />
    </clipPath>
    <clipPath
       clipPathUnits="userSpaceOnUse"
       id="clipPath49791">
      <path
         inkscape:connector-curvature="0"
         d="m 18,492.424 144,0 0,104.792 -144,0 0,-104.792 z"
         id="path49793" />
    </clipPath>
    <clipPath
       clipPathUnits="userSpaceOnUse"
       id="clipPath48873">
      <path
         inkscape:connector-curvature="0"
         d="m 18,373.2 144,0 0,127.94 -144,0 0,-127.94 z"
         id="path48875" />
    </clipPath>
    <clipPath
       clipPathUnits="userSpaceOnUse"
       id="clipPath48745">
      <path
         inkscape:connector-curvature="0"
         d="m 18,252 144,0 0,126.602 -144,0 L 18,252 z"
         id="path48747" />
    </clipPath>
    <clipPath
       clipPathUnits="userSpaceOnUse"
       id="clipPath48617">
      <path
         inkscape:connector-curvature="0"
         d="m 18,80 144,0 0,179.6 -144,0 L 18,80 z"
         id="path48619" />
    </clipPath>
    <clipPath
       clipPathUnits="userSpaceOnUse"
       id="clipPath53350">
      <path
         d="m 54,289.5 144,0 0,93.9 -144,0 0,-93.9 z"
         id="path53352"
         inkscape:connector-curvature="0" />
    </clipPath>
    <clipPath
       clipPathUnits="userSpaceOnUse"
       id="clipPath53618">
      <path
         d="m 54,185.276 144,0 0,109.924 -144,0 0,-109.924 z"
         id="path53620"
         inkscape:connector-curvature="0" />
    </clipPath>
    <clipPath
       clipPathUnits="userSpaceOnUse"
       id="clipPath53772">
      <path
         d="m 54,80.062 144,0 0,118.898 -144,0 0,-118.898 z"
         id="path53774"
         inkscape:connector-curvature="0" />
    </clipPath>
    <clipPath
       clipPathUnits="userSpaceOnUse"
       id="clipPath54154">
      <path
         d="m 54,370.42 144,0 0,150.08 -144,0 0,-150.08 z"
         id="path54156"
         inkscape:connector-curvature="0" />
    </clipPath>
    <clipPath
       clipPathUnits="userSpaceOnUse"
       id="clipPath54414">
      <path
         d="m 54,510.2 144,0 0,146.8 -144,0 0,-146.8 z"
         id="path54416"
         inkscape:connector-curvature="0" />
    </clipPath>
    <clipPath
       clipPathUnits="userSpaceOnUse"
       id="clipPath48579">
      <path
         d="m 58.5,773.625 28.95,0 c 6.1718,0 11.175,-5.0032 11.175,-11.175 l 0,-57.9 c 0,-6.1718 -5.0032,-11.175 -11.175,-11.175 l -57.9,0 c -6.1718,0 -11.175,5.0032 -11.175,11.175 l 0,57.9 c 0,6.1718 5.0032,11.175 11.175,11.175"
         clip-rule="evenodd"
         id="path48581"
         inkscape:connector-curvature="0" />
    </clipPath>
    <clipPath
       clipPathUnits="userSpaceOnUse"
       id="clipPath48603">
      <path
         d="m 58.5,774 28.95,0 C 93.8289,774 99,768.8289 99,762.45 l 0,-57.9 C 99,698.1711 93.8289,693 87.45,693 l -57.9,0 C 23.1711,693 18,698.1711 18,704.55 l 0,57.9 c 0,6.3789 5.1711,11.55 11.55,11.55"
         clip-rule="evenodd"
         id="path48605"
         inkscape:connector-curvature="0" />
    </clipPath>
    <clipPath
       clipPathUnits="userSpaceOnUse"
       id="clipPath48617-2">
      <path
         d="m 18,80 144,0 0,179.6 -144,0 L 18,80 z"
         id="path48619-0"
         inkscape:connector-curvature="0" />
    </clipPath>
    <clipPath
       clipPathUnits="userSpaceOnUse"
       id="clipPath48745-9">
      <path
         d="m 18,252 144,0 0,126.602 -144,0 L 18,252 z"
         id="path48747-4"
         inkscape:connector-curvature="0" />
    </clipPath>
    <clipPath
       clipPathUnits="userSpaceOnUse"
       id="clipPath48873-9">
      <path
         d="m 18,373.2 144,0 0,127.94 -144,0 0,-127.94 z"
         id="path48875-9"
         inkscape:connector-curvature="0" />
    </clipPath>
    <clipPath
       clipPathUnits="userSpaceOnUse"
       id="clipPath49791-9">
      <path
         d="m 18,492.424 144,0 0,104.792 -144,0 0,-104.792 z"
         id="path49793-8"
         inkscape:connector-curvature="0" />
    </clipPath>
    <clipPath
       clipPathUnits="userSpaceOnUse"
       id="clipPath49915-2">
      <path
         d="m 18,590.4 144,0 0,66.6 -144,0 0,-66.6 z"
         id="path49917-8"
         inkscape:connector-curvature="0" />
    </clipPath>
    <clipPath
       clipPathUnits="userSpaceOnUse"
       id="clipPath50339">
      <path
         d="m 58.5,773.5 28.7,0 c 6.2408,0 11.3,-5.0592 11.3,-11.3 l 0,-57.4 c 0,-6.2408 -5.0592,-11.3 -11.3,-11.3 l -57.4,0 c -6.2408,0 -11.3,5.0592 -11.3,11.3 l 0,57.4 c 0,6.2408 5.0592,11.3 11.3,11.3"
         clip-rule="evenodd"
         id="path50341"
         inkscape:connector-curvature="0" />
    </clipPath>
    <clipPath
       clipPathUnits="userSpaceOnUse"
       id="clipPath50363">
      <path
         d="m 58.5,774 28.7,0 c 6.517,0 11.8,-5.283 11.8,-11.8 l 0,-57.4 C 99,698.283 93.717,693 87.2,693 l -57.4,0 C 23.283,693 18,698.283 18,704.8 l 0,57.4 c 0,6.517 5.283,11.8 11.8,11.8"
         clip-rule="evenodd"
         id="path50365"
         inkscape:connector-curvature="0" />
    </clipPath>
    <clipPath
       clipPathUnits="userSpaceOnUse"
       id="clipPath45219-6">
      <path
         d="m 54,81 144,0 0,115.2 -144,0 L 54,81 z"
         id="path45221-0"
         inkscape:connector-curvature="0" />
    </clipPath>
    <clipPath
       clipPathUnits="userSpaceOnUse"
       id="clipPath45287-7">
      <path
         d="m 54,189 144,0 0,128.7 -144,0 0,-128.7 z"
         id="path45289-6"
         inkscape:connector-curvature="0" />
    </clipPath>
    <clipPath
       clipPathUnits="userSpaceOnUse"
       id="clipPath45357-3">
      <path
         d="m 54,298.8 144,0 0,140.4 -144,0 0,-140.4 z"
         id="path45359-0"
         inkscape:connector-curvature="0" />
    </clipPath>
    <clipPath
       clipPathUnits="userSpaceOnUse"
       id="clipPath46137-7">
      <path
         d="m 54,424.8 144,0 0,136.68 -144,0 0,-136.68 z"
         id="path46139-3"
         inkscape:connector-curvature="0" />
    </clipPath>
    <clipPath
       clipPathUnits="userSpaceOnUse"
       id="clipPath46191-9">
      <path
         d="m 54,549.5 144,0 0,107.5 -144,0 0,-107.5 z"
         id="path46193-1"
         inkscape:connector-curvature="0" />
    </clipPath>
    <clipPath
       clipPathUnits="userSpaceOnUse"
       id="clipPath41996">
      <path
         d="m 58.5,773.625 28.95,0 c 6.1718,0 11.175,-5.0032 11.175,-11.175 l 0,-57.9 c 0,-6.1718 -5.0032,-11.175 -11.175,-11.175 l -57.9,0 c -6.1718,0 -11.175,5.0032 -11.175,11.175 l 0,57.9 c 0,6.1718 5.0032,11.175 11.175,11.175"
         clip-rule="evenodd"
         id="path41998"
         inkscape:connector-curvature="0" />
    </clipPath>
    <clipPath
       clipPathUnits="userSpaceOnUse"
       id="clipPath42020">
      <path
         d="m 58.5,774 28.95,0 C 93.8289,774 99,768.8289 99,762.45 l 0,-57.9 C 99,698.1711 93.8289,693 87.45,693 l -57.9,0 C 23.1711,693 18,698.1711 18,704.55 l 0,57.9 c 0,6.3789 5.1711,11.55 11.55,11.55"
         clip-rule="evenodd"
         id="path42022"
         inkscape:connector-curvature="0" />
    </clipPath>
    <clipPath
       clipPathUnits="userSpaceOnUse"
       id="clipPath42034-9">
      <path
         d="m 18,562.5 144,0 0,121.5 -144,0 0,-121.5 z"
         id="path42036-8"
         inkscape:connector-curvature="0" />
    </clipPath>
    <clipPath
       clipPathUnits="userSpaceOnUse"
       id="clipPath42214-2">
      <path
         d="m 18,80 144,0 0,96.4 -144,0 0,-96.4 z"
         id="path42216-0"
         inkscape:connector-curvature="0" />
    </clipPath>
    <clipPath
       clipPathUnits="userSpaceOnUse"
       id="clipPath42282-5">
      <path
         d="m 18,167 144,0 0,89.6 -144,0 0,-89.6 z"
         id="path42284-1"
         inkscape:connector-curvature="0" />
    </clipPath>
    <clipPath
       clipPathUnits="userSpaceOnUse"
       id="clipPath42380-9">
      <path
         d="m 18,248.4 144,0 0,88.2 -144,0 0,-88.2 z"
         id="path42382-0"
         inkscape:connector-curvature="0" />
    </clipPath>
    <clipPath
       clipPathUnits="userSpaceOnUse"
       id="clipPath42556-7">
      <path
         d="m 18,327.6 144,0 0,91.6 -144,0 0,-91.6 z"
         id="path42558-5"
         inkscape:connector-curvature="0" />
    </clipPath>
    <clipPath
       clipPathUnits="userSpaceOnUse"
       id="clipPath42624-4">
      <path
         d="m 18,410.4 144,0 0,84.604 -144,0 0,-84.604 z"
         id="path42626-0"
         inkscape:connector-curvature="0" />
    </clipPath>
    <clipPath
       clipPathUnits="userSpaceOnUse"
       id="clipPath42734-1">
      <path
         d="m 18,489.6 144,0 0,77.601 -144,0 0,-77.601 z"
         id="path42736-0"
         inkscape:connector-curvature="0" />
    </clipPath>
    <clipPath
       clipPathUnits="userSpaceOnUse"
       id="clipPath42986">
      <path
         d="m 58.5,773.5 28.7,0 c 6.2408,0 11.3,-5.0592 11.3,-11.3 l 0,-57.4 c 0,-6.2408 -5.0592,-11.3 -11.3,-11.3 l -57.4,0 c -6.2408,0 -11.3,5.0592 -11.3,11.3 l 0,57.4 c 0,6.2408 5.0592,11.3 11.3,11.3"
         clip-rule="evenodd"
         id="path42988"
         inkscape:connector-curvature="0" />
    </clipPath>
    <clipPath
       clipPathUnits="userSpaceOnUse"
       id="clipPath43010">
      <path
         d="m 58.5,774 28.7,0 c 6.517,0 11.8,-5.283 11.8,-11.8 l 0,-57.4 C 99,698.283 93.717,693 87.2,693 l -57.4,0 C 23.283,693 18,698.283 18,704.8 l 0,57.4 c 0,6.517 5.283,11.8 11.8,11.8"
         clip-rule="evenodd"
         id="path43012"
         inkscape:connector-curvature="0" />
    </clipPath>
    <clipPath
       clipPathUnits="userSpaceOnUse"
       id="clipPath39459">
      <path
         d="m 196.992,416.688 84.024,0 0,36 -84.024,0 0,-36 z"
         id="path39461"
         inkscape:connector-curvature="0" />
    </clipPath>
    <clipPath
       clipPathUnits="userSpaceOnUse"
       id="clipPath39573-3">
      <path
         d="m 54,80 144,0 0,125.6 -144,0 L 54,80 z"
         id="path39575-2"
         inkscape:connector-curvature="0" />
    </clipPath>
    <clipPath
       clipPathUnits="userSpaceOnUse"
       id="clipPath39749-8">
      <path
         d="m 54,196.792 144,0 0,116 -144,0 0,-116 z"
         id="path39751-2"
         inkscape:connector-curvature="0" />
    </clipPath>
    <clipPath
       clipPathUnits="userSpaceOnUse"
       id="clipPath39857-5">
      <path
         d="m 54,602.64 144,0 0,81.36 -144,0 0,-81.36 z"
         id="path39859-3"
         inkscape:connector-curvature="0" />
    </clipPath>
    <clipPath
       clipPathUnits="userSpaceOnUse"
       id="clipPath40191">
      <path
         d="m 202.998,553.08 78.024,0 0,46 -78.024,0 0,-46 z"
         id="path40193"
         inkscape:connector-curvature="0" />
    </clipPath>
    <clipPath
       clipPathUnits="userSpaceOnUse"
       id="clipPath40225">
      <path
         d="m 196.992,353.472 84.024,0 0,36 -84.024,0 0,-36 z"
         id="path40227"
         inkscape:connector-curvature="0" />
    </clipPath>
    <clipPath
       clipPathUnits="userSpaceOnUse"
       id="clipPath40241">
      <path
         d="m 196.992,516.882 84.024,0 0,39 -84.024,0 0,-39 z"
         id="path40243"
         inkscape:connector-curvature="0" />
    </clipPath>
    <clipPath
       clipPathUnits="userSpaceOnUse"
       id="clipPath40257">
      <path
         d="m 196.992,466.712 84.024,0 0,36 -84.024,0 0,-36 z"
         id="path40259"
         inkscape:connector-curvature="0" />
    </clipPath>
    <clipPath
       clipPathUnits="userSpaceOnUse"
       id="clipPath36681-7">
      <path
         d="m 18,303.49 144,0 0,69.56 -144,0 0,-69.56 z"
         id="path36683-9"
         inkscape:connector-curvature="0" />
    </clipPath>
    <clipPath
       clipPathUnits="userSpaceOnUse"
       id="clipPath37017">
      <path
         d="m 58.5,773.625 28.95,0 c 6.1718,0 11.175,-5.0032 11.175,-11.175 l 0,-57.9 c 0,-6.1718 -5.0032,-11.175 -11.175,-11.175 l -57.9,0 c -6.1718,0 -11.175,5.0032 -11.175,11.175 l 0,57.9 c 0,6.1718 5.0032,11.175 11.175,11.175"
         clip-rule="evenodd"
         id="path37019"
         inkscape:connector-curvature="0" />
    </clipPath>
    <clipPath
       clipPathUnits="userSpaceOnUse"
       id="clipPath37041">
      <path
         d="m 58.5,774 28.95,0 C 93.8289,774 99,768.8289 99,762.45 l 0,-57.9 C 99,698.1711 93.8289,693 87.45,693 l -57.9,0 C 23.1711,693 18,698.1711 18,704.55 l 0,57.9 c 0,6.3789 5.1711,11.55 11.55,11.55"
         clip-rule="evenodd"
         id="path37043"
         inkscape:connector-curvature="0" />
    </clipPath>
    <clipPath
       clipPathUnits="userSpaceOnUse"
       id="clipPath37055-4">
      <path
         d="m 18,602.723 144,0 0,81.278 -144,0 0,-81.278 z"
         id="path37057-0"
         inkscape:connector-curvature="0" />
    </clipPath>
    <clipPath
       clipPathUnits="userSpaceOnUse"
       id="clipPath37233">
      <path
         d="m 161,566.084 84.024,0 0,32.72 -84.024,0 0,-32.72 z"
         id="path37235"
         inkscape:connector-curvature="0" />
    </clipPath>
    <clipPath
       clipPathUnits="userSpaceOnUse"
       id="clipPath37251">
      <path
         d="m 161,265.6 84.024,0 0,33.696 -84.024,0 0,-33.696 z"
         id="path37253"
         inkscape:connector-curvature="0" />
    </clipPath>
    <clipPath
       clipPathUnits="userSpaceOnUse"
       id="clipPath37419">
      <path
         d="m 58.5,773.5 28.7,0 c 6.2408,0 11.3,-5.0592 11.3,-11.3 l 0,-57.4 c 0,-6.2408 -5.0592,-11.3 -11.3,-11.3 l -57.4,0 c -6.2408,0 -11.3,5.0592 -11.3,11.3 l 0,57.4 c 0,6.2408 5.0592,11.3 11.3,11.3"
         clip-rule="evenodd"
         id="path37421"
         inkscape:connector-curvature="0" />
    </clipPath>
    <clipPath
       clipPathUnits="userSpaceOnUse"
       id="clipPath37443">
      <path
         d="m 58.5,774 28.7,0 c 6.517,0 11.8,-5.283 11.8,-11.8 l 0,-57.4 C 99,698.283 93.717,693 87.2,693 l -57.4,0 C 23.283,693 18,698.283 18,704.8 l 0,57.4 c 0,6.517 5.283,11.8 11.8,11.8"
         clip-rule="evenodd"
         id="path37445"
         inkscape:connector-curvature="0" />
    </clipPath>
    <clipPath
       clipPathUnits="userSpaceOnUse"
       id="clipPath37457">
      <path
         d="m 160.992,383.496 84.024,0 0,36 -84.024,0 0,-36 z"
         id="path37459"
         inkscape:connector-curvature="0" />
    </clipPath>
    <clipPath
       clipPathUnits="userSpaceOnUse"
       id="clipPath37473">
      <path
         d="m 160.992,83.672 84.024,0 0,45.504 -84.024,0 0,-45.504 z"
         id="path37475"
         inkscape:connector-curvature="0" />
    </clipPath>
    <clipPath
       clipPathUnits="userSpaceOnUse"
       id="clipPath37489">
      <path
         d="m 160.992,521.604 84.024,0 0,36 -84.024,0 0,-36 z"
         id="path37491"
         inkscape:connector-curvature="0" />
    </clipPath>
    <clipPath
       clipPathUnits="userSpaceOnUse"
       id="clipPath37505">
      <path
         d="m 160.992,222.395 84.024,0 0,33.696 -84.024,0 0,-33.696 z"
         id="path37507"
         inkscape:connector-curvature="0" />
    </clipPath>
    <clipPath
       clipPathUnits="userSpaceOnUse"
       id="clipPath37521">
      <path
         d="m 160.992,480.68 84.024,0 0,42 -84.024,0 0,-42 z"
         id="path37523"
         inkscape:connector-curvature="0" />
    </clipPath>
    <clipPath
       clipPathUnits="userSpaceOnUse"
       id="clipPath37537">
      <path
         d="m 160.992,430.688 84.024,0 0,42 -84.024,0 0,-42 z"
         id="path37539"
         inkscape:connector-curvature="0" />
    </clipPath>
    <clipPath
       clipPathUnits="userSpaceOnUse"
       id="clipPath37553">
      <path
         d="m 160.992,183.891 84.024,0 0,34 -84.024,0 0,-34 z"
         id="path37555"
         inkscape:connector-curvature="0" />
    </clipPath>
    <clipPath
       clipPathUnits="userSpaceOnUse"
       id="clipPath37569">
      <path
         d="m 160.992,133.891 84.024,0 0,41.2 -84.024,0 0,-41.2 z"
         id="path37571"
         inkscape:connector-curvature="0" />
    </clipPath>
    <clipPath
       clipPathUnits="userSpaceOnUse"
       id="clipPath30000-8">
      <path
         d="m 54,80 201.6,0 0,157.6 L 54,237.6 54,80 z"
         id="path30002-1"
         inkscape:connector-curvature="0" />
    </clipPath>
    <clipPath
       clipPathUnits="userSpaceOnUse"
       id="clipPath30330-9">
      <path
         d="m 54,228 201.6,0 0,150 -201.6,0 0,-150 z"
         id="path30332-0"
         inkscape:connector-curvature="0" />
    </clipPath>
    <clipPath
       clipPathUnits="userSpaceOnUse"
       id="clipPath31464-40">
      <path
         d="m 54,362.2 201.6,0 0,129.8 -201.6,0 0,-129.8 z"
         id="path31466-7"
         inkscape:connector-curvature="0" />
    </clipPath>
    <clipPath
       clipPathUnits="userSpaceOnUse"
       id="clipPath31760-1">
      <path
         d="m 54,466.804 201.6,0 0,188.998 -201.6,0 0,-188.998 z"
         id="path31762-0"
         inkscape:connector-curvature="0" />
    </clipPath>
    <clipPath
       clipPathUnits="userSpaceOnUse"
       id="clipPath26163-4">
      <path
         d="m 58.5,773.625 28.95,0 c 6.1718,0 11.175,-5.0032 11.175,-11.175 l 0,-57.9 c 0,-6.1718 -5.0032,-11.175 -11.175,-11.175 l -57.9,0 c -6.1718,0 -11.175,5.0032 -11.175,11.175 l 0,57.9 c 0,6.1718 5.0032,11.175 11.175,11.175"
         clip-rule="evenodd"
         id="path26165-3"
         inkscape:connector-curvature="0" />
    </clipPath>
    <clipPath
       clipPathUnits="userSpaceOnUse"
       id="clipPath26187-3">
      <path
         d="m 58.5,774 28.95,0 C 93.8289,774 99,768.8289 99,762.45 l 0,-57.9 C 99,698.1711 93.8289,693 87.45,693 l -57.9,0 C 23.1711,693 18,698.1711 18,704.55 l 0,57.9 c 0,6.3789 5.1711,11.55 11.55,11.55"
         clip-rule="evenodd"
         id="path26189-1"
         inkscape:connector-curvature="0" />
    </clipPath>
    <clipPath
       clipPathUnits="userSpaceOnUse"
       id="clipPath26201-0">
      <path
         d="m 18,80.008 144,0 0,128.792 -144,0 0,-128.792 z"
         id="path26203-28"
         inkscape:connector-curvature="0" />
    </clipPath>
    <clipPath
       clipPathUnits="userSpaceOnUse"
       id="clipPath26335-1">
      <path
         d="m 18,378.002 144,0 0,97.6 -144,0 0,-97.6 z"
         id="path26337-9"
         inkscape:connector-curvature="0" />
    </clipPath>
    <clipPath
       clipPathUnits="userSpaceOnUse"
       id="clipPath26531-9">
      <path
         d="m 18,288.002 144,0 0,97.6 -144,0 0,-97.6 z"
         id="path26533-5"
         inkscape:connector-curvature="0" />
    </clipPath>
    <clipPath
       clipPathUnits="userSpaceOnUse"
       id="clipPath26681-7">
      <path
         d="m 18,198.002 144,0 0,97.6 -144,0 0,-97.6 z"
         id="path26683-3"
         inkscape:connector-curvature="0" />
    </clipPath>
    <clipPath
       clipPathUnits="userSpaceOnUse"
       id="clipPath26813-8">
      <path
         d="m 18,559.2 144,0 0,97.44 -144,0 0,-97.44 z"
         id="path26815-4"
         inkscape:connector-curvature="0" />
    </clipPath>
    <clipPath
       clipPathUnits="userSpaceOnUse"
       id="clipPath26991-2">
      <path
         d="m 18,469.2 144,0 0,97.44 -144,0 0,-97.44 z"
         id="path26993-5"
         inkscape:connector-curvature="0" />
    </clipPath>
    <clipPath
       clipPathUnits="userSpaceOnUse"
       id="clipPath27211-2">
      <path
         d="m 58.5,773.5 28.7,0 c 6.2408,0 11.3,-5.0592 11.3,-11.3 l 0,-57.4 c 0,-6.2408 -5.0592,-11.3 -11.3,-11.3 l -57.4,0 c -6.2408,0 -11.3,5.0592 -11.3,11.3 l 0,57.4 c 0,6.2408 5.0592,11.3 11.3,11.3"
         clip-rule="evenodd"
         id="path27213-7"
         inkscape:connector-curvature="0" />
    </clipPath>
    <clipPath
       clipPathUnits="userSpaceOnUse"
       id="clipPath27235-4">
      <path
         d="m 58.5,774 28.7,0 c 6.517,0 11.8,-5.283 11.8,-11.8 l 0,-57.4 C 99,698.283 93.717,693 87.2,693 l -57.4,0 C 23.283,693 18,698.283 18,704.8 l 0,57.4 c 0,6.517 5.283,11.8 11.8,11.8"
         clip-rule="evenodd"
         id="path27237-8"
         inkscape:connector-curvature="0" />
    </clipPath>
    <clipPath
       clipPathUnits="userSpaceOnUse"
       id="clipPath24435-9">
      <path
         d="m 196.992,401.6 84.024,0 0,41.2 -84.024,0 0,-41.2 z"
         id="path24437-4"
         inkscape:connector-curvature="0" />
    </clipPath>
    <clipPath
       clipPathUnits="userSpaceOnUse"
       id="clipPath24455-8">
      <path
         d="m 197,460.003 84.024,0 0,57.88 -84.024,0 0,-57.88 z"
         id="path24457-2"
         inkscape:connector-curvature="0" />
    </clipPath>
    <clipPath
       clipPathUnits="userSpaceOnUse"
       id="clipPath24475-2">
      <path
         d="m 197,527.6 84.024,0 0,36 -84.024,0 0,-36 z"
         id="path24477-2"
         inkscape:connector-curvature="0" />
    </clipPath>
    <clipPath
       clipPathUnits="userSpaceOnUse"
       id="clipPath24569-9">
      <path
         d="m 54,571.106 144,0 0,85.896 -144,0 0,-85.896 z"
         id="path24571-7"
         inkscape:connector-curvature="0" />
    </clipPath>
    <clipPath
       clipPathUnits="userSpaceOnUse"
       id="clipPath24787-5">
      <path
         d="m 196.992,341.68 84.024,0 0,43 -84.024,0 0,-43 z"
         id="path24789-0"
         inkscape:connector-curvature="0" />
    </clipPath>
    <clipPath
       clipPathUnits="userSpaceOnUse"
       id="clipPath24807-0">
      <path
         d="m 196.992,284.2 84.024,0 0,37.28 -84.024,0 0,-37.28 z"
         id="path24809-6"
         inkscape:connector-curvature="0" />
    </clipPath>
    <clipPath
       clipPathUnits="userSpaceOnUse"
       id="clipPath24827-2">
      <path
         d="m 196.992,216.48 84.024,0 0,48 -84.024,0 0,-48 z"
         id="path24829-3"
         inkscape:connector-curvature="0" />
    </clipPath>
    <clipPath
       clipPathUnits="userSpaceOnUse"
       id="clipPath24847-8">
      <path
         d="m 196.992,156.48 84.024,0 0,48 -84.024,0 0,-48 z"
         id="path24849-8"
         inkscape:connector-curvature="0" />
    </clipPath>
    <clipPath
       clipPathUnits="userSpaceOnUse"
       id="clipPath22337-0">
      <path
         d="m 58.5,773.625 28.95,0 c 6.1718,0 11.175,-5.0032 11.175,-11.175 l 0,-57.9 c 0,-6.1718 -5.0032,-11.175 -11.175,-11.175 l -57.9,0 c -6.1718,0 -11.175,5.0032 -11.175,11.175 l 0,57.9 c 0,6.1718 5.0032,11.175 11.175,11.175"
         clip-rule="evenodd"
         id="path22339-0"
         inkscape:connector-curvature="0" />
    </clipPath>
    <clipPath
       clipPathUnits="userSpaceOnUse"
       id="clipPath22361-6">
      <path
         d="m 58.5,774 28.95,0 C 93.8289,774 99,768.8289 99,762.45 l 0,-57.9 C 99,698.1711 93.8289,693 87.45,693 l -57.9,0 C 23.1711,693 18,698.1711 18,704.55 l 0,57.9 c 0,6.3789 5.1711,11.55 11.55,11.55"
         clip-rule="evenodd"
         id="path22363-3"
         inkscape:connector-curvature="0" />
    </clipPath>
    <clipPath
       clipPathUnits="userSpaceOnUse"
       id="clipPath22375-5">
      <path
         d="m 160.992,428.4 84.024,0 0,40.913 -84.024,0 0,-40.913 z"
         id="path22377-6"
         inkscape:connector-curvature="0" />
    </clipPath>
    <clipPath
       clipPathUnits="userSpaceOnUse"
       id="clipPath22395-5">
      <path
         d="m 161,474.21 84.024,0 0,53.686 -84.024,0 0,-53.686 z"
         id="path22397-5"
         inkscape:connector-curvature="0" />
    </clipPath>
    <clipPath
       clipPathUnits="userSpaceOnUse"
       id="clipPath22415-8">
      <path
         d="m 161,528.2 84.024,0 0,39.4 -84.024,0 0,-39.4 z"
         id="path22417-9"
         inkscape:connector-curvature="0" />
    </clipPath>
    <clipPath
       clipPathUnits="userSpaceOnUse"
       id="clipPath22509-13">
      <path
         d="m 18,571.104 144,0 0,85.896 -144,0 0,-85.896 z"
         id="path22511-67"
         inkscape:connector-curvature="0" />
    </clipPath>
    <clipPath
       clipPathUnits="userSpaceOnUse"
       id="clipPath22733-8">
      <path
         d="m 58.5,773.5 28.7,0 c 6.2408,0 11.3,-5.0592 11.3,-11.3 l 0,-57.4 c 0,-6.2408 -5.0592,-11.3 -11.3,-11.3 l -57.4,0 c -6.2408,0 -11.3,5.0592 -11.3,11.3 l 0,57.4 c 0,6.2408 5.0592,11.3 11.3,11.3"
         clip-rule="evenodd"
         id="path22735-8"
         inkscape:connector-curvature="0" />
    </clipPath>
    <clipPath
       clipPathUnits="userSpaceOnUse"
       id="clipPath22757-0">
      <path
         d="m 58.5,774 28.7,0 c 6.517,0 11.8,-5.283 11.8,-11.8 l 0,-57.4 C 99,698.283 93.717,693 87.2,693 l -57.4,0 C 23.283,693 18,698.283 18,704.8 l 0,57.4 c 0,6.517 5.283,11.8 11.8,11.8"
         clip-rule="evenodd"
         id="path22759-4"
         inkscape:connector-curvature="0" />
    </clipPath>
    <clipPath
       clipPathUnits="userSpaceOnUse"
       id="clipPath22771-1">
      <path
         d="m 160.992,347.8 84.024,0 0,44.88 -84.024,0 0,-44.88 z"
         id="path22773-7"
         inkscape:connector-curvature="0" />
    </clipPath>
    <clipPath
       clipPathUnits="userSpaceOnUse"
       id="clipPath22791-5">
      <path
         d="m 160.992,172.8 84.024,0 0,52.68 -84.024,0 0,-52.68 z"
         id="path22793-8"
         inkscape:connector-curvature="0" />
    </clipPath>
    <clipPath
       clipPathUnits="userSpaceOnUse"
       id="clipPath22811-3">
      <path
         d="m 160.992,118.8 84.024,0 0,46.81 -84.024,0 0,-46.81 z"
         id="path22813-7"
         inkscape:connector-curvature="0" />
    </clipPath>
    <clipPath
       clipPathUnits="userSpaceOnUse"
       id="clipPath22831-4">
      <path
         d="m 160.992,79.21 84.024,0 0,36.599 -84.024,0 0,-36.599 z"
         id="path22833-18"
         inkscape:connector-curvature="0" />
    </clipPath>
    <clipPath
       clipPathUnits="userSpaceOnUse"
       id="clipPath22847-0">
      <path
         d="m 160.992,390.832 84.024,0 0,37.568 -84.024,0 0,-37.568 z"
         id="path22849-28"
         inkscape:connector-curvature="0" />
    </clipPath>
    <clipPath
       clipPathUnits="userSpaceOnUse"
       id="clipPath22863-6">
      <path
         d="m 160.992,310.408 84.024,0 0,39.231 -84.024,0 0,-39.231 z"
         id="path22865-2"
         inkscape:connector-curvature="0" />
    </clipPath>
    <clipPath
       clipPathUnits="userSpaceOnUse"
       id="clipPath22879-0">
      <path
         d="m 160.992,268.6 84.024,0 0,37.68 -84.024,0 0,-37.68 z"
         id="path22881-3"
         inkscape:connector-curvature="0" />
    </clipPath>
    <clipPath
       clipPathUnits="userSpaceOnUse"
       id="clipPath22899-18">
      <path
         d="m 160.992,232.808 84.024,0 0,36.031 -84.024,0 0,-36.031 z"
         id="path22901-3"
         inkscape:connector-curvature="0" />
    </clipPath>
    <clipPath
       clipPathUnits="userSpaceOnUse"
       id="clipPath13416-0">
      <path
         d="m 54,80 201.6,0 0,202.7 L 54,282.7 54,80 z"
         id="path13418-8"
         inkscape:connector-curvature="0" />
    </clipPath>
    <clipPath
       clipPathUnits="userSpaceOnUse"
       id="clipPath14168-6">
      <path
         d="m 54,264.4 201.6,0 0,221.6 -201.6,0 0,-221.6 z"
         id="path14170-7"
         inkscape:connector-curvature="0" />
    </clipPath>
    <clipPath
       clipPathUnits="userSpaceOnUse"
       id="clipPath15530-0">
      <path
         d="m 54,455.8 201.6,0 0,201.2 -201.6,0 0,-201.2 z"
         id="path15532-28"
         inkscape:connector-curvature="0" />
    </clipPath>
    <clipPath
       clipPathUnits="userSpaceOnUse"
       id="clipPath3129-9">
      <path
         d="m 58.5,774 28.95,0 C 93.8289,774 99,768.8289 99,762.45 l 0,-57.9 C 99,698.1711 93.8289,693 87.45,693 l -57.9,0 C 23.1711,693 18,698.1711 18,704.55 l 0,57.9 c 0,6.3789 5.1711,11.55 11.55,11.55"
         clip-rule="evenodd"
         id="path3131-72"
         inkscape:connector-curvature="0" />
    </clipPath>
    <clipPath
       clipPathUnits="userSpaceOnUse"
       id="clipPath3143-39">
      <path
         d="m 18,80 144,0 0,166.6 -144,0 L 18,80 z"
         id="path3145-5"
         inkscape:connector-curvature="0" />
    </clipPath>
    <clipPath
       clipPathUnits="userSpaceOnUse"
       id="clipPath4225-3">
      <path
         d="m 18,226.8 144,0 0,159.6 -144,0 0,-159.6 z"
         id="path4227-7"
         inkscape:connector-curvature="0" />
    </clipPath>
    <clipPath
       clipPathUnits="userSpaceOnUse"
       id="clipPath5141-4">
      <path
         d="m 18,360 144,0 0,160.7 -144,0 0,-160.7 z"
         id="path5143-10"
         inkscape:connector-curvature="0" />
    </clipPath>
    <clipPath
       clipPathUnits="userSpaceOnUse"
       id="clipPath5911-0">
      <path
         d="m 18,504 144,0 0,153 -144,0 0,-153 z"
         id="path5913-2"
         inkscape:connector-curvature="0" />
    </clipPath>
    <clipPath
       clipPathUnits="userSpaceOnUse"
       id="clipPath6873-7">
      <path
         d="m 58.5,773.5 28.7,0 c 6.2408,0 11.3,-5.0592 11.3,-11.3 l 0,-57.4 c 0,-6.2408 -5.0592,-11.3 -11.3,-11.3 l -57.4,0 c -6.2408,0 -11.3,5.0592 -11.3,11.3 l 0,57.4 c 0,6.2408 5.0592,11.3 11.3,11.3"
         clip-rule="evenodd"
         id="path6875-7"
         inkscape:connector-curvature="0" />
    </clipPath>
    <clipPath
       clipPathUnits="userSpaceOnUse"
       id="clipPath6897-1">
      <path
         d="m 58.5,774 28.7,0 c 6.517,0 11.8,-5.283 11.8,-11.8 l 0,-57.4 C 99,698.283 93.717,693 87.2,693 l -57.4,0 C 23.283,693 18,698.283 18,704.8 l 0,57.4 c 0,6.517 5.283,11.8 11.8,11.8"
         clip-rule="evenodd"
         id="path6899-2"
         inkscape:connector-curvature="0" />
    </clipPath>
    <clipPath
       clipPathUnits="userSpaceOnUse"
       id="clipPath54414-8">
      <path
         inkscape:connector-curvature="0"
         d="m 54,510.2 144,0 0,146.8 -144,0 0,-146.8 z"
         id="path54416-7" />
    </clipPath>
    <clipPath
       clipPathUnits="userSpaceOnUse"
       id="clipPath54154-3">
      <path
         inkscape:connector-curvature="0"
         d="m 54,370.42 144,0 0,150.08 -144,0 0,-150.08 z"
         id="path54156-0" />
    </clipPath>
    <clipPath
       clipPathUnits="userSpaceOnUse"
       id="clipPath53350-7">
      <path
         inkscape:connector-curvature="0"
         d="m 54,289.5 144,0 0,93.9 -144,0 0,-93.9 z"
         id="path53352-6" />
    </clipPath>
    <clipPath
       clipPathUnits="userSpaceOnUse"
       id="clipPath53618-4">
      <path
         inkscape:connector-curvature="0"
         d="m 54,185.276 144,0 0,109.924 -144,0 0,-109.924 z"
         id="path53620-2" />
    </clipPath>
    <clipPath
       clipPathUnits="userSpaceOnUse"
       id="clipPath53772-1">
      <path
         inkscape:connector-curvature="0"
         d="m 54,80.062 144,0 0,118.898 -144,0 0,-118.898 z"
         id="path53774-9" />
    </clipPath>
    <clipPath
       clipPathUnits="userSpaceOnUse"
       id="clipPath57375">
      <path
         inkscape:connector-curvature="0"
         d="m 18,370 136.8,0 0,286 -136.8,0 0,-286 z"
         id="path57377" />
    </clipPath>
    <clipPath
       clipPathUnits="userSpaceOnUse"
       id="clipPath57293">
      <path
         inkscape:connector-curvature="0"
         d="m 18,80 136.8,0 0,311 L 18,391 18,80 z"
         id="path57295" />
    </clipPath>
    <clipPath
       clipPathUnits="userSpaceOnUse"
       id="clipPath59098">
      <path
         inkscape:connector-curvature="0"
         d="m 54,543 144,0 0,114 -144,0 0,-114 z"
         id="path59100" />
    </clipPath>
    <clipPath
       clipPathUnits="userSpaceOnUse"
       id="clipPath59018">
      <path
         inkscape:connector-curvature="0"
         d="m 54,450.005 144,0 0,109.998 -144,0 0,-109.998 z"
         id="path59020" />
    </clipPath>
    <clipPath
       clipPathUnits="userSpaceOnUse"
       id="clipPath58928">
      <path
         inkscape:connector-curvature="0"
         d="m 54,347 144,0 0,108.2 -144,0 0,-108.2 z"
         id="path58930" />
    </clipPath>
    <clipPath
       clipPathUnits="userSpaceOnUse"
       id="clipPath58828">
      <path
         inkscape:connector-curvature="0"
         d="m 54,246.4 144,0 0,111 -144,0 0,-111 z"
         id="path58830" />
    </clipPath>
    <clipPath
       clipPathUnits="userSpaceOnUse"
       id="clipPath58750">
      <path
         inkscape:connector-curvature="0"
         d="m 54,168 144,0 0,90.2 -144,0 0,-90.2 z"
         id="path58752" />
    </clipPath>
    <clipPath
       clipPathUnits="userSpaceOnUse"
       id="clipPath58658">
      <path
         inkscape:connector-curvature="0"
         d="m 54,80 144,0 0,97 -144,0 0,-97 z"
         id="path58660" />
    </clipPath>
    <clipPath
       clipPathUnits="userSpaceOnUse"
       id="clipPath60883">
      <path
         inkscape:connector-curvature="0"
         d="m 18,514 144,0 0,169.28 -144,0 L 18,514 z"
         id="path60885" />
    </clipPath>
    <clipPath
       clipPathUnits="userSpaceOnUse"
       id="clipPath61293">
      <path
         inkscape:connector-curvature="0"
         d="m 18,374 144,0 0,140 -144,0 0,-140 z"
         id="path61295" />
    </clipPath>
    <clipPath
       clipPathUnits="userSpaceOnUse"
       id="clipPath61197">
      <path
         inkscape:connector-curvature="0"
         d="m 18,230 144,0 0,144 -144,0 0,-144 z"
         id="path61199" />
    </clipPath>
    <clipPath
       clipPathUnits="userSpaceOnUse"
       id="clipPath60823">
      <path
         inkscape:connector-curvature="0"
         d="m 18,78.96 144,0 0,155.04 -144,0 0,-155.04 z"
         id="path60825" />
    </clipPath>
    <clipPath
       clipPathUnits="userSpaceOnUse"
       id="clipPath63139">
      <path
         inkscape:connector-curvature="0"
         d="m 54,513.36 144,0 0,170.64 -144,0 0,-170.64 z"
         id="path63141" />
    </clipPath>
    <clipPath
       clipPathUnits="userSpaceOnUse"
       id="clipPath63051">
      <path
         inkscape:connector-curvature="0"
         d="m 54,372.6 144,0 0,140.4 -144,0 0,-140.4 z"
         id="path63053" />
    </clipPath>
    <clipPath
       clipPathUnits="userSpaceOnUse"
       id="clipPath62975">
      <path
         inkscape:connector-curvature="0"
         d="m 55,232 144,0 0,140 -144,0 0,-140 z"
         id="path62977" />
    </clipPath>
    <clipPath
       clipPathUnits="userSpaceOnUse"
       id="clipPath62903">
      <path
         inkscape:connector-curvature="0"
         d="m 54,81 144,0 0,150 -144,0 0,-150 z"
         id="path62905" />
    </clipPath>
    <clipPath
       clipPathUnits="userSpaceOnUse"
       id="clipPath64409">
      <path
         inkscape:connector-curvature="0"
         d="m 18,514 144,0 0,169.28 -144,0 L 18,514 z"
         id="path64411" />
    </clipPath>
    <clipPath
       clipPathUnits="userSpaceOnUse"
       id="clipPath64771">
      <path
         inkscape:connector-curvature="0"
         d="m 18,374 144,0 0,140 -144,0 0,-140 z"
         id="path64773" />
    </clipPath>
    <clipPath
       clipPathUnits="userSpaceOnUse"
       id="clipPath64699">
      <path
         inkscape:connector-curvature="0"
         d="m 18,230 144,0 0,144 -144,0 0,-144 z"
         id="path64701" />
    </clipPath>
    <clipPath
       clipPathUnits="userSpaceOnUse"
       id="clipPath64351">
      <path
         inkscape:connector-curvature="0"
         d="m 18,78.96 144,0 0,155.04 -144,0 0,-155.04 z"
         id="path64353" />
    </clipPath>
    <clipPath
       clipPathUnits="userSpaceOnUse"
       id="clipPath66522">
      <path
         inkscape:connector-curvature="0"
         d="m 54,573.2 144,0 0,110.8 -144,0 0,-110.8 z"
         id="path66524" />
    </clipPath>
    <clipPath
       clipPathUnits="userSpaceOnUse"
       id="clipPath66482">
      <path
         inkscape:connector-curvature="0"
         d="m 54,451.6 144,0 0,119.6 -144,0 0,-119.6 z"
         id="path66484" />
    </clipPath>
    <clipPath
       clipPathUnits="userSpaceOnUse"
       id="clipPath66338">
      <path
         inkscape:connector-curvature="0"
         d="m 54,333.4 144,0 0,117.2 -144,0 0,-117.2 z"
         id="path66340" />
    </clipPath>
    <clipPath
       clipPathUnits="userSpaceOnUse"
       id="clipPath66200">
      <path
         inkscape:connector-curvature="0"
         d="m 55,212.4 144,0 0,119.6 -144,0 0,-119.6 z"
         id="path66202" />
    </clipPath>
    <clipPath
       clipPathUnits="userSpaceOnUse"
       id="clipPath65956">
      <path
         inkscape:connector-curvature="0"
         d="m 54,81 144,0 0,129.2 -144,0 L 54,81 z"
         id="path65958" />
    </clipPath>
    <clipPath
       clipPathUnits="userSpaceOnUse"
       id="clipPath68776">
      <path
         inkscape:connector-curvature="0"
         d="m 18,504 144,0 0,153 -144,0 0,-153 z"
         id="path68778" />
    </clipPath>
    <clipPath
       clipPathUnits="userSpaceOnUse"
       id="clipPath68666">
      <path
         inkscape:connector-curvature="0"
         d="m 18,363 144,0 0,157.7 -144,0 0,-157.7 z"
         id="path68668" />
    </clipPath>
    <clipPath
       clipPathUnits="userSpaceOnUse"
       id="clipPath68488">
      <path
         inkscape:connector-curvature="0"
         d="m 18,218.2 144,0 0,168.2 -144,0 0,-168.2 z"
         id="path68490" />
    </clipPath>
    <clipPath
       clipPathUnits="userSpaceOnUse"
       id="clipPath68340">
      <path
         inkscape:connector-curvature="0"
         d="m 18,80 144,0 0,166.6 -144,0 L 18,80 z"
         id="path68342" />
    </clipPath>
    <clipPath
       clipPathUnits="userSpaceOnUse"
       id="clipPath71198">
      <path
         inkscape:connector-curvature="0"
         d="m 54,507.6 201.6,0 0,149.4 -201.6,0 0,-149.4 z"
         id="path71200" />
    </clipPath>
    <clipPath
       clipPathUnits="userSpaceOnUse"
       id="clipPath71044">
      <path
         inkscape:connector-curvature="0"
         d="m 54,365.6 201.6,0 0,155 -201.6,0 0,-155 z"
         id="path71046" />
    </clipPath>
    <clipPath
       clipPathUnits="userSpaceOnUse"
       id="clipPath70888">
      <path
         inkscape:connector-curvature="0"
         d="m 54,224.003 201.6,0 0,150.397 -201.6,0 0,-150.397 z"
         id="path70890" />
    </clipPath>
    <clipPath
       clipPathUnits="userSpaceOnUse"
       id="clipPath70978">
      <path
         inkscape:connector-curvature="0"
         d="m 54,80.006 201.6,0 0,156.198 -201.6,0 0,-156.198 z"
         id="path70980" />
    </clipPath>
    <clipPath
       clipPathUnits="userSpaceOnUse"
       id="clipPath3225-9">
      <path
         d="m 18,468.6 144,0 0,187.4 -144,0 0,-187.4 z"
         id="path3227-9"
         inkscape:connector-curvature="0" />
    </clipPath>
    <clipPath
       clipPathUnits="userSpaceOnUse"
       id="clipPath3175-7">
      <path
         d="m 18,261.6 144,0 0,218.4 -144,0 0,-218.4 z"
         id="path3177-5"
         inkscape:connector-curvature="0" />
    </clipPath>
    <clipPath
       clipPathUnits="userSpaceOnUse"
       id="clipPath3139-8">
      <path
         d="m 18,81.21 144,0 0,198.296 -144,0 0,-198.296 z"
         id="path3141-1"
         inkscape:connector-curvature="0" />
    </clipPath>
    <clipPath
       clipPathUnits="userSpaceOnUse"
       id="clipPath5048">
      <path
         inkscape:connector-curvature="0"
         d="m 54,460.8 144,0 0,196.2 -144,0 0,-196.2 z"
         id="path5050" />
    </clipPath>
    <clipPath
       clipPathUnits="userSpaceOnUse"
       id="clipPath5274">
      <path
         inkscape:connector-curvature="0"
         d="m 54,262.8 144,0 0,214.792 -144,0 0,-214.792 z"
         id="path5276" />
    </clipPath>
    <clipPath
       clipPathUnits="userSpaceOnUse"
       id="clipPath5092">
      <path
         inkscape:connector-curvature="0"
         d="m 54,81 144,0 0,192.6 -144,0 L 54,81 z"
         id="path5094" />
    </clipPath>
    <clipPath
       clipPathUnits="userSpaceOnUse"
       id="clipPath7721">
      <path
         d="m 58.5,774 28.95,0 C 93.8289,774 99,768.8289 99,762.45 l 0,-57.9 C 99,698.1711 93.8289,693 87.45,693 l -57.9,0 C 23.1711,693 18,698.1711 18,704.55 l 0,57.9 c 0,6.3789 5.1711,11.55 11.55,11.55"
         clip-rule="evenodd"
         id="path7723"
         inkscape:connector-curvature="0" />
    </clipPath>
    <clipPath
       clipPathUnits="userSpaceOnUse"
       id="clipPath7759">
      <path
         d="m 18,267 144,0 0,116 -144,0 0,-116 z"
         id="path7761"
         inkscape:connector-curvature="0" />
    </clipPath>
    <clipPath
       clipPathUnits="userSpaceOnUse"
       id="clipPath7789">
      <path
         d="m 18,81 144,0 0,89.848 -144,0 L 18,81 z"
         id="path7791"
         inkscape:connector-curvature="0" />
    </clipPath>
    <clipPath
       clipPathUnits="userSpaceOnUse"
       id="clipPath7819">
      <path
         d="m 18,167.5 144,0 0,106.1 -144,0 0,-106.1 z"
         id="path7821"
         inkscape:connector-curvature="0" />
    </clipPath>
    <clipPath
       clipPathUnits="userSpaceOnUse"
       id="clipPath7855">
      <path
         d="m 18,367.2 144,0 0,104.1 -144,0 0,-104.1 z"
         id="path7857"
         inkscape:connector-curvature="0" />
    </clipPath>
    <clipPath
       clipPathUnits="userSpaceOnUse"
       id="clipPath7889">
      <path
         d="m 18,465.602 144,0 0,105.666 -144,0 0,-105.666 z"
         id="path7891"
         inkscape:connector-curvature="0" />
    </clipPath>
    <clipPath
       clipPathUnits="userSpaceOnUse"
       id="clipPath7927">
      <path
         d="m 18,572.6 144,0 0,111.4 -144,0 0,-111.4 z"
         id="path7929"
         inkscape:connector-curvature="0" />
    </clipPath>
    <clipPath
       clipPathUnits="userSpaceOnUse"
       id="clipPath8007">
      <path
         d="m 58.5,773.5 28.7,0 c 6.2408,0 11.3,-5.0592 11.3,-11.3 l 0,-57.4 c 0,-6.2408 -5.0592,-11.3 -11.3,-11.3 l -57.4,0 c -6.2408,0 -11.3,5.0592 -11.3,11.3 l 0,57.4 c 0,6.2408 5.0592,11.3 11.3,11.3"
         clip-rule="evenodd"
         id="path8009"
         inkscape:connector-curvature="0" />
    </clipPath>
    <clipPath
       clipPathUnits="userSpaceOnUse"
       id="clipPath8125">
      <path
         d="m 58.5,774 28.7,0 c 6.517,0 11.8,-5.283 11.8,-11.8 l 0,-57.4 C 99,698.283 93.717,693 87.2,693 l -57.4,0 C 23.283,693 18,698.283 18,704.8 l 0,57.4 c 0,6.517 5.283,11.8 11.8,11.8"
         clip-rule="evenodd"
         id="path8127"
         inkscape:connector-curvature="0" />
    </clipPath>
    <clipPath
       clipPathUnits="userSpaceOnUse"
       id="clipPath5048-0">
      <path
         d="m 54,460.8 144,0 0,196.2 -144,0 0,-196.2 z"
         id="path5050-8"
         inkscape:connector-curvature="0" />
    </clipPath>
    <clipPath
       clipPathUnits="userSpaceOnUse"
       id="clipPath5092-7">
      <path
         d="m 54,81 144,0 0,192.6 -144,0 L 54,81 z"
         id="path5094-1"
         inkscape:connector-curvature="0" />
    </clipPath>
    <clipPath
       clipPathUnits="userSpaceOnUse"
       id="clipPath5274-8">
      <path
         d="m 54,262.8 144,0 0,214.792 -144,0 0,-214.792 z"
         id="path5276-8"
         inkscape:connector-curvature="0" />
    </clipPath>
    <clipPath
       clipPathUnits="userSpaceOnUse"
       id="clipPath5446">
      <path
         d="m 207.716,279.49 66.2,0 0,56.82 -66.2,0 0,-56.82 z"
         id="path5448"
         inkscape:connector-curvature="0" />
    </clipPath>
    <clipPath
       clipPathUnits="userSpaceOnUse"
       id="clipPath5570">
      <path
         d="m 207.716,90.671 66.2,0 0,53.639 -66.2,0 0,-53.639 z"
         id="path5572"
         inkscape:connector-curvature="0" />
    </clipPath>
    <clipPath
       clipPathUnits="userSpaceOnUse"
       id="clipPath3225-9-5">
      <path
         d="m 18,468.6 144,0 0,187.4 -144,0 0,-187.4 z"
         id="path3227-9-2"
         inkscape:connector-curvature="0" />
    </clipPath>
    <clipPath
       clipPathUnits="userSpaceOnUse"
       id="clipPath3175-7-0">
      <path
         d="m 18,261.6 144,0 0,218.4 -144,0 0,-218.4 z"
         id="path3177-5-8"
         inkscape:connector-curvature="0" />
    </clipPath>
    <clipPath
       clipPathUnits="userSpaceOnUse"
       id="clipPath3139-8-0">
      <path
         d="m 18,81.21 144,0 0,198.296 -144,0 0,-198.296 z"
         id="path3141-1-0"
         inkscape:connector-curvature="0" />
    </clipPath>
    <clipPath
       clipPathUnits="userSpaceOnUse"
       id="clipPath3125">
      <path
         d="m 58.5,774 28.95,0 C 93.8289,774 99,768.8289 99,762.45 l 0,-57.9 C 99,698.1711 93.8289,693 87.45,693 l -57.9,0 C 23.1711,693 18,698.1711 18,704.55 l 0,57.9 c 0,6.3789 5.1711,11.55 11.55,11.55"
         clip-rule="evenodd"
         id="path3127"
         inkscape:connector-curvature="0" />
    </clipPath>
    <clipPath
       clipPathUnits="userSpaceOnUse"
       id="clipPath3139">
      <path
         d="m 18,81.21 144,0 0,198.296 -144,0 0,-198.296 z"
         id="path3141"
         inkscape:connector-curvature="0" />
    </clipPath>
    <clipPath
       clipPathUnits="userSpaceOnUse"
       id="clipPath3175">
      <path
         d="m 18,261.6 144,0 0,218.4 -144,0 0,-218.4 z"
         id="path3177"
         inkscape:connector-curvature="0" />
    </clipPath>
    <clipPath
       clipPathUnits="userSpaceOnUse"
       id="clipPath3225">
      <path
         d="m 18,468.6 144,0 0,187.4 -144,0 0,-187.4 z"
         id="path3227"
         inkscape:connector-curvature="0" />
    </clipPath>
    <clipPath
       clipPathUnits="userSpaceOnUse"
       id="clipPath3309">
      <path
         d="m 58.5,773.5 28.7,0 c 6.2408,0 11.3,-5.0592 11.3,-11.3 l 0,-57.4 c 0,-6.2408 -5.0592,-11.3 -11.3,-11.3 l -57.4,0 c -6.2408,0 -11.3,5.0592 -11.3,11.3 l 0,57.4 c 0,6.2408 5.0592,11.3 11.3,11.3"
         clip-rule="evenodd"
         id="path3311"
         inkscape:connector-curvature="0" />
    </clipPath>
    <clipPath
       clipPathUnits="userSpaceOnUse"
       id="clipPath3423">
      <path
         d="m 58.5,774 28.7,0 c 6.517,0 11.8,-5.283 11.8,-11.8 l 0,-57.4 C 99,698.283 93.717,693 87.2,693 l -57.4,0 C 23.283,693 18,698.283 18,704.8 l 0,57.4 c 0,6.517 5.283,11.8 11.8,11.8"
         clip-rule="evenodd"
         id="path3425"
         inkscape:connector-curvature="0" />
    </clipPath>
    <clipPath
       clipPathUnits="userSpaceOnUse"
       id="clipPath3485">
      <path
         d="m 171,280.8 85,0 0,56.016 -85,0 0,-56.016 z"
         id="path3487"
         inkscape:connector-curvature="0" />
    </clipPath>
    <clipPath
       clipPathUnits="userSpaceOnUse"
       id="clipPath7927-2">
      <path
         inkscape:connector-curvature="0"
         d="m 18,572.6 144,0 0,111.4 -144,0 0,-111.4 z"
         id="path7929-2" />
    </clipPath>
    <clipPath
       clipPathUnits="userSpaceOnUse"
       id="clipPath7889-7">
      <path
         inkscape:connector-curvature="0"
         d="m 18,465.602 144,0 0,105.666 -144,0 0,-105.666 z"
         id="path7891-0" />
    </clipPath>
    <clipPath
       clipPathUnits="userSpaceOnUse"
       id="clipPath7855-8">
      <path
         inkscape:connector-curvature="0"
         d="m 18,367.2 144,0 0,104.1 -144,0 0,-104.1 z"
         id="path7857-4" />
    </clipPath>
    <clipPath
       clipPathUnits="userSpaceOnUse"
       id="clipPath7759-7">
      <path
         inkscape:connector-curvature="0"
         d="m 18,267 144,0 0,116 -144,0 0,-116 z"
         id="path7761-4" />
    </clipPath>
    <clipPath
       clipPathUnits="userSpaceOnUse"
       id="clipPath7819-3">
      <path
         inkscape:connector-curvature="0"
         d="m 18,167.5 144,0 0,106.1 -144,0 0,-106.1 z"
         id="path7821-4" />
    </clipPath>
    <clipPath
       clipPathUnits="userSpaceOnUse"
       id="clipPath7789-4">
      <path
         inkscape:connector-curvature="0"
         d="m 18,81 144,0 0,89.848 -144,0 L 18,81 z"
         id="path7791-4" />
    </clipPath>
    <clipPath
       clipPathUnits="userSpaceOnUse"
       id="clipPath9899">
      <path
         inkscape:connector-curvature="0"
         d="m 54,572.4 144,0 0,111.6 -144,0 0,-111.6 z"
         id="path9901" />
    </clipPath>
    <clipPath
       clipPathUnits="userSpaceOnUse"
       id="clipPath9861">
      <path
         inkscape:connector-curvature="0"
         d="m 54,464.607 144,0 0,107.331 -144,0 0,-107.331 z"
         id="path9863" />
    </clipPath>
    <clipPath
       clipPathUnits="userSpaceOnUse"
       id="clipPath9731">
      <path
         inkscape:connector-curvature="0"
         d="m 54,367.2 144,0 0,106.1 -144,0 0,-106.1 z"
         id="path9733" />
    </clipPath>
    <clipPath
       clipPathUnits="userSpaceOnUse"
       id="clipPath9765">
      <path
         inkscape:connector-curvature="0"
         d="m 54,268 144,0 0,102.8 -144,0 0,-102.8 z"
         id="path9767" />
    </clipPath>
    <clipPath
       clipPathUnits="userSpaceOnUse"
       id="clipPath9825">
      <path
         inkscape:connector-curvature="0"
         d="m 54,169.2 144,0 0,104 -144,0 0,-104 z"
         id="path9827" />
    </clipPath>
    <clipPath
       clipPathUnits="userSpaceOnUse"
       id="clipPath9795">
      <path
         inkscape:connector-curvature="0"
         d="m 54,80 144,0 0,92.8 -144,0 0,-92.8 z"
         id="path9797" />
    </clipPath>
  </defs>
  <sodipodi:namedview
     id="base"
     pagecolor="#ffffff"
     bordercolor="#666666"
     borderopacity="1.0"
     inkscape:pageopacity="0.0"
     inkscape:pageshadow="2"
     inkscape:zoom="0.35"
     inkscape:cx="360.5725"
     inkscape:cy="-72.808083"
     inkscape:document-units="px"
     inkscape:current-layer="layer1"
     showgrid="false"
     inkscape:window-width="9"
     inkscape:window-height="747"
     inkscape:window-x="1346"
     inkscape:window-y="0"
     inkscape:window-maximized="0" />
  <metadata
     id="metadata8362">
    <rdf:RDF>
      <cc:Work
         rdf:about="">
        <dc:format>image/svg+xml</dc:format>
        <dc:type
           rdf:resource="http://purl.org/dc/dcmitype/StillImage" />
        <dc:title />
      </cc:Work>
    </rdf:RDF>
  </metadata>
  <g
     inkscape:label="Layer 1"
     inkscape:groupmode="layer"
     id="layer1"
     transform="translate(-14.427499,-15.39886)">
    <g
       id="g9791"
       transform="matrix(1.25,0,0,-1.25,-67.160001,220.58636)">
      <g
         clip-path="url(#clipPath9795)"
         id="g9793">
        <path
           id="path9799"
           style="fill:#ffffff;fill-opacity:1;fill-rule:nonzero;stroke:none"
           d="m 169.8967,156.8047 c -0.14,1.0966 -2.4687,1.2273 -2.4687,1.2273 0,0 -33.684,5.796 -37.156,5.908 l -1.1902,-0.2586 -0.0418,0.007 0.0137,-0.0128 -60.8857,-13.2312 -1.484,-0.14 -0.476,-0.28 0.008,-0.003 -0.736,-0.445 0,-37.24 38.78,-20.832 c 0.476,0.14 1.12,0.4573 1.4933,0.8307 l 0,7.7466 c 0,0 18.2571,3.0986 28.8867,7.0467 19.6,7.28 27.216,21.336 27.216,21.336 l 7.112,-2.156 0.2005,-0.0801 0.7515,0.4161 0.056,27.356"
           inkscape:connector-curvature="0" />
        <path
           id="path9801"
           style="fill:none;stroke:#000000;stroke-width:0.41999999;stroke-linecap:butt;stroke-linejoin:miter;stroke-miterlimit:4;stroke-opacity:1;stroke-dasharray:none"
           d="m 169.8967,156.8047 c -0.14,1.0966 -2.4687,1.2273 -2.4687,1.2273 0,0 -33.684,5.796 -37.156,5.908 l -1.1902,-0.2586 -0.0418,0.007 0.0137,-0.0128 -60.8857,-13.2312 -1.484,-0.14 -0.476,-0.28 0.008,-0.003 -0.736,-0.445 0,-37.24 38.78,-20.832 c 0.476,0.14 1.12,0.4573 1.4933,0.8307 l 0,7.7466 c 0,0 18.2571,3.0986 28.8867,7.0467 19.6,7.28 27.216,21.336 27.216,21.336 l 7.112,-2.156 0.2005,-0.0801 0.7515,0.4161 0.056,27.356 -0.0793,2.8047 z"
           inkscape:connector-curvature="0" />
        <path
           id="path9803"
           style="fill:none;stroke:#000000;stroke-width:0.28;stroke-linecap:square;stroke-linejoin:miter;stroke-miterlimit:2;stroke-opacity:1;stroke-dasharray:none"
           d="m 168.7067,157.108 c -8.89,-6.23 -21.0187,-10.528 -32.1347,-13.664 l -13.244,-2.828 -15.568,-2.128 -1.96,-0.336 0.056,-1.092 1.568,-0.056 14.896,1.932 13.328,2.828 c 8.848,2.464 17.668,5.208 25.536,9.828 2.436,1.372 5.5673,2.9727 7.9193,4.7927"
           inkscape:connector-curvature="0" />
        <path
           id="path9805"
           style="fill:none;stroke:#000000;stroke-width:0.28;stroke-linecap:square;stroke-linejoin:miter;stroke-miterlimit:2;stroke-opacity:1;stroke-dasharray:none"
           d="m 129.04,163.688 37.632,-5.992 c 1.7406,-0.2761 2.3909,-0.5576 2.4547,-1.1947 l 0.0373,-0.1493 0,-29.96"
           inkscape:connector-curvature="0" />
        <path
           id="path9807"
           style="fill:none;stroke:#000000;stroke-width:0.28;stroke-linecap:square;stroke-linejoin:miter;stroke-miterlimit:2;stroke-opacity:1;stroke-dasharray:none"
           d="m 168.968,126.308 -7.112,2.156 c 0,0 -7.616,-14.056 -27.216,-21.336 -10.6296,-3.9481 -28.8867,-7.0467 -28.8867,-7.0467 l 0,-7.7466 C 105.38,91.9613 104.736,91.644 104.26,91.504 l -38.78,20.832 0,37.24 1.204,0.728 1.484,0.14 62.104,13.496 c 3.472,-0.112 37.156,-5.908 37.156,-5.908 0,0 2.3287,-0.1307 2.4687,-1.2273 L 169.976,154 l -0.056,-27.356 -0.7515,-0.4161"
           inkscape:connector-curvature="0" />
        <path
           id="path9809"
           style="fill:none;stroke:#000000;stroke-width:0.28;stroke-linecap:square;stroke-linejoin:miter;stroke-miterlimit:2;stroke-opacity:1;stroke-dasharray:none"
           d="m 105.856,137.06 -0.1027,-36.9787"
           inkscape:connector-curvature="0" />
        <path
           id="path9811"
           style="fill:none;stroke:#000000;stroke-width:0.28;stroke-linecap:square;stroke-linejoin:miter;stroke-miterlimit:2;stroke-opacity:1;stroke-dasharray:none"
           d="m 105.8,138.152 -1.064,0.532 -36.568,11.76"
           inkscape:connector-curvature="0" />
        <path
           id="path9813"
           style="fill:none;stroke:#000000;stroke-width:0.28;stroke-linecap:square;stroke-linejoin:miter;stroke-miterlimit:2;stroke-opacity:1;stroke-dasharray:none"
           d="M 104.12,137.732 104.456,137.2 104.26,91.504"
           inkscape:connector-curvature="0" />
        <path
           id="path9815"
           style="fill:none;stroke:#000000;stroke-width:0.28;stroke-linecap:square;stroke-linejoin:miter;stroke-miterlimit:2;stroke-opacity:1;stroke-dasharray:none"
           d="m 104.12,137.732 -37.016,11.956 -0.896,0.336 0.476,0.28 0.42,-0.616"
           inkscape:connector-curvature="0" />
        <path
           id="path9817"
           style="fill:none;stroke:#000000;stroke-width:0.28;stroke-linecap:butt;stroke-linejoin:miter;stroke-miterlimit:4;stroke-opacity:1;stroke-dasharray:none"
           d="m 161.856,128.464 0,23.604"
           inkscape:connector-curvature="0" />
      </g>
    </g>
  </g>
</svg>
