<?xml version="1.0" encoding="UTF-8" standalone="no"?>
<!-- Created with Inkscape (http://www.inkscape.org/) -->

<svg
   xmlns:dc="http://purl.org/dc/elements/1.1/"
   xmlns:cc="http://creativecommons.org/ns#"
   xmlns:rdf="http://www.w3.org/1999/02/22-rdf-syntax-ns#"
   xmlns:svg="http://www.w3.org/2000/svg"
   xmlns="http://www.w3.org/2000/svg"
   xmlns:sodipodi="http://sodipodi.sourceforge.net/DTD/sodipodi-0.dtd"
   xmlns:inkscape="http://www.inkscape.org/namespaces/inkscape"
   width="155.50117"
   height="88.885628"
   id="svg8357"
   version="1.1"
   inkscape:version="0.48.4 r9939"
   sodipodi:docname="15.svg">
  <defs
     id="defs8359">
    <clipPath
       clipPathUnits="userSpaceOnUse"
       id="clipPath15530">
      <path
         inkscape:connector-curvature="0"
         d="m 54,455.8 201.6,0 0,201.2 -201.6,0 0,-201.2 z"
         id="path15532" />
    </clipPath>
    <clipPath
       clipPathUnits="userSpaceOnUse"
       id="clipPath14168">
      <path
         inkscape:connector-curvature="0"
         d="m 54,264.4 201.6,0 0,221.6 -201.6,0 0,-221.6 z"
         id="path14170" />
    </clipPath>
    <clipPath
       clipPathUnits="userSpaceOnUse"
       id="clipPath13416">
      <path
         inkscape:connector-curvature="0"
         d="m 54,80 201.6,0 0,202.7 L 54,282.7 54,80 z"
         id="path13418" />
    </clipPath>
    <clipPath
       clipPathUnits="userSpaceOnUse"
       id="clipPath13416-4">
      <path
         d="m 54,80 201.6,0 0,202.7 L 54,282.7 54,80 z"
         id="path13418-5"
         inkscape:connector-curvature="0" />
    </clipPath>
    <clipPath
       clipPathUnits="userSpaceOnUse"
       id="clipPath14168-8">
      <path
         d="m 54,264.4 201.6,0 0,221.6 -201.6,0 0,-221.6 z"
         id="path14170-2"
         inkscape:connector-curvature="0" />
    </clipPath>
    <clipPath
       clipPathUnits="userSpaceOnUse"
       id="clipPath15530-4">
      <path
         d="m 54,455.8 201.6,0 0,201.2 -201.6,0 0,-201.2 z"
         id="path15532-8"
         inkscape:connector-curvature="0" />
    </clipPath>
    <clipPath
       clipPathUnits="userSpaceOnUse"
       id="clipPath3129">
      <path
         d="m 58.5,774 28.95,0 C 93.8289,774 99,768.8289 99,762.45 l 0,-57.9 C 99,698.1711 93.8289,693 87.45,693 l -57.9,0 C 23.1711,693 18,698.1711 18,704.55 l 0,57.9 c 0,6.3789 5.1711,11.55 11.55,11.55"
         clip-rule="evenodd"
         id="path3131"
         inkscape:connector-curvature="0" />
    </clipPath>
    <clipPath
       clipPathUnits="userSpaceOnUse"
       id="clipPath3143">
      <path
         d="m 18,80 144,0 0,166.6 -144,0 L 18,80 z"
         id="path3145"
         inkscape:connector-curvature="0" />
    </clipPath>
    <clipPath
       clipPathUnits="userSpaceOnUse"
       id="clipPath4225">
      <path
         d="m 18,226.8 144,0 0,159.6 -144,0 0,-159.6 z"
         id="path4227"
         inkscape:connector-curvature="0" />
    </clipPath>
    <clipPath
       clipPathUnits="userSpaceOnUse"
       id="clipPath5141">
      <path
         d="m 18,360 144,0 0,160.7 -144,0 0,-160.7 z"
         id="path5143"
         inkscape:connector-curvature="0" />
    </clipPath>
    <clipPath
       clipPathUnits="userSpaceOnUse"
       id="clipPath5911">
      <path
         d="m 18,504 144,0 0,153 -144,0 0,-153 z"
         id="path5913"
         inkscape:connector-curvature="0" />
    </clipPath>
    <clipPath
       clipPathUnits="userSpaceOnUse"
       id="clipPath6873">
      <path
         d="m 58.5,773.5 28.7,0 c 6.2408,0 11.3,-5.0592 11.3,-11.3 l 0,-57.4 c 0,-6.2408 -5.0592,-11.3 -11.3,-11.3 l -57.4,0 c -6.2408,0 -11.3,5.0592 -11.3,11.3 l 0,57.4 c 0,6.2408 5.0592,11.3 11.3,11.3"
         clip-rule="evenodd"
         id="path6875"
         inkscape:connector-curvature="0" />
    </clipPath>
    <clipPath
       clipPathUnits="userSpaceOnUse"
       id="clipPath6897">
      <path
         d="m 58.5,774 28.7,0 c 6.517,0 11.8,-5.283 11.8,-11.8 l 0,-57.4 C 99,698.283 93.717,693 87.2,693 l -57.4,0 C 23.283,693 18,698.283 18,704.8 l 0,57.4 c 0,6.517 5.283,11.8 11.8,11.8"
         clip-rule="evenodd"
         id="path6899"
         inkscape:connector-curvature="0" />
    </clipPath>
    <clipPath
       clipPathUnits="userSpaceOnUse"
       id="clipPath15530-4-1">
      <path
         inkscape:connector-curvature="0"
         d="m 54,455.8 201.6,0 0,201.2 -201.6,0 0,-201.2 z"
         id="path15532-8-5" />
    </clipPath>
    <clipPath
       clipPathUnits="userSpaceOnUse"
       id="clipPath22509">
      <path
         inkscape:connector-curvature="0"
         d="m 18,571.104 144,0 0,85.896 -144,0 0,-85.896 z"
         id="path22511" />
    </clipPath>
    <clipPath
       clipPathUnits="userSpaceOnUse"
       id="clipPath22509-6">
      <path
         inkscape:connector-curvature="0"
         d="m 18,571.104 144,0 0,85.896 -144,0 0,-85.896 z"
         id="path22511-0" />
    </clipPath>
    <clipPath
       clipPathUnits="userSpaceOnUse"
       id="clipPath24435">
      <path
         d="m 196.992,401.6 84.024,0 0,41.2 -84.024,0 0,-41.2 z"
         id="path24437"
         inkscape:connector-curvature="0" />
    </clipPath>
    <clipPath
       clipPathUnits="userSpaceOnUse"
       id="clipPath24455">
      <path
         d="m 197,460.003 84.024,0 0,57.88 -84.024,0 0,-57.88 z"
         id="path24457"
         inkscape:connector-curvature="0" />
    </clipPath>
    <clipPath
       clipPathUnits="userSpaceOnUse"
       id="clipPath24475">
      <path
         d="m 197,527.6 84.024,0 0,36 -84.024,0 0,-36 z"
         id="path24477"
         inkscape:connector-curvature="0" />
    </clipPath>
    <clipPath
       clipPathUnits="userSpaceOnUse"
       id="clipPath24569">
      <path
         d="m 54,571.106 144,0 0,85.896 -144,0 0,-85.896 z"
         id="path24571"
         inkscape:connector-curvature="0" />
    </clipPath>
    <clipPath
       clipPathUnits="userSpaceOnUse"
       id="clipPath24787">
      <path
         d="m 196.992,341.68 84.024,0 0,43 -84.024,0 0,-43 z"
         id="path24789"
         inkscape:connector-curvature="0" />
    </clipPath>
    <clipPath
       clipPathUnits="userSpaceOnUse"
       id="clipPath24807">
      <path
         d="m 196.992,284.2 84.024,0 0,37.28 -84.024,0 0,-37.28 z"
         id="path24809"
         inkscape:connector-curvature="0" />
    </clipPath>
    <clipPath
       clipPathUnits="userSpaceOnUse"
       id="clipPath24827">
      <path
         d="m 196.992,216.48 84.024,0 0,48 -84.024,0 0,-48 z"
         id="path24829"
         inkscape:connector-curvature="0" />
    </clipPath>
    <clipPath
       clipPathUnits="userSpaceOnUse"
       id="clipPath24847">
      <path
         d="m 196.992,156.48 84.024,0 0,48 -84.024,0 0,-48 z"
         id="path24849"
         inkscape:connector-curvature="0" />
    </clipPath>
    <clipPath
       clipPathUnits="userSpaceOnUse"
       id="clipPath22337">
      <path
         d="m 58.5,773.625 28.95,0 c 6.1718,0 11.175,-5.0032 11.175,-11.175 l 0,-57.9 c 0,-6.1718 -5.0032,-11.175 -11.175,-11.175 l -57.9,0 c -6.1718,0 -11.175,5.0032 -11.175,11.175 l 0,57.9 c 0,6.1718 5.0032,11.175 11.175,11.175"
         clip-rule="evenodd"
         id="path22339"
         inkscape:connector-curvature="0" />
    </clipPath>
    <clipPath
       clipPathUnits="userSpaceOnUse"
       id="clipPath22361">
      <path
         d="m 58.5,774 28.95,0 C 93.8289,774 99,768.8289 99,762.45 l 0,-57.9 C 99,698.1711 93.8289,693 87.45,693 l -57.9,0 C 23.1711,693 18,698.1711 18,704.55 l 0,57.9 c 0,6.3789 5.1711,11.55 11.55,11.55"
         clip-rule="evenodd"
         id="path22363"
         inkscape:connector-curvature="0" />
    </clipPath>
    <clipPath
       clipPathUnits="userSpaceOnUse"
       id="clipPath22375">
      <path
         d="m 160.992,428.4 84.024,0 0,40.913 -84.024,0 0,-40.913 z"
         id="path22377"
         inkscape:connector-curvature="0" />
    </clipPath>
    <clipPath
       clipPathUnits="userSpaceOnUse"
       id="clipPath22395">
      <path
         d="m 161,474.21 84.024,0 0,53.686 -84.024,0 0,-53.686 z"
         id="path22397"
         inkscape:connector-curvature="0" />
    </clipPath>
    <clipPath
       clipPathUnits="userSpaceOnUse"
       id="clipPath22415">
      <path
         d="m 161,528.2 84.024,0 0,39.4 -84.024,0 0,-39.4 z"
         id="path22417"
         inkscape:connector-curvature="0" />
    </clipPath>
    <clipPath
       clipPathUnits="userSpaceOnUse"
       id="clipPath22509-1">
      <path
         d="m 18,571.104 144,0 0,85.896 -144,0 0,-85.896 z"
         id="path22511-6"
         inkscape:connector-curvature="0" />
    </clipPath>
    <clipPath
       clipPathUnits="userSpaceOnUse"
       id="clipPath22733">
      <path
         d="m 58.5,773.5 28.7,0 c 6.2408,0 11.3,-5.0592 11.3,-11.3 l 0,-57.4 c 0,-6.2408 -5.0592,-11.3 -11.3,-11.3 l -57.4,0 c -6.2408,0 -11.3,5.0592 -11.3,11.3 l 0,57.4 c 0,6.2408 5.0592,11.3 11.3,11.3"
         clip-rule="evenodd"
         id="path22735"
         inkscape:connector-curvature="0" />
    </clipPath>
    <clipPath
       clipPathUnits="userSpaceOnUse"
       id="clipPath22757">
      <path
         d="m 58.5,774 28.7,0 c 6.517,0 11.8,-5.283 11.8,-11.8 l 0,-57.4 C 99,698.283 93.717,693 87.2,693 l -57.4,0 C 23.283,693 18,698.283 18,704.8 l 0,57.4 c 0,6.517 5.283,11.8 11.8,11.8"
         clip-rule="evenodd"
         id="path22759"
         inkscape:connector-curvature="0" />
    </clipPath>
    <clipPath
       clipPathUnits="userSpaceOnUse"
       id="clipPath22771">
      <path
         d="m 160.992,347.8 84.024,0 0,44.88 -84.024,0 0,-44.88 z"
         id="path22773"
         inkscape:connector-curvature="0" />
    </clipPath>
    <clipPath
       clipPathUnits="userSpaceOnUse"
       id="clipPath22791">
      <path
         d="m 160.992,172.8 84.024,0 0,52.68 -84.024,0 0,-52.68 z"
         id="path22793"
         inkscape:connector-curvature="0" />
    </clipPath>
    <clipPath
       clipPathUnits="userSpaceOnUse"
       id="clipPath22811">
      <path
         d="m 160.992,118.8 84.024,0 0,46.81 -84.024,0 0,-46.81 z"
         id="path22813"
         inkscape:connector-curvature="0" />
    </clipPath>
    <clipPath
       clipPathUnits="userSpaceOnUse"
       id="clipPath22831">
      <path
         d="m 160.992,79.21 84.024,0 0,36.599 -84.024,0 0,-36.599 z"
         id="path22833"
         inkscape:connector-curvature="0" />
    </clipPath>
    <clipPath
       clipPathUnits="userSpaceOnUse"
       id="clipPath22847">
      <path
         d="m 160.992,390.832 84.024,0 0,37.568 -84.024,0 0,-37.568 z"
         id="path22849"
         inkscape:connector-curvature="0" />
    </clipPath>
    <clipPath
       clipPathUnits="userSpaceOnUse"
       id="clipPath22863">
      <path
         d="m 160.992,310.408 84.024,0 0,39.231 -84.024,0 0,-39.231 z"
         id="path22865"
         inkscape:connector-curvature="0" />
    </clipPath>
    <clipPath
       clipPathUnits="userSpaceOnUse"
       id="clipPath22879">
      <path
         d="m 160.992,268.6 84.024,0 0,37.68 -84.024,0 0,-37.68 z"
         id="path22881"
         inkscape:connector-curvature="0" />
    </clipPath>
    <clipPath
       clipPathUnits="userSpaceOnUse"
       id="clipPath22899">
      <path
         d="m 160.992,232.808 84.024,0 0,36.031 -84.024,0 0,-36.031 z"
         id="path22901"
         inkscape:connector-curvature="0" />
    </clipPath>
    <clipPath
       clipPathUnits="userSpaceOnUse"
       id="clipPath13416-2">
      <path
         d="m 54,80 201.6,0 0,202.7 L 54,282.7 54,80 z"
         id="path13418-0"
         inkscape:connector-curvature="0" />
    </clipPath>
    <clipPath
       clipPathUnits="userSpaceOnUse"
       id="clipPath14168-5">
      <path
         d="m 54,264.4 201.6,0 0,221.6 -201.6,0 0,-221.6 z"
         id="path14170-1"
         inkscape:connector-curvature="0" />
    </clipPath>
    <clipPath
       clipPathUnits="userSpaceOnUse"
       id="clipPath15530-8">
      <path
         d="m 54,455.8 201.6,0 0,201.2 -201.6,0 0,-201.2 z"
         id="path15532-3"
         inkscape:connector-curvature="0" />
    </clipPath>
    <clipPath
       clipPathUnits="userSpaceOnUse"
       id="clipPath3129-4">
      <path
         d="m 58.5,774 28.95,0 C 93.8289,774 99,768.8289 99,762.45 l 0,-57.9 C 99,698.1711 93.8289,693 87.45,693 l -57.9,0 C 23.1711,693 18,698.1711 18,704.55 l 0,57.9 c 0,6.3789 5.1711,11.55 11.55,11.55"
         clip-rule="evenodd"
         id="path3131-7"
         inkscape:connector-curvature="0" />
    </clipPath>
    <clipPath
       clipPathUnits="userSpaceOnUse"
       id="clipPath3143-0">
      <path
         d="m 18,80 144,0 0,166.6 -144,0 L 18,80 z"
         id="path3145-9"
         inkscape:connector-curvature="0" />
    </clipPath>
    <clipPath
       clipPathUnits="userSpaceOnUse"
       id="clipPath4225-2">
      <path
         d="m 18,226.8 144,0 0,159.6 -144,0 0,-159.6 z"
         id="path4227-5"
         inkscape:connector-curvature="0" />
    </clipPath>
    <clipPath
       clipPathUnits="userSpaceOnUse"
       id="clipPath5141-0">
      <path
         d="m 18,360 144,0 0,160.7 -144,0 0,-160.7 z"
         id="path5143-1"
         inkscape:connector-curvature="0" />
    </clipPath>
    <clipPath
       clipPathUnits="userSpaceOnUse"
       id="clipPath5911-3">
      <path
         d="m 18,504 144,0 0,153 -144,0 0,-153 z"
         id="path5913-8"
         inkscape:connector-curvature="0" />
    </clipPath>
    <clipPath
       clipPathUnits="userSpaceOnUse"
       id="clipPath6873-6">
      <path
         d="m 58.5,773.5 28.7,0 c 6.2408,0 11.3,-5.0592 11.3,-11.3 l 0,-57.4 c 0,-6.2408 -5.0592,-11.3 -11.3,-11.3 l -57.4,0 c -6.2408,0 -11.3,5.0592 -11.3,11.3 l 0,57.4 c 0,6.2408 5.0592,11.3 11.3,11.3"
         clip-rule="evenodd"
         id="path6875-0"
         inkscape:connector-curvature="0" />
    </clipPath>
    <clipPath
       clipPathUnits="userSpaceOnUse"
       id="clipPath6897-2">
      <path
         d="m 58.5,774 28.7,0 c 6.517,0 11.8,-5.283 11.8,-11.8 l 0,-57.4 C 99,698.283 93.717,693 87.2,693 l -57.4,0 C 23.283,693 18,698.283 18,704.8 l 0,57.4 c 0,6.517 5.283,11.8 11.8,11.8"
         clip-rule="evenodd"
         id="path6899-6"
         inkscape:connector-curvature="0" />
    </clipPath>
    <clipPath
       clipPathUnits="userSpaceOnUse"
       id="clipPath24569-8">
      <path
         inkscape:connector-curvature="0"
         d="m 54,571.106 144,0 0,85.896 -144,0 0,-85.896 z"
         id="path24571-9" />
    </clipPath>
    <clipPath
       clipPathUnits="userSpaceOnUse"
       id="clipPath26813">
      <path
         inkscape:connector-curvature="0"
         d="m 18,559.2 144,0 0,97.44 -144,0 0,-97.44 z"
         id="path26815" />
    </clipPath>
    <clipPath
       clipPathUnits="userSpaceOnUse"
       id="clipPath26991">
      <path
         inkscape:connector-curvature="0"
         d="m 18,469.2 144,0 0,97.44 -144,0 0,-97.44 z"
         id="path26993" />
    </clipPath>
    <clipPath
       clipPathUnits="userSpaceOnUse"
       id="clipPath26335">
      <path
         inkscape:connector-curvature="0"
         d="m 18,378.002 144,0 0,97.6 -144,0 0,-97.6 z"
         id="path26337" />
    </clipPath>
    <clipPath
       clipPathUnits="userSpaceOnUse"
       id="clipPath26531">
      <path
         inkscape:connector-curvature="0"
         d="m 18,288.002 144,0 0,97.6 -144,0 0,-97.6 z"
         id="path26533" />
    </clipPath>
    <clipPath
       clipPathUnits="userSpaceOnUse"
       id="clipPath26681">
      <path
         inkscape:connector-curvature="0"
         d="m 18,198.002 144,0 0,97.6 -144,0 0,-97.6 z"
         id="path26683" />
    </clipPath>
    <clipPath
       clipPathUnits="userSpaceOnUse"
       id="clipPath26201">
      <path
         inkscape:connector-curvature="0"
         d="m 18,80.008 144,0 0,128.792 -144,0 0,-128.792 z"
         id="path26203" />
    </clipPath>
  </defs>
  <sodipodi:namedview
     id="base"
     pagecolor="#ffffff"
     bordercolor="#666666"
     borderopacity="1.0"
     inkscape:pageopacity="0.0"
     inkscape:pageshadow="2"
     inkscape:zoom="0.35"
     inkscape:cx="358.46487"
     inkscape:cy="-71.042873"
     inkscape:document-units="px"
     inkscape:current-layer="layer1"
     showgrid="false"
     inkscape:window-width="15"
     inkscape:window-height="747"
     inkscape:window-x="1171"
     inkscape:window-y="0"
     inkscape:window-maximized="0" />
  <metadata
     id="metadata8362">
    <rdf:RDF>
      <cc:Work
         rdf:about="">
        <dc:format>image/svg+xml</dc:format>
        <dc:type
           rdf:resource="http://purl.org/dc/dcmitype/StillImage" />
        <dc:title />
      </cc:Work>
    </rdf:RDF>
  </metadata>
  <g
     inkscape:label="Layer 1"
     inkscape:groupmode="layer"
     id="layer1"
     transform="translate(-16.535129,-19.347945)">
    <g
       id="g26197"
       transform="matrix(1.25,0,0,-1.25,-20.027826,241.52157)">
      <g
         clip-path="url(#clipPath26201)"
         id="g26199">
        <path
           id="path26205"
           style="fill:#ffffff;fill-opacity:1;fill-rule:evenodd;stroke:none"
           d="m 152.2574,149.4762 0.2301,22.2047 0.9013,0.0964 -0.6296,0.9447 -0.7468,0.3445 -26.4606,4.4099 -94.8144,-14.4901 -0.9454,-1.575 0.6037,-0.2224 0.0265,-0.0928 0,-6.2644 0.3895,-0.1602 -0.0407,-0.5848 -0.3722,0.1439 -0.0581,-17.3545 -0.1459,-0.1166 c -0.7875,-1.1959 -0.9041,-2.1 -0.2916,-4.0835 l 0.039,-0.2122 c 0.0957,-0.9608 0.1569,-2.8547 0.0212,-3.7652 -0.2297,-1.3761 -0.2297,-2.8797 7e-4,-4.2554 l 0.0113,0.0789 c -0.2458,-0.4921 -0.2458,-1.2892 3e-4,-1.7814 l 0.0253,0.0509 c 0.2317,7e-4 0.6897,0.5513 0.6897,1.1929 l -0.0089,0.0865 c -0.0895,1.0838 -0.2826,2.2408 -0.137,3.2969 l 0.0318,0.1043 c 0.3066,1.105 0.6107,3.1264 0.3766,4.2998 -0.2042,1.1666 0.0875,3.675 0.875,4.2875 l 20.5333,-12.746 c -0.4083,-1.5456 -0.3107,-3.4213 0.0292,-4.4331 l 0.0318,-0.0594 c 0.4389,-1.2787 0.6212,-3.4946 0.5159,-4.9913 l -0.0227,-0.2286 c -0.115,-1.5611 0.1226,-2.9317 0.5158,-4.3658 l -0.0754,0.1244 c -0.9262,-0.4187 -0.7256,-2.4657 0.2418,-2.4668 l -0.0063,0.0376 c 0.6527,0.2458 0.8448,1.6782 0.3449,2.354 l 0.0429,-0.0588 c 0.3027,1.3388 0.4578,2.7525 0.4585,4.1771 l 0.007,7e-4 c -0.0451,1.3525 0.1316,3.3995 0.5124,4.6019 l -0.0304,-0.1422 c 0.1955,1.4691 0.5263,3.4963 0.1179,5.1588 l 95.3751,26.0458 0.5493,-1.2015 c 0.3879,-0.7447 0.5551,-2.4998 0.4464,-3.5205 l -0.0133,-0.1148 c -0.3412,-1.5928 -0.3627,-3.2857 0.3007,-4.5548 l 0.0544,-0.0902 c -0.2557,-0.8748 7e-4,-1.9126 0.5609,-2.2721 l -0.0523,-0.054 c 0.3097,0.2331 0.3097,0.8948 0,1.1272 l -0.0339,0.0841 c 0.0598,0.5469 0.0718,1.1059 0.0356,1.6589 l 0.0287,0.008 c -0.4474,1.5212 -0.1644,2.7436 0.0776,4.0004 l 0.0584,0.0875 c 0.4557,0.9813 0.333,3.998 -0.0875,5.0166"
           inkscape:connector-curvature="0" />
        <path
           id="path26207"
           style="fill:none;stroke:#231f20;stroke-width:0.52499998;stroke-linecap:butt;stroke-linejoin:miter;stroke-miterlimit:4;stroke-opacity:1;stroke-dasharray:none"
           d="m 152.2574,149.4762 0.2301,22.2047 0.9013,0.0964 -0.6296,0.9447 -0.7468,0.3445 -26.4606,4.4099 -94.8144,-14.4901 -0.9454,-1.575 0.6037,-0.2224 0.0265,-0.0928 0,-6.2644 0.3895,-0.1602 -0.0407,-0.5848 -0.3722,0.1439 -0.0581,-17.3545 -0.1459,-0.1166 c -0.7875,-1.1959 -0.9041,-2.1 -0.2916,-4.0835 l 0.039,-0.2122 c 0.0957,-0.9608 0.1569,-2.8547 0.0212,-3.7652 -0.2297,-1.3761 -0.2297,-2.8797 7e-4,-4.2554 l 0.0113,0.0789 c -0.2458,-0.4921 -0.2458,-1.2892 3e-4,-1.7814 l 0.0253,0.0509 c 0.2317,7e-4 0.6897,0.5513 0.6897,1.1929 l -0.0089,0.0865 c -0.0895,1.0838 -0.2826,2.2408 -0.137,3.2969 l 0.0318,0.1043 c 0.3066,1.105 0.6107,3.1264 0.3766,4.2998 -0.2042,1.1666 0.0875,3.675 0.875,4.2875 l 20.5333,-12.746 c -0.4083,-1.5456 -0.3107,-3.4213 0.0292,-4.4331 l 0.0318,-0.0594 c 0.4389,-1.2787 0.6212,-3.4946 0.5159,-4.9913 l -0.0227,-0.2286 c -0.115,-1.5611 0.1226,-2.9317 0.5158,-4.3658 l -0.0754,0.1244 c -0.9262,-0.4187 -0.7256,-2.4657 0.2418,-2.4668 l -0.0063,0.0376 c 0.6527,0.2458 0.8448,1.6782 0.3449,2.354 l 0.0429,-0.0588 c 0.3027,1.3388 0.4578,2.7525 0.4585,4.1771 l 0.007,7e-4 c -0.0451,1.3525 0.1316,3.3995 0.5124,4.6019 l -0.0304,-0.1422 c 0.1955,1.4691 0.5263,3.4963 0.1179,5.1588 l 95.3751,26.0458 0.5493,-1.2015 c 0.3879,-0.7447 0.5551,-2.4998 0.4464,-3.5205 l -0.0133,-0.1148 c -0.3412,-1.5928 -0.3627,-3.2857 0.3007,-4.5548 l 0.0544,-0.0902 c -0.2557,-0.8748 7e-4,-1.9126 0.5609,-2.2721 l -0.0523,-0.054 c 0.3097,0.2331 0.3097,0.8948 0,1.1272 l -0.0339,0.0841 c 0.0598,0.5469 0.0718,1.1059 0.0356,1.6589 l 0.0287,0.008 c -0.4474,1.5212 -0.1644,2.7436 0.0776,4.0004 l 0.0584,0.0875 c 0.4557,0.9813 0.333,3.998 -0.0875,5.0166 l -0.0875,0.2334 z"
           inkscape:connector-curvature="0" />
        <path
           id="path26209"
           style="fill:#d9d9d9;fill-opacity:1;fill-rule:evenodd;stroke:none"
           d="m 52.5073,123.2554 1.05,-0.5834"
           inkscape:connector-curvature="0" />
        <path
           id="path26211"
           style="fill:none;stroke:#231f20;stroke-width:0.34999999;stroke-linecap:butt;stroke-linejoin:miter;stroke-miterlimit:4;stroke-opacity:1;stroke-dasharray:none"
           d="m 52.5073,123.2554 1.05,-0.5834"
           inkscape:connector-curvature="0" />
        <path
           id="path26213"
           style="fill:#d9d9d9;fill-opacity:1;fill-rule:evenodd;stroke:none"
           d="m 53.5573,122.672 1.4875,0.35"
           inkscape:connector-curvature="0" />
        <path
           id="path26215"
           style="fill:none;stroke:#231f20;stroke-width:0.34999999;stroke-linecap:butt;stroke-linejoin:miter;stroke-miterlimit:4;stroke-opacity:1;stroke-dasharray:none"
           d="m 53.5573,122.672 1.4875,0.35"
           inkscape:connector-curvature="0" />
        <path
           id="path26217"
           style="fill:#d9d9d9;fill-opacity:1;fill-rule:evenodd;stroke:none"
           d="m 30.4573,136.9054 1.3709,-0.8459"
           inkscape:connector-curvature="0" />
        <path
           id="path26219"
           style="fill:none;stroke:#231f20;stroke-width:0.34999999;stroke-linecap:butt;stroke-linejoin:miter;stroke-miterlimit:4;stroke-opacity:1;stroke-dasharray:none"
           d="m 30.4573,136.9054 1.3709,-0.8459"
           inkscape:connector-curvature="0" />
        <path
           id="path26221"
           style="fill:#e6e6e6;fill-opacity:1;fill-rule:evenodd;stroke:none"
           d="m 53.5339,145.0023 -22.4932,9.578"
           inkscape:connector-curvature="0" />
        <path
           id="path26223"
           style="fill:none;stroke:#231f20;stroke-width:0.34999999;stroke-linecap:butt;stroke-linejoin:miter;stroke-miterlimit:4;stroke-opacity:1;stroke-dasharray:none"
           d="m 53.5339,145.0023 -22.4932,9.578"
           inkscape:connector-curvature="0" />
        <path
           id="path26225"
           style="fill:none;stroke:#231f20;stroke-width:0.34999999;stroke-linecap:butt;stroke-linejoin:miter;stroke-miterlimit:4;stroke-opacity:1;stroke-dasharray:none"
           d="M 53.849,154.7667 30.9823,162.922"
           inkscape:connector-curvature="0" />
        <path
           id="path26227"
           style="fill:none;stroke:#231f20;stroke-width:0.34999999;stroke-linecap:butt;stroke-linejoin:miter;stroke-miterlimit:4;stroke-opacity:1;stroke-dasharray:none"
           d="m 53.5573,124.1885 -0.0234,28.3736"
           inkscape:connector-curvature="0" />
        <path
           id="path26229"
           style="fill:none;stroke:#231f20;stroke-width:0.20999999;stroke-linecap:butt;stroke-linejoin:miter;stroke-miterlimit:4;stroke-opacity:1;stroke-dasharray:none"
           d="m 130.7905,145.1887 0.2335,22.178"
           inkscape:connector-curvature="0" />
        <path
           id="path26231"
           style="fill:none;stroke:#231f20;stroke-width:0.34999999;stroke-linecap:butt;stroke-linejoin:miter;stroke-miterlimit:4;stroke-opacity:1;stroke-dasharray:none"
           d="m 53.849,154.7667 98.2803,18.2704"
           inkscape:connector-curvature="0" />
        <path
           id="path26233"
           style="fill:none;stroke:#231f20;stroke-width:0.20999999;stroke-linecap:butt;stroke-linejoin:miter;stroke-miterlimit:4;stroke-opacity:1;stroke-dasharray:none"
           d="M 53.5339,123.6403 30.574,137.5466"
           inkscape:connector-curvature="0" />
        <path
           id="path26235"
           style="fill:none;stroke:#231f20;stroke-width:0.20999999;stroke-linecap:butt;stroke-linejoin:miter;stroke-miterlimit:4;stroke-opacity:1;stroke-dasharray:none"
           d="m 53.5339,123.6403 98.7235,26.8275"
           inkscape:connector-curvature="0" />
        <path
           id="path26237"
           style="fill:none;stroke:#231f20;stroke-width:0.20999999;stroke-linecap:butt;stroke-linejoin:miter;stroke-miterlimit:4;stroke-opacity:1;stroke-dasharray:none"
           d="m 54.024,124.5386 0.1401,28.0235"
           inkscape:connector-curvature="0" />
        <path
           id="path26239"
           style="fill:none;stroke:#231f20;stroke-width:0.20999999;stroke-linecap:butt;stroke-linejoin:miter;stroke-miterlimit:4;stroke-opacity:1;stroke-dasharray:none"
           d="M 79.0141,157.2871 78.874,131.3054"
           inkscape:connector-curvature="0" />
        <path
           id="path26241"
           style="fill:none;stroke:#231f20;stroke-width:0.34999999;stroke-linecap:butt;stroke-linejoin:miter;stroke-miterlimit:4;stroke-opacity:1;stroke-dasharray:none"
           d="m 151.7793,171.4621 0,-20.3"
           inkscape:connector-curvature="0" />
        <path
           id="path26243"
           style="fill:none;stroke:#231f20;stroke-width:0.34999999;stroke-linecap:butt;stroke-linejoin:miter;stroke-miterlimit:4;stroke-opacity:1;stroke-dasharray:none"
           d="m 53.849,152.5621 98.4812,19.1099"
           inkscape:connector-curvature="0" />
        <path
           id="path26245"
           style="fill:none;stroke:#231f20;stroke-width:0.34999999;stroke-linecap:butt;stroke-linejoin:miter;stroke-miterlimit:4;stroke-opacity:1;stroke-dasharray:none"
           d="m 53.849,154.7667 0,-2.2046"
           inkscape:connector-curvature="0" />
        <path
           id="path26247"
           style="fill:none;stroke:#231f20;stroke-width:0.20999999;stroke-linecap:butt;stroke-linejoin:miter;stroke-miterlimit:4;stroke-opacity:1;stroke-dasharray:none"
           d="m 53.849,154.1371 98.9102,18.5849"
           inkscape:connector-curvature="0" />
        <path
           id="path26249"
           style="fill:none;stroke:#231f20;stroke-width:0.20999999;stroke-linecap:butt;stroke-linejoin:miter;stroke-miterlimit:4;stroke-opacity:1;stroke-dasharray:none"
           d="m 53.849,154.1371 -22.9833,8.3182"
           inkscape:connector-curvature="0" />
        <path
           id="path26251"
           style="fill:none;stroke:#231f20;stroke-width:0.34999999;stroke-linecap:butt;stroke-linejoin:miter;stroke-miterlimit:4;stroke-opacity:1;stroke-dasharray:none"
           d="m 152.1293,173.0371 0.6299,-0.3151"
           inkscape:connector-curvature="0" />
        <path
           id="path26253"
           style="fill:none;stroke:#231f20;stroke-width:0.34999999;stroke-linecap:butt;stroke-linejoin:miter;stroke-miterlimit:4;stroke-opacity:1;stroke-dasharray:none"
           d="m 54.4793,152.5621 0,-5.9848"
           inkscape:connector-curvature="0" />
        <path
           id="path26255"
           style="fill:none;stroke:#231f20;stroke-width:0.34999999;stroke-linecap:butt;stroke-linejoin:miter;stroke-miterlimit:4;stroke-opacity:1;stroke-dasharray:none"
           d="m 131.6802,162.747 20.1336,4.3053"
           inkscape:connector-curvature="0" />
        <path
           id="path26257"
           style="fill:none;stroke:#231f20;stroke-width:0.34999999;stroke-linecap:butt;stroke-linejoin:miter;stroke-miterlimit:4;stroke-opacity:1;stroke-dasharray:none"
           d="m 54.4793,146.5773 0,-11.025"
           inkscape:connector-curvature="0" />
        <path
           id="path26259"
           style="fill:none;stroke:#231f20;stroke-width:0.34999999;stroke-linecap:butt;stroke-linejoin:miter;stroke-miterlimit:4;stroke-opacity:1;stroke-dasharray:none"
           d="m 54.4793,135.2368 0,-10.7095"
           inkscape:connector-curvature="0" />
        <path
           id="path26261"
           style="fill:none;stroke:#231f20;stroke-width:0.34999999;stroke-linecap:butt;stroke-linejoin:miter;stroke-miterlimit:4;stroke-opacity:1;stroke-dasharray:none"
           d="m 54.5668,146.3148 23.9394,5.0394"
           inkscape:connector-curvature="0" />
        <path
           id="path26263"
           style="fill:none;stroke:#231f20;stroke-width:0.34999999;stroke-linecap:butt;stroke-linejoin:miter;stroke-miterlimit:4;stroke-opacity:1;stroke-dasharray:none"
           d="m 131.6543,154.1371 20.1595,5.0402"
           inkscape:connector-curvature="0" />
        <path
           id="path26265"
           style="fill:none;stroke:#231f20;stroke-width:0.34999999;stroke-linecap:butt;stroke-linejoin:miter;stroke-miterlimit:4;stroke-opacity:1;stroke-dasharray:none"
           d="m 54.4793,135.2368 24.0447,5.7227"
           inkscape:connector-curvature="0" />
        <path
           id="path26267"
           style="fill:none;stroke:#231f20;stroke-width:0.34999999;stroke-linecap:butt;stroke-linejoin:miter;stroke-miterlimit:4;stroke-opacity:1;stroke-dasharray:none"
           d="m 54.4793,124.5273 77.1572,20.9822"
           inkscape:connector-curvature="0" />
        <path
           id="path26269"
           style="fill:none;stroke:#231f20;stroke-width:0.34999999;stroke-linecap:butt;stroke-linejoin:miter;stroke-miterlimit:4;stroke-opacity:1;stroke-dasharray:none"
           d="m 131.6365,145.5095 20.1773,5.4776"
           inkscape:connector-curvature="0" />
        <path
           id="path26271"
           style="fill:none;stroke:#231f20;stroke-width:0.34999999;stroke-linecap:butt;stroke-linejoin:miter;stroke-miterlimit:4;stroke-opacity:1;stroke-dasharray:none"
           d="m 78.4187,157.2871 0,-5.6704"
           inkscape:connector-curvature="0" />
        <path
           id="path26273"
           style="fill:none;stroke:#231f20;stroke-width:0.34999999;stroke-linecap:butt;stroke-linejoin:miter;stroke-miterlimit:4;stroke-opacity:1;stroke-dasharray:none"
           d="m 78.4187,151.6167 0,-10.3947"
           inkscape:connector-curvature="0" />
        <path
           id="path26275"
           style="fill:none;stroke:#231f20;stroke-width:0.34999999;stroke-linecap:butt;stroke-linejoin:miter;stroke-miterlimit:4;stroke-opacity:1;stroke-dasharray:none"
           d="m 78.4187,141.222 0,-10.0803"
           inkscape:connector-curvature="0" />
        <path
           id="path26277"
           style="fill:none;stroke:#231f20;stroke-width:0.34999999;stroke-linecap:butt;stroke-linejoin:miter;stroke-miterlimit:4;stroke-opacity:1;stroke-dasharray:none"
           d="m 131.6543,167.6819 -0.0178,-22.1724"
           inkscape:connector-curvature="0" />
        <path
           id="path26279"
           style="fill:none;stroke:#231f20;stroke-width:0.20999999;stroke-linecap:butt;stroke-linejoin:miter;stroke-miterlimit:4;stroke-opacity:1;stroke-dasharray:none"
           d="m 53.4754,144.4537 -22.5222,9.485"
           inkscape:connector-curvature="0" />
        <path
           id="path26281"
           style="fill:none;stroke:#231f20;stroke-width:0.34999999;stroke-linecap:butt;stroke-linejoin:miter;stroke-miterlimit:4;stroke-opacity:1;stroke-dasharray:none"
           d="m 64.5589,152.5621 c 0,0.3152 0,0.3152 0,0 0,-0.3151 0,-0.3151 0,0 z"
           inkscape:connector-curvature="0" />
        <path
           id="path26283"
           style="fill:none;stroke:#231f20;stroke-width:0.34999999;stroke-linecap:butt;stroke-linejoin:miter;stroke-miterlimit:4;stroke-opacity:1;stroke-dasharray:none"
           d="m 68.6543,153.5069 c 0,0.3151 0,0.3151 0,0 0,-0.3152 0,-0.3152 0,0 z"
           inkscape:connector-curvature="0" />
        <path
           id="path26285"
           style="fill:none;stroke:#231f20;stroke-width:0.34999999;stroke-linecap:butt;stroke-linejoin:miter;stroke-miterlimit:4;stroke-opacity:1;stroke-dasharray:none"
           d="m 64.7896,152.4777 c 1.2489,-0.955 3.192,-0.6135 3.9224,0.6894"
           inkscape:connector-curvature="0" />
        <path
           id="path26287"
           style="fill:none;stroke:#231f20;stroke-width:0.34999999;stroke-linecap:butt;stroke-linejoin:miter;stroke-miterlimit:4;stroke-opacity:1;stroke-dasharray:none"
           d="m 64.5589,146.2621 c 0,0.3152 0,0.3152 0,0 0,-0.3151 0,-0.3151 0,0 z"
           inkscape:connector-curvature="0" />
        <path
           id="path26289"
           style="fill:none;stroke:#231f20;stroke-width:0.34999999;stroke-linecap:butt;stroke-linejoin:miter;stroke-miterlimit:4;stroke-opacity:1;stroke-dasharray:none"
           d="m 68.6543,146.8917 c 0,0.3152 0,0.3152 0,0 0,-0.3144 0,-0.3144 0,0 z"
           inkscape:connector-curvature="0" />
        <path
           id="path26291"
           style="fill:none;stroke:#231f20;stroke-width:0.34999999;stroke-linecap:butt;stroke-linejoin:miter;stroke-miterlimit:4;stroke-opacity:1;stroke-dasharray:none"
           d="m 64.7896,145.8626 c 1.361,-1.0405 3.4925,-0.5281 4.055,0.9751"
           inkscape:connector-curvature="0" />
        <path
           id="path26293"
           style="fill:none;stroke:#231f20;stroke-width:0.34999999;stroke-linecap:butt;stroke-linejoin:miter;stroke-miterlimit:4;stroke-opacity:1;stroke-dasharray:none"
           d="m 64.5589,134.922 c 0,0.3148 0,0.3148 0,0 0,-0.3148 0,-0.3148 0,0 z"
           inkscape:connector-curvature="0" />
        <path
           id="path26295"
           style="fill:none;stroke:#231f20;stroke-width:0.34999999;stroke-linecap:butt;stroke-linejoin:miter;stroke-miterlimit:4;stroke-opacity:1;stroke-dasharray:none"
           d="m 68.6543,135.8667 c 0,0.3155 0,0.3155 0,0 0,-0.3144 0,-0.3144 0,0 z"
           inkscape:connector-curvature="0" />
        <path
           id="path26297"
           style="fill:none;stroke:#231f20;stroke-width:0.34999999;stroke-linecap:butt;stroke-linejoin:miter;stroke-miterlimit:4;stroke-opacity:1;stroke-dasharray:none"
           d="m 64.5893,134.6937 c 1.3033,-1.2452 3.6548,-0.8005 4.2553,0.8036"
           inkscape:connector-curvature="0" />
        <path
           id="path26299"
           style="fill:none;stroke:#231f20;stroke-width:0.34999999;stroke-linecap:butt;stroke-linejoin:miter;stroke-miterlimit:4;stroke-opacity:1;stroke-dasharray:none"
           d="m 139.8437,167.6819 c -0.3144,0.3151 -0.3144,0.3151 -0.3144,0 0,-0.3152 0,-0.3152 0,0 l 0.3144,0 z"
           inkscape:connector-curvature="0" />
        <path
           id="path26301"
           style="fill:none;stroke:#231f20;stroke-width:0.34999999;stroke-linecap:butt;stroke-linejoin:miter;stroke-miterlimit:4;stroke-opacity:1;stroke-dasharray:none"
           d="m 143.624,168.3121 c -0.3148,0.3152 -0.3148,0.3152 -0.3148,0 0,-0.3151 0,-0.3151 0,0 l 0.3148,0 z"
           inkscape:connector-curvature="0" />
        <path
           id="path26303"
           style="fill:none;stroke:#231f20;stroke-width:0.34999999;stroke-linecap:butt;stroke-linejoin:miter;stroke-miterlimit:4;stroke-opacity:1;stroke-dasharray:none"
           d="m 139.7265,167.2205 c 1.2305,-0.9834 3.0639,-0.3982 3.4976,1.1156"
           inkscape:connector-curvature="0" />
        <path
           id="path26305"
           style="fill:none;stroke:#231f20;stroke-width:0.34999999;stroke-linecap:butt;stroke-linejoin:miter;stroke-miterlimit:4;stroke-opacity:1;stroke-dasharray:none"
           d="m 139.5293,162.3273 c 0,0.3144 0,0.3144 0,0 0,-0.3152 0,-0.3152 0,0 z"
           inkscape:connector-curvature="0" />
        <path
           id="path26307"
           style="fill:none;stroke:#231f20;stroke-width:0.34999999;stroke-linecap:butt;stroke-linejoin:miter;stroke-miterlimit:4;stroke-opacity:1;stroke-dasharray:none"
           d="m 143.624,163.272 c -0.3148,0.3151 -0.3148,0.3151 -0.3148,0 0,-0.3151 0,-0.3151 0,0 l 0.3148,0 z"
           inkscape:connector-curvature="0" />
        <path
           id="path26309"
           style="fill:none;stroke:#231f20;stroke-width:0.34999999;stroke-linecap:butt;stroke-linejoin:miter;stroke-miterlimit:4;stroke-opacity:1;stroke-dasharray:none"
           d="m 139.545,162.0278 c 1.1901,-1.1877 3.2163,-0.6627 3.6791,0.9537"
           inkscape:connector-curvature="0" />
        <path
           id="path26311"
           style="fill:none;stroke:#231f20;stroke-width:0.34999999;stroke-linecap:butt;stroke-linejoin:miter;stroke-miterlimit:4;stroke-opacity:1;stroke-dasharray:none"
           d="m 139.5293,153.822 c 0,0.3151 0,0.3151 0,0 0,-0.3151 0,-0.3151 0,0 z"
           inkscape:connector-curvature="0" />
        <path
           id="path26313"
           style="fill:none;stroke:#231f20;stroke-width:0.34999999;stroke-linecap:butt;stroke-linejoin:miter;stroke-miterlimit:4;stroke-opacity:1;stroke-dasharray:none"
           d="m 143.3092,154.4523 c 0,0.3144 0,0.3144 0,0 0,-0.3152 0,-0.3152 0,0 z"
           inkscape:connector-curvature="0" />
        <path
           id="path26315"
           style="fill:none;stroke:#231f20;stroke-width:0.34999999;stroke-linecap:butt;stroke-linejoin:miter;stroke-miterlimit:4;stroke-opacity:1;stroke-dasharray:none"
           d="m 139.545,153.5229 c 1.1901,-1.188 3.2163,-0.6631 3.6791,0.9533"
           inkscape:connector-curvature="0" />
        <path
           id="path26317"
           style="fill:#e6e6e6;fill-opacity:1;fill-rule:evenodd;stroke:none"
           d="M 30.5126,161.1595 53.849,152.5621"
           inkscape:connector-curvature="0" />
        <path
           id="path26319"
           style="fill:none;stroke:#231f20;stroke-width:0.34999999;stroke-linecap:butt;stroke-linejoin:miter;stroke-miterlimit:4;stroke-opacity:1;stroke-dasharray:none"
           d="M 30.5126,161.1595 53.849,152.5621"
           inkscape:connector-curvature="0" />
        <path
           id="path26321"
           style="fill:none;stroke:#231f20;stroke-width:0.34999999;stroke-linecap:butt;stroke-linejoin:miter;stroke-miterlimit:4;stroke-opacity:1;stroke-dasharray:none"
           d="M 107.399,162.9569 107.3405,138.772"
           inkscape:connector-curvature="0" />
        <path
           id="path26323"
           style="fill:none;stroke:#231f20;stroke-width:0.20999999;stroke-linecap:butt;stroke-linejoin:miter;stroke-miterlimit:4;stroke-opacity:1;stroke-dasharray:none"
           d="m 105.1937,160.122 c -0.3144,0.6303 -0.9447,0.6303 -0.9447,0 0,-0.6303 0.6303,-0.6303 0.6303,0 l 0.3144,0 z"
           inkscape:connector-curvature="0" />
        <path
           id="path26325"
           style="fill:none;stroke:#231f20;stroke-width:0.20999999;stroke-linecap:butt;stroke-linejoin:miter;stroke-miterlimit:4;stroke-opacity:1;stroke-dasharray:none"
           d="m 109.9187,161.0667 c -0.3144,0.6303 -0.9447,0.6303 -0.9447,0 0,-0.6296 0.6303,-0.6296 0.6303,0 l 0.3144,0 z"
           inkscape:connector-curvature="0" />
        <path
           id="path26327"
           style="fill:none;stroke:#231f20;stroke-width:0.34999999;stroke-linecap:butt;stroke-linejoin:miter;stroke-miterlimit:4;stroke-opacity:1;stroke-dasharray:none"
           d="m 150.4199,149.0678 1.75,0.4959"
           inkscape:connector-curvature="0" />
      </g>
    </g>
  </g>
</svg>
