<?xml version="1.0" encoding="UTF-8" standalone="no"?>
<!-- Created with Inkscape (http://www.inkscape.org/) -->

<svg
   xmlns:dc="http://purl.org/dc/elements/1.1/"
   xmlns:cc="http://creativecommons.org/ns#"
   xmlns:rdf="http://www.w3.org/1999/02/22-rdf-syntax-ns#"
   xmlns:svg="http://www.w3.org/2000/svg"
   xmlns="http://www.w3.org/2000/svg"
   xmlns:sodipodi="http://sodipodi.sourceforge.net/DTD/sodipodi-0.dtd"
   xmlns:inkscape="http://www.inkscape.org/namespaces/inkscape"
   width="165.65187"
   height="97.963501"
   id="svg8357"
   version="1.1"
   inkscape:version="0.48.4 r9939"
   sodipodi:docname="10.svg">
  <defs
     id="defs8359">
    <clipPath
       clipPathUnits="userSpaceOnUse"
       id="clipPath15530">
      <path
         inkscape:connector-curvature="0"
         d="m 54,455.8 201.6,0 0,201.2 -201.6,0 0,-201.2 z"
         id="path15532" />
    </clipPath>
    <clipPath
       clipPathUnits="userSpaceOnUse"
       id="clipPath14168">
      <path
         inkscape:connector-curvature="0"
         d="m 54,264.4 201.6,0 0,221.6 -201.6,0 0,-221.6 z"
         id="path14170" />
    </clipPath>
    <clipPath
       clipPathUnits="userSpaceOnUse"
       id="clipPath13416">
      <path
         inkscape:connector-curvature="0"
         d="m 54,80 201.6,0 0,202.7 L 54,282.7 54,80 z"
         id="path13418" />
    </clipPath>
    <clipPath
       clipPathUnits="userSpaceOnUse"
       id="clipPath13416-4">
      <path
         d="m 54,80 201.6,0 0,202.7 L 54,282.7 54,80 z"
         id="path13418-5"
         inkscape:connector-curvature="0" />
    </clipPath>
    <clipPath
       clipPathUnits="userSpaceOnUse"
       id="clipPath14168-8">
      <path
         d="m 54,264.4 201.6,0 0,221.6 -201.6,0 0,-221.6 z"
         id="path14170-2"
         inkscape:connector-curvature="0" />
    </clipPath>
    <clipPath
       clipPathUnits="userSpaceOnUse"
       id="clipPath15530-4">
      <path
         d="m 54,455.8 201.6,0 0,201.2 -201.6,0 0,-201.2 z"
         id="path15532-8"
         inkscape:connector-curvature="0" />
    </clipPath>
    <clipPath
       clipPathUnits="userSpaceOnUse"
       id="clipPath3129">
      <path
         d="m 58.5,774 28.95,0 C 93.8289,774 99,768.8289 99,762.45 l 0,-57.9 C 99,698.1711 93.8289,693 87.45,693 l -57.9,0 C 23.1711,693 18,698.1711 18,704.55 l 0,57.9 c 0,6.3789 5.1711,11.55 11.55,11.55"
         clip-rule="evenodd"
         id="path3131"
         inkscape:connector-curvature="0" />
    </clipPath>
    <clipPath
       clipPathUnits="userSpaceOnUse"
       id="clipPath3143">
      <path
         d="m 18,80 144,0 0,166.6 -144,0 L 18,80 z"
         id="path3145"
         inkscape:connector-curvature="0" />
    </clipPath>
    <clipPath
       clipPathUnits="userSpaceOnUse"
       id="clipPath4225">
      <path
         d="m 18,226.8 144,0 0,159.6 -144,0 0,-159.6 z"
         id="path4227"
         inkscape:connector-curvature="0" />
    </clipPath>
    <clipPath
       clipPathUnits="userSpaceOnUse"
       id="clipPath5141">
      <path
         d="m 18,360 144,0 0,160.7 -144,0 0,-160.7 z"
         id="path5143"
         inkscape:connector-curvature="0" />
    </clipPath>
    <clipPath
       clipPathUnits="userSpaceOnUse"
       id="clipPath5911">
      <path
         d="m 18,504 144,0 0,153 -144,0 0,-153 z"
         id="path5913"
         inkscape:connector-curvature="0" />
    </clipPath>
    <clipPath
       clipPathUnits="userSpaceOnUse"
       id="clipPath6873">
      <path
         d="m 58.5,773.5 28.7,0 c 6.2408,0 11.3,-5.0592 11.3,-11.3 l 0,-57.4 c 0,-6.2408 -5.0592,-11.3 -11.3,-11.3 l -57.4,0 c -6.2408,0 -11.3,5.0592 -11.3,11.3 l 0,57.4 c 0,6.2408 5.0592,11.3 11.3,11.3"
         clip-rule="evenodd"
         id="path6875"
         inkscape:connector-curvature="0" />
    </clipPath>
    <clipPath
       clipPathUnits="userSpaceOnUse"
       id="clipPath6897">
      <path
         d="m 58.5,774 28.7,0 c 6.517,0 11.8,-5.283 11.8,-11.8 l 0,-57.4 C 99,698.283 93.717,693 87.2,693 l -57.4,0 C 23.283,693 18,698.283 18,704.8 l 0,57.4 c 0,6.517 5.283,11.8 11.8,11.8"
         clip-rule="evenodd"
         id="path6899"
         inkscape:connector-curvature="0" />
    </clipPath>
    <clipPath
       clipPathUnits="userSpaceOnUse"
       id="clipPath15530-4-1">
      <path
         inkscape:connector-curvature="0"
         d="m 54,455.8 201.6,0 0,201.2 -201.6,0 0,-201.2 z"
         id="path15532-8-5" />
    </clipPath>
    <clipPath
       clipPathUnits="userSpaceOnUse"
       id="clipPath22509">
      <path
         inkscape:connector-curvature="0"
         d="m 18,571.104 144,0 0,85.896 -144,0 0,-85.896 z"
         id="path22511" />
    </clipPath>
    <clipPath
       clipPathUnits="userSpaceOnUse"
       id="clipPath22509-6">
      <path
         inkscape:connector-curvature="0"
         d="m 18,571.104 144,0 0,85.896 -144,0 0,-85.896 z"
         id="path22511-0" />
    </clipPath>
    <clipPath
       clipPathUnits="userSpaceOnUse"
       id="clipPath24435">
      <path
         d="m 196.992,401.6 84.024,0 0,41.2 -84.024,0 0,-41.2 z"
         id="path24437"
         inkscape:connector-curvature="0" />
    </clipPath>
    <clipPath
       clipPathUnits="userSpaceOnUse"
       id="clipPath24455">
      <path
         d="m 197,460.003 84.024,0 0,57.88 -84.024,0 0,-57.88 z"
         id="path24457"
         inkscape:connector-curvature="0" />
    </clipPath>
    <clipPath
       clipPathUnits="userSpaceOnUse"
       id="clipPath24475">
      <path
         d="m 197,527.6 84.024,0 0,36 -84.024,0 0,-36 z"
         id="path24477"
         inkscape:connector-curvature="0" />
    </clipPath>
    <clipPath
       clipPathUnits="userSpaceOnUse"
       id="clipPath24569">
      <path
         d="m 54,571.106 144,0 0,85.896 -144,0 0,-85.896 z"
         id="path24571"
         inkscape:connector-curvature="0" />
    </clipPath>
    <clipPath
       clipPathUnits="userSpaceOnUse"
       id="clipPath24787">
      <path
         d="m 196.992,341.68 84.024,0 0,43 -84.024,0 0,-43 z"
         id="path24789"
         inkscape:connector-curvature="0" />
    </clipPath>
    <clipPath
       clipPathUnits="userSpaceOnUse"
       id="clipPath24807">
      <path
         d="m 196.992,284.2 84.024,0 0,37.28 -84.024,0 0,-37.28 z"
         id="path24809"
         inkscape:connector-curvature="0" />
    </clipPath>
    <clipPath
       clipPathUnits="userSpaceOnUse"
       id="clipPath24827">
      <path
         d="m 196.992,216.48 84.024,0 0,48 -84.024,0 0,-48 z"
         id="path24829"
         inkscape:connector-curvature="0" />
    </clipPath>
    <clipPath
       clipPathUnits="userSpaceOnUse"
       id="clipPath24847">
      <path
         d="m 196.992,156.48 84.024,0 0,48 -84.024,0 0,-48 z"
         id="path24849"
         inkscape:connector-curvature="0" />
    </clipPath>
    <clipPath
       clipPathUnits="userSpaceOnUse"
       id="clipPath22337">
      <path
         d="m 58.5,773.625 28.95,0 c 6.1718,0 11.175,-5.0032 11.175,-11.175 l 0,-57.9 c 0,-6.1718 -5.0032,-11.175 -11.175,-11.175 l -57.9,0 c -6.1718,0 -11.175,5.0032 -11.175,11.175 l 0,57.9 c 0,6.1718 5.0032,11.175 11.175,11.175"
         clip-rule="evenodd"
         id="path22339"
         inkscape:connector-curvature="0" />
    </clipPath>
    <clipPath
       clipPathUnits="userSpaceOnUse"
       id="clipPath22361">
      <path
         d="m 58.5,774 28.95,0 C 93.8289,774 99,768.8289 99,762.45 l 0,-57.9 C 99,698.1711 93.8289,693 87.45,693 l -57.9,0 C 23.1711,693 18,698.1711 18,704.55 l 0,57.9 c 0,6.3789 5.1711,11.55 11.55,11.55"
         clip-rule="evenodd"
         id="path22363"
         inkscape:connector-curvature="0" />
    </clipPath>
    <clipPath
       clipPathUnits="userSpaceOnUse"
       id="clipPath22375">
      <path
         d="m 160.992,428.4 84.024,0 0,40.913 -84.024,0 0,-40.913 z"
         id="path22377"
         inkscape:connector-curvature="0" />
    </clipPath>
    <clipPath
       clipPathUnits="userSpaceOnUse"
       id="clipPath22395">
      <path
         d="m 161,474.21 84.024,0 0,53.686 -84.024,0 0,-53.686 z"
         id="path22397"
         inkscape:connector-curvature="0" />
    </clipPath>
    <clipPath
       clipPathUnits="userSpaceOnUse"
       id="clipPath22415">
      <path
         d="m 161,528.2 84.024,0 0,39.4 -84.024,0 0,-39.4 z"
         id="path22417"
         inkscape:connector-curvature="0" />
    </clipPath>
    <clipPath
       clipPathUnits="userSpaceOnUse"
       id="clipPath22509-1">
      <path
         d="m 18,571.104 144,0 0,85.896 -144,0 0,-85.896 z"
         id="path22511-6"
         inkscape:connector-curvature="0" />
    </clipPath>
    <clipPath
       clipPathUnits="userSpaceOnUse"
       id="clipPath22733">
      <path
         d="m 58.5,773.5 28.7,0 c 6.2408,0 11.3,-5.0592 11.3,-11.3 l 0,-57.4 c 0,-6.2408 -5.0592,-11.3 -11.3,-11.3 l -57.4,0 c -6.2408,0 -11.3,5.0592 -11.3,11.3 l 0,57.4 c 0,6.2408 5.0592,11.3 11.3,11.3"
         clip-rule="evenodd"
         id="path22735"
         inkscape:connector-curvature="0" />
    </clipPath>
    <clipPath
       clipPathUnits="userSpaceOnUse"
       id="clipPath22757">
      <path
         d="m 58.5,774 28.7,0 c 6.517,0 11.8,-5.283 11.8,-11.8 l 0,-57.4 C 99,698.283 93.717,693 87.2,693 l -57.4,0 C 23.283,693 18,698.283 18,704.8 l 0,57.4 c 0,6.517 5.283,11.8 11.8,11.8"
         clip-rule="evenodd"
         id="path22759"
         inkscape:connector-curvature="0" />
    </clipPath>
    <clipPath
       clipPathUnits="userSpaceOnUse"
       id="clipPath22771">
      <path
         d="m 160.992,347.8 84.024,0 0,44.88 -84.024,0 0,-44.88 z"
         id="path22773"
         inkscape:connector-curvature="0" />
    </clipPath>
    <clipPath
       clipPathUnits="userSpaceOnUse"
       id="clipPath22791">
      <path
         d="m 160.992,172.8 84.024,0 0,52.68 -84.024,0 0,-52.68 z"
         id="path22793"
         inkscape:connector-curvature="0" />
    </clipPath>
    <clipPath
       clipPathUnits="userSpaceOnUse"
       id="clipPath22811">
      <path
         d="m 160.992,118.8 84.024,0 0,46.81 -84.024,0 0,-46.81 z"
         id="path22813"
         inkscape:connector-curvature="0" />
    </clipPath>
    <clipPath
       clipPathUnits="userSpaceOnUse"
       id="clipPath22831">
      <path
         d="m 160.992,79.21 84.024,0 0,36.599 -84.024,0 0,-36.599 z"
         id="path22833"
         inkscape:connector-curvature="0" />
    </clipPath>
    <clipPath
       clipPathUnits="userSpaceOnUse"
       id="clipPath22847">
      <path
         d="m 160.992,390.832 84.024,0 0,37.568 -84.024,0 0,-37.568 z"
         id="path22849"
         inkscape:connector-curvature="0" />
    </clipPath>
    <clipPath
       clipPathUnits="userSpaceOnUse"
       id="clipPath22863">
      <path
         d="m 160.992,310.408 84.024,0 0,39.231 -84.024,0 0,-39.231 z"
         id="path22865"
         inkscape:connector-curvature="0" />
    </clipPath>
    <clipPath
       clipPathUnits="userSpaceOnUse"
       id="clipPath22879">
      <path
         d="m 160.992,268.6 84.024,0 0,37.68 -84.024,0 0,-37.68 z"
         id="path22881"
         inkscape:connector-curvature="0" />
    </clipPath>
    <clipPath
       clipPathUnits="userSpaceOnUse"
       id="clipPath22899">
      <path
         d="m 160.992,232.808 84.024,0 0,36.031 -84.024,0 0,-36.031 z"
         id="path22901"
         inkscape:connector-curvature="0" />
    </clipPath>
    <clipPath
       clipPathUnits="userSpaceOnUse"
       id="clipPath13416-2">
      <path
         d="m 54,80 201.6,0 0,202.7 L 54,282.7 54,80 z"
         id="path13418-0"
         inkscape:connector-curvature="0" />
    </clipPath>
    <clipPath
       clipPathUnits="userSpaceOnUse"
       id="clipPath14168-5">
      <path
         d="m 54,264.4 201.6,0 0,221.6 -201.6,0 0,-221.6 z"
         id="path14170-1"
         inkscape:connector-curvature="0" />
    </clipPath>
    <clipPath
       clipPathUnits="userSpaceOnUse"
       id="clipPath15530-8">
      <path
         d="m 54,455.8 201.6,0 0,201.2 -201.6,0 0,-201.2 z"
         id="path15532-3"
         inkscape:connector-curvature="0" />
    </clipPath>
    <clipPath
       clipPathUnits="userSpaceOnUse"
       id="clipPath3129-4">
      <path
         d="m 58.5,774 28.95,0 C 93.8289,774 99,768.8289 99,762.45 l 0,-57.9 C 99,698.1711 93.8289,693 87.45,693 l -57.9,0 C 23.1711,693 18,698.1711 18,704.55 l 0,57.9 c 0,6.3789 5.1711,11.55 11.55,11.55"
         clip-rule="evenodd"
         id="path3131-7"
         inkscape:connector-curvature="0" />
    </clipPath>
    <clipPath
       clipPathUnits="userSpaceOnUse"
       id="clipPath3143-0">
      <path
         d="m 18,80 144,0 0,166.6 -144,0 L 18,80 z"
         id="path3145-9"
         inkscape:connector-curvature="0" />
    </clipPath>
    <clipPath
       clipPathUnits="userSpaceOnUse"
       id="clipPath4225-2">
      <path
         d="m 18,226.8 144,0 0,159.6 -144,0 0,-159.6 z"
         id="path4227-5"
         inkscape:connector-curvature="0" />
    </clipPath>
    <clipPath
       clipPathUnits="userSpaceOnUse"
       id="clipPath5141-0">
      <path
         d="m 18,360 144,0 0,160.7 -144,0 0,-160.7 z"
         id="path5143-1"
         inkscape:connector-curvature="0" />
    </clipPath>
    <clipPath
       clipPathUnits="userSpaceOnUse"
       id="clipPath5911-3">
      <path
         d="m 18,504 144,0 0,153 -144,0 0,-153 z"
         id="path5913-8"
         inkscape:connector-curvature="0" />
    </clipPath>
    <clipPath
       clipPathUnits="userSpaceOnUse"
       id="clipPath6873-6">
      <path
         d="m 58.5,773.5 28.7,0 c 6.2408,0 11.3,-5.0592 11.3,-11.3 l 0,-57.4 c 0,-6.2408 -5.0592,-11.3 -11.3,-11.3 l -57.4,0 c -6.2408,0 -11.3,5.0592 -11.3,11.3 l 0,57.4 c 0,6.2408 5.0592,11.3 11.3,11.3"
         clip-rule="evenodd"
         id="path6875-0"
         inkscape:connector-curvature="0" />
    </clipPath>
    <clipPath
       clipPathUnits="userSpaceOnUse"
       id="clipPath6897-2">
      <path
         d="m 58.5,774 28.7,0 c 6.517,0 11.8,-5.283 11.8,-11.8 l 0,-57.4 C 99,698.283 93.717,693 87.2,693 l -57.4,0 C 23.283,693 18,698.283 18,704.8 l 0,57.4 c 0,6.517 5.283,11.8 11.8,11.8"
         clip-rule="evenodd"
         id="path6899-6"
         inkscape:connector-curvature="0" />
    </clipPath>
    <clipPath
       clipPathUnits="userSpaceOnUse"
       id="clipPath24569-8">
      <path
         inkscape:connector-curvature="0"
         d="m 54,571.106 144,0 0,85.896 -144,0 0,-85.896 z"
         id="path24571-9" />
    </clipPath>
    <clipPath
       clipPathUnits="userSpaceOnUse"
       id="clipPath26813">
      <path
         inkscape:connector-curvature="0"
         d="m 18,559.2 144,0 0,97.44 -144,0 0,-97.44 z"
         id="path26815" />
    </clipPath>
  </defs>
  <sodipodi:namedview
     id="base"
     pagecolor="#ffffff"
     bordercolor="#666666"
     borderopacity="1.0"
     inkscape:pageopacity="0.0"
     inkscape:pageshadow="2"
     inkscape:zoom="0.35"
     inkscape:cx="357.11165"
     inkscape:cy="-56.732538"
     inkscape:document-units="px"
     inkscape:current-layer="layer1"
     showgrid="false"
     inkscape:window-width="16"
     inkscape:window-height="747"
     inkscape:window-x="683"
     inkscape:window-y="0"
     inkscape:window-maximized="0" />
  <metadata
     id="metadata8362">
    <rdf:RDF>
      <cc:Work
         rdf:about="">
        <dc:format>image/svg+xml</dc:format>
        <dc:type
           rdf:resource="http://purl.org/dc/dcmitype/StillImage" />
        <dc:title />
      </cc:Work>
    </rdf:RDF>
  </metadata>
  <g
     inkscape:label="Layer 1"
     inkscape:groupmode="layer"
     id="layer1"
     transform="translate(-17.888351,-24.580405)">
    <g
       id="g26809"
       transform="matrix(1.25,0,0,-1.25,-12.336024,831.29853)">
      <g
         clip-path="url(#clipPath26813)"
         id="g26811">
        <path
           id="path26817"
           style="fill:#ffffff;fill-opacity:1;fill-rule:evenodd;stroke:none"
           d="m 155.0624,638.4565 -40.7634,6.6555 -88.9116,-12.7108 -0.9454,-1.5749 0.6037,-0.2224 0.0265,-0.0928 0,-6.6144 0.3895,-0.1602 -0.0406,-0.5848 -0.3723,0.144 0.0291,-27.9709 -0.3044,-0.26 c -0.551,-0.8467 -0.4033,-1.9087 0.3637,-2.6145 l -0.162,-0.1022 c 0.1292,-0.5817 0.1292,-1.2106 0,-1.793 l 0.0752,-0.0424 c -0.3904,-1.0186 -0.3904,-2.1455 7e-4,-3.1644 l -0.0175,0.0465 c -0.3684,-0.3698 -0.3681,-0.9672 3e-4,-1.3368 l 0.0383,0.0387 c 0.348,3e-4 0.6296,0.2817 0.6296,0.6299 l -0.162,0.009 c 0.2803,0.0356 0.4772,0.1611 0.4772,0.3056 l 0.0864,0.0164 c -0.1514,0.8094 -0.1022,1.6437 0.1426,2.4302 l -0.2393,0.0786 c 0.4136,0.7551 0.4334,1.6365 0.0537,2.4062 l 0.2974,0.1128 c -0.1118,0.6754 0.1493,1.3576 0.6832,1.7863 l 0.0846,0.1216 27.632,-15.6167 0.0412,-0.1145 c -0.3746,-0.8616 -0.3006,-1.967 0.126,-2.7517 l -0.0677,0.0974 c 0.5407,-0.9318 0.543,-1.829 0.4083,-2.9166 l -0.0258,-0.0756 c -0.122,-1.1795 0.1063,-2.3682 0.6597,-3.4299 l 0.0434,-0.1879 c -0.7773,-0.5196 -0.4102,-1.7305 0.5243,-1.7316 l -0.0161,0.0482 c 0.7462,0.2499 0.8794,1.2469 0.2253,1.6834 l 0.1503,0.1421 c 0.3866,1.0145 0.5845,2.0857 0.5859,3.1661 l 0.0085,10e-4 c -0.054,0.9844 0.1491,1.9657 0.5889,2.8478 l -0.0027,0.0739 c 0.4074,0.835 0.2924,1.6382 -0.0583,2.5375 l 0.0248,0.0455 22.185,6.8537 -0.0431,0.013 c 0.1916,-0.1596 0.9918,-0.4956 0.9605,-1.9168 l -0.1149,-0.375 c -0.4214,-1.3761 -0.2327,-3.2583 0.7295,-4.3288 l 0.0656,-0.0305 c -0.1299,-0.6528 0.1637,-1.3155 0.7342,-1.6584 l -0.1682,-0.1579 c 0.4642,0.2321 0.4642,0.8945 0,1.1266 l -0.0585,0.0834 c 0.1019,0.512 0.1077,0.9642 0.0393,1.4824 l -0.0582,0.1459 c -0.4902,1.1683 -0.458,2.2142 0.2127,3.3223 0.6274,1.0363 0.9285,2.1953 0.2248,3.1818 l 0.094,-0.0794 -0.619,0.8378 0.1167,17.6166 23.625,6.0084 26.3594,-7.9844 -0.0657,-0.2843 c 4e-4,-0.5435 -0.0177,-1.4619 0.35,-1.75 l 0.0875,-0.2625 c 0.5062,-0.724 0.2704,-1.2828 0.1979,-2.1629 -0.0762,-0.9184 0.1699,-1.8355 0.7093,-2.6394 l 0.2215,0.1032 c -0.5825,-3e-4 -1.0254,-0.3472 -0.9328,-0.7304 0.094,-0.3835 0.6791,-0.6193 1.2315,-0.4973 0.7458,0.1668 0.8791,0.8312 0.2256,1.1224 l -0.0896,0.1706 c 0.294,0.686 0.4638,1.4085 0.5025,2.14 -0.0711,0.8279 -0.0154,1.6824 0.4265,2.4165 0.2502,0.5647 0.2803,1.2872 0.0783,1.8936 l 0.004,0.1336 18.294,5.7063 c 0.5862,-0.4313 0.8316,-0.9878 0.7048,-1.6406 l -0.005,-0.1532 c -0.3312,-1.1101 -0.2058,-2.4178 0.6125,-3.2374 l 0.1169,-0.0954 c -0.2133,-0.4819 0.1189,-1.0046 0.7533,-1.1833 l -0.35,-0.0509 c 0.5677,0.0714 0.6518,0.4569 0.1289,0.5879 l -0.014,0.0403 c 0.0632,0.4132 0.0632,0.8333 -4e-4,1.2459 l -0.0721,-0.0304 c -0.2598,0.8449 -0.2598,1.7479 -7e-4,2.5924 l 0.0649,0.002 c 0.4939,0.7411 0.4936,1.7056 0,2.4466 l 0.1607,0.3514 -0.0615,28.8839 0.9013,0.0964 -0.6296,0.9447"
           inkscape:connector-curvature="0" />
        <path
           id="path26819"
           style="fill:none;stroke:#231f20;stroke-width:0.52499998;stroke-linecap:butt;stroke-linejoin:miter;stroke-miterlimit:4;stroke-opacity:1;stroke-dasharray:none"
           d="m 155.0624,638.4565 -40.7634,6.6555 -88.9116,-12.7108 -0.9454,-1.5749 0.6037,-0.2224 0.0265,-0.0928 0,-6.6144 0.3895,-0.1602 -0.0406,-0.5848 -0.3723,0.144 0.0291,-27.9709 -0.3044,-0.26 c -0.551,-0.8467 -0.4033,-1.9087 0.3637,-2.6145 l -0.162,-0.1022 c 0.1292,-0.5817 0.1292,-1.2106 0,-1.793 l 0.0752,-0.0424 c -0.3904,-1.0186 -0.3904,-2.1455 7e-4,-3.1644 l -0.0175,0.0465 c -0.3684,-0.3698 -0.3681,-0.9672 3e-4,-1.3368 l 0.0383,0.0387 c 0.348,3e-4 0.6296,0.2817 0.6296,0.6299 l -0.162,0.009 c 0.2803,0.0356 0.4772,0.1611 0.4772,0.3056 l 0.0864,0.0164 c -0.1514,0.8094 -0.1022,1.6437 0.1426,2.4302 l -0.2393,0.0786 c 0.4136,0.7551 0.4334,1.6365 0.0537,2.4062 l 0.2974,0.1128 c -0.1118,0.6754 0.1493,1.3576 0.6832,1.7863 l 0.0846,0.1216 27.632,-15.6167 0.0412,-0.1145 c -0.3746,-0.8616 -0.3006,-1.967 0.126,-2.7517 l -0.0677,0.0974 c 0.5407,-0.9318 0.543,-1.829 0.4083,-2.9166 l -0.0258,-0.0756 c -0.122,-1.1795 0.1063,-2.3682 0.6597,-3.4299 l 0.0434,-0.1879 c -0.7773,-0.5196 -0.4102,-1.7305 0.5243,-1.7316 l -0.0161,0.0482 c 0.7462,0.2499 0.8794,1.2469 0.2253,1.6834 l 0.1503,0.1421 c 0.3866,1.0145 0.5845,2.0857 0.5859,3.1661 l 0.0085,10e-4 c -0.054,0.9844 0.1491,1.9657 0.5889,2.8478 l -0.0027,0.0739 c 0.4074,0.835 0.2924,1.6382 -0.0583,2.5375 l 0.0248,0.0455 22.185,6.8537 -0.0431,0.013 c 0.1916,-0.1596 0.9918,-0.4956 0.9605,-1.9168 l -0.1149,-0.375 c -0.4214,-1.3761 -0.2327,-3.2583 0.7295,-4.3288 l 0.0656,-0.0305 c -0.1299,-0.6528 0.1637,-1.3155 0.7342,-1.6584 l -0.1682,-0.1579 c 0.4642,0.2321 0.4642,0.8945 0,1.1266 l -0.0585,0.0834 c 0.1019,0.512 0.1077,0.9642 0.0393,1.4824 l -0.0582,0.1459 c -0.4902,1.1683 -0.458,2.2142 0.2127,3.3223 0.6274,1.0363 0.9285,2.1953 0.2248,3.1818 l 0.094,-0.0794 -0.619,0.8378 0.1167,17.6166 23.625,6.0084 26.3594,-7.9844 -0.0657,-0.2843 c 4e-4,-0.5435 -0.0177,-1.4619 0.35,-1.75 l 0.0875,-0.2625 c 0.5062,-0.724 0.2704,-1.2828 0.1979,-2.1629 -0.0762,-0.9184 0.1699,-1.8355 0.7093,-2.6394 l 0.2215,0.1032 c -0.5825,-3e-4 -1.0254,-0.3472 -0.9328,-0.7304 0.094,-0.3835 0.6791,-0.6193 1.2315,-0.4973 0.7458,0.1668 0.8791,0.8312 0.2256,1.1224 l -0.0896,0.1706 c 0.294,0.686 0.4638,1.4085 0.5025,2.14 -0.0711,0.8279 -0.0154,1.6824 0.4265,2.4165 0.2502,0.5647 0.2803,1.2872 0.0783,1.8936 l 0.004,0.1336 18.294,5.7063 c 0.5862,-0.4313 0.8316,-0.9878 0.7048,-1.6406 l -0.005,-0.1532 c -0.3312,-1.1101 -0.2058,-2.4178 0.6125,-3.2374 l 0.1169,-0.0954 c -0.2133,-0.4819 0.1189,-1.0046 0.7533,-1.1833 l -0.35,-0.0509 c 0.5677,0.0714 0.6518,0.4569 0.1289,0.5879 l -0.014,0.0403 c 0.0632,0.4132 0.0632,0.8333 -4e-4,1.2459 l -0.0721,-0.0304 c -0.2598,0.8449 -0.2598,1.7479 -7e-4,2.5924 l 0.0649,0.002 c 0.4939,0.7411 0.4936,1.7056 0,2.4466 l 0.1607,0.3514 -0.0615,28.8839 0.9013,0.0964 -0.6296,0.9447 -0.7468,0.3445 z"
           inkscape:connector-curvature="0" />
        <path
           id="path26821"
           style="fill:#e6e6e6;fill-opacity:1;fill-rule:evenodd;stroke:none"
           d="m 153.499,607.312 1.8375,0.525"
           inkscape:connector-curvature="0" />
        <path
           id="path26823"
           style="fill:none;stroke:#231f20;stroke-width:0.34999999;stroke-linecap:butt;stroke-linejoin:miter;stroke-miterlimit:4;stroke-opacity:1;stroke-dasharray:none"
           d="m 153.499,607.312 1.8375,0.525"
           inkscape:connector-curvature="0" />
        <path
           id="path26825"
           style="fill:#e6e6e6;fill-opacity:1;fill-rule:evenodd;stroke:none"
           d="m 135.2115,601.6901 -1.0719,-0.2843 -1.7718,0.5906"
           inkscape:connector-curvature="0" />
        <path
           id="path26827"
           style="fill:none;stroke:#231f20;stroke-width:0.34999999;stroke-linecap:butt;stroke-linejoin:miter;stroke-miterlimit:4;stroke-opacity:1;stroke-dasharray:none"
           d="m 135.2115,601.6901 -1.0719,-0.2843 -1.7718,0.5906"
           inkscape:connector-curvature="0" />
        <path
           id="path26829"
           style="fill:#e6e6e6;fill-opacity:1;fill-rule:evenodd;stroke:none"
           d="m 80.3198,584.6932 2.5149,0.8248"
           inkscape:connector-curvature="0" />
        <path
           id="path26831"
           style="fill:none;stroke:#231f20;stroke-width:0.34999999;stroke-linecap:butt;stroke-linejoin:miter;stroke-miterlimit:4;stroke-opacity:1;stroke-dasharray:none"
           d="m 80.3198,584.6932 2.5149,0.8248"
           inkscape:connector-curvature="0" />
        <path
           id="path26833"
           style="fill:#e6e6e6;fill-opacity:1;fill-rule:evenodd;stroke:none"
           d="m 54.9157,578.233 1.6682,-0.9157"
           inkscape:connector-curvature="0" />
        <path
           id="path26835"
           style="fill:none;stroke:#231f20;stroke-width:0.34999999;stroke-linecap:butt;stroke-linejoin:miter;stroke-miterlimit:4;stroke-opacity:1;stroke-dasharray:none"
           d="m 54.9157,578.233 1.6682,-0.9157"
           inkscape:connector-curvature="0" />
        <path
           id="path26837"
           style="fill:#e6e6e6;fill-opacity:1;fill-rule:evenodd;stroke:none"
           d="m 56.5839,610.3923 -30.8932,13.253"
           inkscape:connector-curvature="0" />
        <path
           id="path26839"
           style="fill:none;stroke:#231f20;stroke-width:0.34999999;stroke-linecap:butt;stroke-linejoin:miter;stroke-miterlimit:4;stroke-opacity:1;stroke-dasharray:none"
           d="m 56.5839,610.3923 -30.8932,13.253"
           inkscape:connector-curvature="0" />
        <path
           id="path26841"
           style="fill:none;stroke:#231f20;stroke-width:0.34999999;stroke-linecap:butt;stroke-linejoin:miter;stroke-miterlimit:4;stroke-opacity:1;stroke-dasharray:none"
           d="M 56.899,620.1567 25.6323,632.337"
           inkscape:connector-curvature="0" />
        <path
           id="path26843"
           style="fill:none;stroke:#231f20;stroke-width:0.34999999;stroke-linecap:butt;stroke-linejoin:miter;stroke-miterlimit:4;stroke-opacity:1;stroke-dasharray:none"
           d="m 56.5839,577.3173 0,40.6348"
           inkscape:connector-curvature="0" />
        <path
           id="path26845"
           style="fill:none;stroke:#231f20;stroke-width:0.20999999;stroke-linecap:butt;stroke-linejoin:miter;stroke-miterlimit:4;stroke-opacity:1;stroke-dasharray:none"
           d="m 134.074,602.2018 0,30.5549"
           inkscape:connector-curvature="0" />
        <path
           id="path26847"
           style="fill:none;stroke:#231f20;stroke-width:0.34999999;stroke-linecap:butt;stroke-linejoin:miter;stroke-miterlimit:4;stroke-opacity:1;stroke-dasharray:none"
           d="m 56.899,620.1567 98.2803,18.2704"
           inkscape:connector-curvature="0" />
        <path
           id="path26849"
           style="fill:none;stroke:#231f20;stroke-width:0.34999999;stroke-linecap:butt;stroke-linejoin:miter;stroke-miterlimit:4;stroke-opacity:1;stroke-dasharray:none"
           d="m 27.2425,593.9642 -2.0534,1.2376"
           inkscape:connector-curvature="0" />
        <path
           id="path26851"
           style="fill:none;stroke:#231f20;stroke-width:0.34999999;stroke-linecap:butt;stroke-linejoin:miter;stroke-miterlimit:4;stroke-opacity:1;stroke-dasharray:none"
           d="m 56.5839,577.3173 1.4234,0.4782"
           inkscape:connector-curvature="0" />
        <path
           id="path26853"
           style="fill:none;stroke:#231f20;stroke-width:0.20999999;stroke-linecap:butt;stroke-linejoin:miter;stroke-miterlimit:4;stroke-opacity:1;stroke-dasharray:none"
           d="M 56.5839,577.9472 25.224,595.8785"
           inkscape:connector-curvature="0" />
        <path
           id="path26855"
           style="fill:none;stroke:#231f20;stroke-width:0.20999999;stroke-linecap:butt;stroke-linejoin:miter;stroke-miterlimit:4;stroke-opacity:1;stroke-dasharray:none"
           d="m 105.899,610.812 28.175,-8.6102 20.9562,6.4227"
           inkscape:connector-curvature="0" />
        <path
           id="path26857"
           style="fill:none;stroke:#231f20;stroke-width:0.20999999;stroke-linecap:butt;stroke-linejoin:miter;stroke-miterlimit:4;stroke-opacity:1;stroke-dasharray:none"
           d="m 56.6714,578.1222 24.7973,7.7"
           inkscape:connector-curvature="0" />
        <path
           id="path26859"
           style="fill:none;stroke:#231f20;stroke-width:0.20999999;stroke-linecap:butt;stroke-linejoin:miter;stroke-miterlimit:4;stroke-opacity:1;stroke-dasharray:none"
           d="m 57.2141,578.262 0,39.6901"
           inkscape:connector-curvature="0" />
        <path
           id="path26861"
           style="fill:none;stroke:#231f20;stroke-width:0.20999999;stroke-linecap:butt;stroke-linejoin:miter;stroke-miterlimit:4;stroke-opacity:1;stroke-dasharray:none"
           d="M 82.0641,622.6771 82.274,603.987"
           inkscape:connector-curvature="0" />
        <path
           id="path26863"
           style="fill:none;stroke:#231f20;stroke-width:0.34999999;stroke-linecap:butt;stroke-linejoin:miter;stroke-miterlimit:4;stroke-opacity:1;stroke-dasharray:none"
           d="m 154.8293,636.8522 0,-28.3501"
           inkscape:connector-curvature="0" />
        <path
           id="path26865"
           style="fill:none;stroke:#231f20;stroke-width:0.34999999;stroke-linecap:butt;stroke-linejoin:miter;stroke-miterlimit:4;stroke-opacity:1;stroke-dasharray:none"
           d="m 56.899,617.9521 98.4812,19.1099"
           inkscape:connector-curvature="0" />
        <path
           id="path26867"
           style="fill:none;stroke:#231f20;stroke-width:0.34999999;stroke-linecap:butt;stroke-linejoin:miter;stroke-miterlimit:4;stroke-opacity:1;stroke-dasharray:none"
           d="m 56.899,620.1567 0,-2.2046"
           inkscape:connector-curvature="0" />
        <path
           id="path26869"
           style="fill:none;stroke:#231f20;stroke-width:0.20999999;stroke-linecap:butt;stroke-linejoin:miter;stroke-miterlimit:4;stroke-opacity:1;stroke-dasharray:none"
           d="m 56.899,619.5272 98.9102,18.5848"
           inkscape:connector-curvature="0" />
        <path
           id="path26871"
           style="fill:none;stroke:#231f20;stroke-width:0.20999999;stroke-linecap:butt;stroke-linejoin:miter;stroke-miterlimit:4;stroke-opacity:1;stroke-dasharray:none"
           d="M 56.899,619.5272 25.5157,631.8703"
           inkscape:connector-curvature="0" />
        <path
           id="path26873"
           style="fill:none;stroke:#231f20;stroke-width:0.34999999;stroke-linecap:butt;stroke-linejoin:miter;stroke-miterlimit:4;stroke-opacity:1;stroke-dasharray:none"
           d="m 155.1793,638.4271 0.6299,-0.3151"
           inkscape:connector-curvature="0" />
        <path
           id="path26875"
           style="fill:none;stroke:#231f20;stroke-width:0.34999999;stroke-linecap:butt;stroke-linejoin:miter;stroke-miterlimit:4;stroke-opacity:1;stroke-dasharray:none"
           d="m 57.5293,617.9521 0,-5.9848"
           inkscape:connector-curvature="0" />
        <path
           id="path26877"
           style="fill:none;stroke:#231f20;stroke-width:0.34999999;stroke-linecap:butt;stroke-linejoin:miter;stroke-miterlimit:4;stroke-opacity:1;stroke-dasharray:none"
           d="m 134.7302,628.137 20.1336,4.3053"
           inkscape:connector-curvature="0" />
        <path
           id="path26879"
           style="fill:none;stroke:#231f20;stroke-width:0.34999999;stroke-linecap:butt;stroke-linejoin:miter;stroke-miterlimit:4;stroke-opacity:1;stroke-dasharray:none"
           d="m 57.5293,611.9673 0,-11.025"
           inkscape:connector-curvature="0" />
        <path
           id="path26881"
           style="fill:none;stroke:#231f20;stroke-width:0.34999999;stroke-linecap:butt;stroke-linejoin:miter;stroke-miterlimit:4;stroke-opacity:1;stroke-dasharray:none"
           d="m 57.5293,600.6268 0,-10.7095"
           inkscape:connector-curvature="0" />
        <path
           id="path26883"
           style="fill:none;stroke:#231f20;stroke-width:0.34999999;stroke-linecap:butt;stroke-linejoin:miter;stroke-miterlimit:4;stroke-opacity:1;stroke-dasharray:none"
           d="m 57.5293,589.6018 0,-11.025"
           inkscape:connector-curvature="0" />
        <path
           id="path26885"
           style="fill:none;stroke:#231f20;stroke-width:0.34999999;stroke-linecap:butt;stroke-linejoin:miter;stroke-miterlimit:4;stroke-opacity:1;stroke-dasharray:none"
           d="m 57.6168,611.7048 23.9394,5.0395"
           inkscape:connector-curvature="0" />
        <path
           id="path26887"
           style="fill:none;stroke:#231f20;stroke-width:0.34999999;stroke-linecap:butt;stroke-linejoin:miter;stroke-miterlimit:4;stroke-opacity:1;stroke-dasharray:none"
           d="m 134.7043,619.5272 20.1595,5.0401"
           inkscape:connector-curvature="0" />
        <path
           id="path26889"
           style="fill:none;stroke:#231f20;stroke-width:0.34999999;stroke-linecap:butt;stroke-linejoin:miter;stroke-miterlimit:4;stroke-opacity:1;stroke-dasharray:none"
           d="m 57.5293,600.6268 24.0447,5.7227"
           inkscape:connector-curvature="0" />
        <path
           id="path26891"
           style="fill:none;stroke:#231f20;stroke-width:0.34999999;stroke-linecap:butt;stroke-linejoin:miter;stroke-miterlimit:4;stroke-opacity:1;stroke-dasharray:none"
           d="m 57.5293,589.9173 23.9394,6.6144"
           inkscape:connector-curvature="0" />
        <path
           id="path26893"
           style="fill:none;stroke:#231f20;stroke-width:0.34999999;stroke-linecap:butt;stroke-linejoin:miter;stroke-miterlimit:4;stroke-opacity:1;stroke-dasharray:none"
           d="m 134.6865,610.8995 20.1773,5.4776"
           inkscape:connector-curvature="0" />
        <path
           id="path26895"
           style="fill:none;stroke:#231f20;stroke-width:0.34999999;stroke-linecap:butt;stroke-linejoin:miter;stroke-miterlimit:4;stroke-opacity:1;stroke-dasharray:none"
           d="m 81.4687,622.6771 0,-5.6704"
           inkscape:connector-curvature="0" />
        <path
           id="path26897"
           style="fill:none;stroke:#231f20;stroke-width:0.34999999;stroke-linecap:butt;stroke-linejoin:miter;stroke-miterlimit:4;stroke-opacity:1;stroke-dasharray:none"
           d="m 81.4687,617.0067 0,-10.3947"
           inkscape:connector-curvature="0" />
        <path
           id="path26899"
           style="fill:none;stroke:#231f20;stroke-width:0.34999999;stroke-linecap:butt;stroke-linejoin:miter;stroke-miterlimit:4;stroke-opacity:1;stroke-dasharray:none"
           d="m 81.4687,606.612 0,-10.0803"
           inkscape:connector-curvature="0" />
        <path
           id="path26901"
           style="fill:none;stroke:#231f20;stroke-width:0.34999999;stroke-linecap:butt;stroke-linejoin:miter;stroke-miterlimit:4;stroke-opacity:1;stroke-dasharray:none"
           d="m 81.4687,596.2173 0,-10.3951"
           inkscape:connector-curvature="0" />
        <path
           id="path26903"
           style="fill:none;stroke:#231f20;stroke-width:0.34999999;stroke-linecap:butt;stroke-linejoin:miter;stroke-miterlimit:4;stroke-opacity:1;stroke-dasharray:none"
           d="M 134.7043,633.0719 134.599,602.4557"
           inkscape:connector-curvature="0" />
        <path
           id="path26905"
           style="fill:none;stroke:#231f20;stroke-width:0.20999999;stroke-linecap:butt;stroke-linejoin:miter;stroke-miterlimit:4;stroke-opacity:1;stroke-dasharray:none"
           d="m 56.5254,609.8437 -30.9222,13.16"
           inkscape:connector-curvature="0" />
        <path
           id="path26907"
           style="fill:none;stroke:#231f20;stroke-width:0.34999999;stroke-linecap:butt;stroke-linejoin:miter;stroke-miterlimit:4;stroke-opacity:1;stroke-dasharray:none"
           d="m 53.1187,602.8317 0,-14.8049"
           inkscape:connector-curvature="0" />
        <path
           id="path26909"
           style="fill:none;stroke:#231f20;stroke-width:0.34999999;stroke-linecap:butt;stroke-linejoin:miter;stroke-miterlimit:4;stroke-opacity:1;stroke-dasharray:none"
           d="m 49.9687,607.8719 -19.425,9.0651"
           inkscape:connector-curvature="0" />
        <path
           id="path26911"
           style="fill:none;stroke:#231f20;stroke-width:0.34999999;stroke-linecap:butt;stroke-linejoin:miter;stroke-miterlimit:4;stroke-opacity:1;stroke-dasharray:none"
           d="m 49.9687,586.137 -19.425,10.325"
           inkscape:connector-curvature="0" />
        <path
           id="path26913"
           style="fill:none;stroke:#231f20;stroke-width:0.34999999;stroke-linecap:butt;stroke-linejoin:miter;stroke-miterlimit:4;stroke-opacity:1;stroke-dasharray:none"
           d="m 53.1802,588.2452 c -1.4867,0.4231 -2.9996,-0.5777 -3.1916,-2.1113"
           inkscape:connector-curvature="0" />
        <path
           id="path26915"
           style="fill:none;stroke:#231f20;stroke-width:0.34999999;stroke-linecap:butt;stroke-linejoin:miter;stroke-miterlimit:4;stroke-opacity:1;stroke-dasharray:none"
           d="m 49.7083,607.9074 c -0.362,-2.2241 1.1248,-4.3456 3.4532,-4.9263"
           inkscape:connector-curvature="0" />
        <path
           id="path26917"
           style="fill:none;stroke:#231f20;stroke-width:0.34999999;stroke-linecap:butt;stroke-linejoin:miter;stroke-miterlimit:4;stroke-opacity:1;stroke-dasharray:none"
           d="m 67.6089,617.9521 c 0,0.3152 0,0.3152 0,0 0,-0.3151 0,-0.3151 0,0 z"
           inkscape:connector-curvature="0" />
        <path
           id="path26919"
           style="fill:none;stroke:#231f20;stroke-width:0.34999999;stroke-linecap:butt;stroke-linejoin:miter;stroke-miterlimit:4;stroke-opacity:1;stroke-dasharray:none"
           d="m 71.7043,618.8969 c 0,0.3151 0,0.3151 0,0 0,-0.3152 0,-0.3152 0,0 z"
           inkscape:connector-curvature="0" />
        <path
           id="path26921"
           style="fill:none;stroke:#231f20;stroke-width:0.34999999;stroke-linecap:butt;stroke-linejoin:miter;stroke-miterlimit:4;stroke-opacity:1;stroke-dasharray:none"
           d="m 67.8396,617.8677 c 1.2489,-0.955 3.192,-0.6135 3.9224,0.6894"
           inkscape:connector-curvature="0" />
        <path
           id="path26923"
           style="fill:none;stroke:#231f20;stroke-width:0.34999999;stroke-linecap:butt;stroke-linejoin:miter;stroke-miterlimit:4;stroke-opacity:1;stroke-dasharray:none"
           d="m 124.423,629.0676 c 1.2489,-0.9551 3.1921,-0.6136 3.9225,0.6894"
           inkscape:connector-curvature="0" />
        <path
           id="path26925"
           style="fill:none;stroke:#231f20;stroke-width:0.34999999;stroke-linecap:butt;stroke-linejoin:miter;stroke-miterlimit:4;stroke-opacity:1;stroke-dasharray:none"
           d="m 90.0065,621.9508 c 1.2489,-0.955 3.192,-0.6135 3.9224,0.6895"
           inkscape:connector-curvature="0" />
        <path
           id="path26927"
           style="fill:none;stroke:#231f20;stroke-width:0.34999999;stroke-linecap:butt;stroke-linejoin:miter;stroke-miterlimit:4;stroke-opacity:1;stroke-dasharray:none"
           d="m 67.6089,611.6522 c 0,0.3151 0,0.3151 0,0 0,-0.3152 0,-0.3152 0,0 z"
           inkscape:connector-curvature="0" />
        <path
           id="path26929"
           style="fill:none;stroke:#231f20;stroke-width:0.34999999;stroke-linecap:butt;stroke-linejoin:miter;stroke-miterlimit:4;stroke-opacity:1;stroke-dasharray:none"
           d="m 71.7043,612.2817 c 0,0.3152 0,0.3152 0,0 0,-0.3144 0,-0.3144 0,0 z"
           inkscape:connector-curvature="0" />
        <path
           id="path26931"
           style="fill:none;stroke:#231f20;stroke-width:0.34999999;stroke-linecap:butt;stroke-linejoin:miter;stroke-miterlimit:4;stroke-opacity:1;stroke-dasharray:none"
           d="m 67.8396,611.2526 c 1.361,-1.0404 3.4925,-0.5281 4.055,0.9751"
           inkscape:connector-curvature="0" />
        <path
           id="path26933"
           style="fill:none;stroke:#231f20;stroke-width:0.34999999;stroke-linecap:butt;stroke-linejoin:miter;stroke-miterlimit:4;stroke-opacity:1;stroke-dasharray:none"
           d="m 67.6089,600.312 c 0,0.3148 0,0.3148 0,0 0,-0.3148 0,-0.3148 0,0 z"
           inkscape:connector-curvature="0" />
        <path
           id="path26935"
           style="fill:none;stroke:#231f20;stroke-width:0.34999999;stroke-linecap:butt;stroke-linejoin:miter;stroke-miterlimit:4;stroke-opacity:1;stroke-dasharray:none"
           d="m 71.7043,601.2567 c 0,0.3155 0,0.3155 0,0 0,-0.3144 0,-0.3144 0,0 z"
           inkscape:connector-curvature="0" />
        <path
           id="path26937"
           style="fill:none;stroke:#231f20;stroke-width:0.34999999;stroke-linecap:butt;stroke-linejoin:miter;stroke-miterlimit:4;stroke-opacity:1;stroke-dasharray:none"
           d="m 67.6393,600.0837 c 1.3033,-1.2452 3.6548,-0.8005 4.2553,0.8036"
           inkscape:connector-curvature="0" />
        <path
           id="path26939"
           style="fill:none;stroke:#231f20;stroke-width:0.34999999;stroke-linecap:butt;stroke-linejoin:miter;stroke-miterlimit:4;stroke-opacity:1;stroke-dasharray:none"
           d="m 67.6089,589.287 c 0,0.3148 0,0.3148 0,0 0,-0.3148 0,-0.3148 0,0 z"
           inkscape:connector-curvature="0" />
        <path
           id="path26941"
           style="fill:none;stroke:#231f20;stroke-width:0.34999999;stroke-linecap:butt;stroke-linejoin:miter;stroke-miterlimit:4;stroke-opacity:1;stroke-dasharray:none"
           d="m 71.7043,589.9173 c 0,0.3145 0,0.3145 0,0 0,-0.3155 0,-0.3155 0,0 z"
           inkscape:connector-curvature="0" />
        <path
           id="path26943"
           style="fill:none;stroke:#231f20;stroke-width:0.34999999;stroke-linecap:butt;stroke-linejoin:miter;stroke-miterlimit:4;stroke-opacity:1;stroke-dasharray:none"
           d="m 67.8396,588.8878 c 1.361,-1.0411 3.4925,-0.5284 4.055,0.9744"
           inkscape:connector-curvature="0" />
        <path
           id="path26945"
           style="fill:none;stroke:#231f20;stroke-width:0.34999999;stroke-linecap:butt;stroke-linejoin:miter;stroke-miterlimit:4;stroke-opacity:1;stroke-dasharray:none"
           d="m 142.8937,633.0719 c -0.3144,0.3151 -0.3144,0.3151 -0.3144,0 0,-0.3152 0,-0.3152 0,0 l 0.3144,0 z"
           inkscape:connector-curvature="0" />
        <path
           id="path26947"
           style="fill:none;stroke:#231f20;stroke-width:0.34999999;stroke-linecap:butt;stroke-linejoin:miter;stroke-miterlimit:4;stroke-opacity:1;stroke-dasharray:none"
           d="m 146.674,633.7021 c -0.3148,0.3152 -0.3148,0.3152 -0.3148,0 0,-0.3151 0,-0.3151 0,0 l 0.3148,0 z"
           inkscape:connector-curvature="0" />
        <path
           id="path26949"
           style="fill:none;stroke:#231f20;stroke-width:0.34999999;stroke-linecap:butt;stroke-linejoin:miter;stroke-miterlimit:4;stroke-opacity:1;stroke-dasharray:none"
           d="m 142.7765,632.6105 c 1.2305,-0.9834 3.0639,-0.3982 3.4976,1.1156"
           inkscape:connector-curvature="0" />
        <path
           id="path26951"
           style="fill:none;stroke:#231f20;stroke-width:0.34999999;stroke-linecap:butt;stroke-linejoin:miter;stroke-miterlimit:4;stroke-opacity:1;stroke-dasharray:none"
           d="m 142.5793,627.7173 c 0,0.3144 0,0.3144 0,0 0,-0.3151 0,-0.3151 0,0 z"
           inkscape:connector-curvature="0" />
        <path
           id="path26953"
           style="fill:none;stroke:#231f20;stroke-width:0.34999999;stroke-linecap:butt;stroke-linejoin:miter;stroke-miterlimit:4;stroke-opacity:1;stroke-dasharray:none"
           d="m 146.674,628.662 c -0.3148,0.3152 -0.3148,0.3152 -0.3148,0 0,-0.3151 0,-0.3151 0,0 l 0.3148,0 z"
           inkscape:connector-curvature="0" />
        <path
           id="path26955"
           style="fill:none;stroke:#231f20;stroke-width:0.34999999;stroke-linecap:butt;stroke-linejoin:miter;stroke-miterlimit:4;stroke-opacity:1;stroke-dasharray:none"
           d="m 142.595,627.4178 c 1.1901,-1.1877 3.2163,-0.6627 3.6791,0.9537"
           inkscape:connector-curvature="0" />
        <path
           id="path26957"
           style="fill:none;stroke:#231f20;stroke-width:0.34999999;stroke-linecap:butt;stroke-linejoin:miter;stroke-miterlimit:4;stroke-opacity:1;stroke-dasharray:none"
           d="m 142.5793,619.212 c 0,0.3152 0,0.3152 0,0 0,-0.3151 0,-0.3151 0,0 z"
           inkscape:connector-curvature="0" />
        <path
           id="path26959"
           style="fill:none;stroke:#231f20;stroke-width:0.34999999;stroke-linecap:butt;stroke-linejoin:miter;stroke-miterlimit:4;stroke-opacity:1;stroke-dasharray:none"
           d="m 146.3592,619.8423 c 0,0.3144 0,0.3144 0,0 0,-0.3151 0,-0.3151 0,0 z"
           inkscape:connector-curvature="0" />
        <path
           id="path26961"
           style="fill:none;stroke:#231f20;stroke-width:0.34999999;stroke-linecap:butt;stroke-linejoin:miter;stroke-miterlimit:4;stroke-opacity:1;stroke-dasharray:none"
           d="m 142.595,618.913 c 1.1901,-1.1881 3.2163,-0.6631 3.6791,0.9532"
           inkscape:connector-curvature="0" />
        <path
           id="path26963"
           style="fill:none;stroke:#231f20;stroke-width:0.34999999;stroke-linecap:butt;stroke-linejoin:miter;stroke-miterlimit:4;stroke-opacity:1;stroke-dasharray:none"
           d="m 142.5793,610.3923 c 0,0.3144 0,0.3144 0,0 0,-0.3152 0,-0.3152 0,0 z"
           inkscape:connector-curvature="0" />
        <path
           id="path26965"
           style="fill:none;stroke:#231f20;stroke-width:0.34999999;stroke-linecap:butt;stroke-linejoin:miter;stroke-miterlimit:4;stroke-opacity:1;stroke-dasharray:none"
           d="m 146.3592,611.337 c 0,0.3152 0,0.3152 0,0 0,-0.3151 0,-0.3151 0,0 z"
           inkscape:connector-curvature="0" />
        <path
           id="path26967"
           style="fill:none;stroke:#231f20;stroke-width:0.34999999;stroke-linecap:butt;stroke-linejoin:miter;stroke-miterlimit:4;stroke-opacity:1;stroke-dasharray:none"
           d="m 142.595,610.0929 c 1.1901,-1.1877 3.2163,-0.6628 3.6791,0.9536"
           inkscape:connector-curvature="0" />
        <path
           id="path26969"
           style="fill:#e6e6e6;fill-opacity:1;fill-rule:evenodd;stroke:none"
           d="M 25.1626,630.5745 56.899,617.9521"
           inkscape:connector-curvature="0" />
        <path
           id="path26971"
           style="fill:none;stroke:#231f20;stroke-width:0.34999999;stroke-linecap:butt;stroke-linejoin:miter;stroke-miterlimit:4;stroke-opacity:1;stroke-dasharray:none"
           d="M 25.1626,630.5745 56.899,617.9521"
           inkscape:connector-curvature="0" />
        <path
           id="path26973"
           style="fill:none;stroke:#231f20;stroke-width:0.34999999;stroke-linecap:butt;stroke-linejoin:miter;stroke-miterlimit:4;stroke-opacity:1;stroke-dasharray:none"
           d="m 28.024,601.187 0,13.2303"
           inkscape:connector-curvature="0" />
        <path
           id="path26975"
           style="fill:none;stroke:#231f20;stroke-width:0.34999999;stroke-linecap:butt;stroke-linejoin:miter;stroke-miterlimit:4;stroke-opacity:1;stroke-dasharray:none"
           d="m 28.024,614.487 c 1.8505,-1.0264 3.7333,1.1667 2.6542,2.4208"
           inkscape:connector-curvature="0" />
        <path
           id="path26977"
           style="fill:none;stroke:#231f20;stroke-width:0.34999999;stroke-linecap:butt;stroke-linejoin:miter;stroke-miterlimit:4;stroke-opacity:1;stroke-dasharray:none"
           d="m 30.5348,596.4627 c 0.1121,1.9311 -0.8244,3.772 -2.4506,4.8196"
           inkscape:connector-curvature="0" />
        <path
           id="path26979"
           style="fill:none;stroke:#231f20;stroke-width:0.34999999;stroke-linecap:butt;stroke-linejoin:miter;stroke-miterlimit:4;stroke-opacity:1;stroke-dasharray:none"
           d="M 105.8406,621.0787 105.899,609.937"
           inkscape:connector-curvature="0" />
        <path
           id="path26981"
           style="fill:none;stroke:#231f20;stroke-width:0.20999999;stroke-linecap:butt;stroke-linejoin:miter;stroke-miterlimit:4;stroke-opacity:1;stroke-dasharray:none"
           d="m 82.274,616.8787 51.5665,11.0833"
           inkscape:connector-curvature="0" />
        <path
           id="path26983"
           style="fill:none;stroke:#231f20;stroke-width:0.34999999;stroke-linecap:butt;stroke-linejoin:miter;stroke-miterlimit:4;stroke-opacity:1;stroke-dasharray:none"
           d="M 82.1574,616.1787 133.724,627.262"
           inkscape:connector-curvature="0" />
      </g>
    </g>
  </g>
</svg>
